xof 0303txt 0032
template XSkinMeshHeader {
 <3cf169ce-ff7c-44ab-93c0-f78f62d172e2>
 WORD nMaxSkinWeightsPerVertex;
 WORD nMaxSkinWeightsPerFace;
 WORD nBones;
}

template VertexDuplicationIndices {
 <b8d65549-d7c9-4995-89cf-53a9a8b031e3>
 DWORD nIndices;
 DWORD nOriginalVertices;
 array DWORD indices[nIndices];
}

template SkinWeights {
 <6f0d123b-bad2-4167-a0d0-80224f25fabb>
 STRING transformNodeName;
 DWORD nWeights;
 array DWORD vertexIndices[nWeights];
 array FLOAT weights[nWeights];
 Matrix4x4 matrixOffset;
}

template FVFData {
 <b6e70a0e-8ef9-4e83-94ad-ecc8b0c04897>
 DWORD dwFVF;
 DWORD nDWords;
 array DWORD data[nDWords];
}

template EffectInstance {
 <e331f7e4-0559-4cc2-8e99-1cec1657928f>
 STRING EffectFilename;
 [...]
}

template EffectParamFloats {
 <3014b9a0-62f5-478c-9b86-e4ac9f4e418b>
 STRING ParamName;
 DWORD nFloats;
 array FLOAT Floats[nFloats];
}

template EffectParamString {
 <1dbc4c88-94c1-46ee-9076-2c28818c9481>
 STRING ParamName;
 STRING Value;
}

template EffectParamDWord {
 <e13963bc-ae51-4c5d-b00f-cfa3a9d97ce5>
 STRING ParamName;
 DWORD Value;
}


Material skyscrapers {
 1.000000;1.000000;1.000000;1.000000;;
 3.200000;
 0.000000;0.000000;0.000000;;
 0.000000;0.000000;0.000000;;

 TextureFilename {
  "Skyscrp.tga";
 }
}

Material buildz1 {
 1.000000;1.000000;1.000000;1.000000;;
 3.200000;
 0.000000;0.000000;0.000000;;
 0.000000;0.000000;0.000000;;

 TextureFilename {
  "buildz1.tga";
 }
}

Material buildz3 {
 1.000000;1.000000;1.000000;1.000000;;
 3.200000;
 0.000000;0.000000;0.000000;;
 0.000000;0.000000;0.000000;;

 TextureFilename {
  "buildz3.tga";
 }
}

Material buildz4 {
 1.000000;1.000000;1.000000;1.000000;;
 3.200000;
 0.000000;0.000000;0.000000;;
 0.000000;0.000000;0.000000;;

 TextureFilename {
  "buildz4.tga";
 }
}

Material buildz5 {
 1.000000;1.000000;1.000000;1.000000;;
 3.200000;
 0.000000;0.000000;0.000000;;
 0.000000;0.000000;0.000000;;

 TextureFilename {
  "buildz5.tga";
 }
}

Material buildz6 {
 1.000000;1.000000;1.000000;1.000000;;
 3.200000;
 0.000000;0.000000;0.000000;;
 0.000000;0.000000;0.000000;;

 TextureFilename {
  "buildz6.tga";
 }
}

Material buildz2 {
 1.000000;1.000000;1.000000;1.000000;;
 3.200000;
 0.000000;0.000000;0.000000;;
 0.000000;0.000000;0.000000;;

 TextureFilename {
  "buildz2.tga";
 }
}

Material roads {
 1.000000;1.000000;1.000000;1.000000;;
 3.200000;
 0.000000;0.000000;0.000000;;
 0.000000;0.000000;0.000000;;

 TextureFilename {
  "roads.tga";
 }
}

Material roads-2 {
 1.000000;1.000000;1.000000;1.000000;;
 3.200000;
 0.000000;0.000000;0.000000;;
 0.000000;0.000000;0.000000;;

 TextureFilename {
  "roads2.tga";
 }
}

Material tree-01 {
 1.000000;1.000000;1.000000;1.000000;;
 3.200000;
 0.000000;0.000000;0.000000;;
 0.000000;0.000000;0.000000;;

 TextureFilename {
  "trees-02.tga";
 }
}

Frame building-commercial_02 {
 

 FrameTransformMatrix {
  1.000000,0.000000,0.000000,0.000000,0.000000,-0.000000,-1.000000,0.000000,0.000000,1.000000,-0.000000,0.000000,0.000000,-12.670539,12.491668,1.000000;;
 }

 Frame {
  

  FrameTransformMatrix {
   1.000000,0.000000,0.000000,0.000000,0.000000,1.000000,0.000000,0.000000,0.000000,0.000000,1.000000,0.000000,0.000000,-0.000000,0.000000,1.000000;;
  }

  Mesh  {
   402;
   -23.478149;-11.143258;12.636546;,
   -10.647455;1.687434;12.636546;,
   -14.846308;5.886285;12.636546;,
   -14.846308;5.886285;12.636546;,
   -27.676996;-6.944406;12.636546;,
   -23.478149;-11.143258;12.636546;,
   -27.676996;-6.944406;3.036682;,
   -14.846306;5.886283;3.036681;,
   -14.846306;5.886283;0.000000;,
   -14.846306;5.886283;0.000000;,
   -27.676996;-6.944406;0.000000;,
   -27.676996;-6.944406;3.036682;,
   -27.676996;-6.944406;3.036682;,
   -27.676996;-6.944406;0.000000;,
   -23.478149;-11.143258;0.000000;,
   -23.478149;-11.143258;0.000000;,
   -23.478149;-11.143258;3.036682;,
   -27.676996;-6.944406;3.036682;,
   -14.846308;5.886285;12.636546;,
   -14.846306;5.886283;3.036681;,
   -27.676996;-6.944406;3.036682;,
   -27.676996;-6.944406;3.036682;,
   -27.676996;-6.944406;12.636546;,
   -14.846308;5.886285;12.636546;,
   -27.676996;-6.944406;3.036682;,
   -23.478149;-11.143258;3.036682;,
   -23.478149;-11.143258;12.636546;,
   -23.478149;-11.143258;12.636546;,
   -27.676996;-6.944406;12.636546;,
   -27.676996;-6.944406;3.036682;,
   -5.390475;6.944414;12.636546;,
   -9.589322;11.143268;12.636546;,
   -14.846308;5.886285;12.636546;,
   -14.846308;5.886285;12.636546;,
   -10.647455;1.687434;12.636546;,
   -5.390475;6.944414;12.636546;,
   -9.589321;11.143267;3.036682;,
   -9.589321;11.143267;0.000000;,
   -14.846306;5.886283;0.000000;,
   -14.846306;5.886283;0.000000;,
   -14.846306;5.886283;3.036681;,
   -9.589321;11.143267;3.036682;,
   -23.478149;-11.143258;3.036682;,
   -23.478149;-11.143258;0.000000;,
   -10.647455;1.687434;0.000000;,
   -10.647455;1.687434;0.000000;,
   -10.647455;1.687433;3.036682;,
   -23.478149;-11.143258;3.036682;,
   -9.589322;11.143268;12.636546;,
   -9.589321;11.143267;3.036682;,
   -14.846306;5.886283;3.036681;,
   -14.846306;5.886283;3.036681;,
   -14.846308;5.886285;12.636546;,
   -9.589322;11.143268;12.636546;,
   -23.478149;-11.143258;12.636546;,
   -23.478149;-11.143258;3.036682;,
   -10.647455;1.687433;3.036682;,
   -10.647455;1.687433;3.036682;,
   -10.647455;1.687434;12.636546;,
   -23.478149;-11.143258;12.636546;,
   -9.589321;11.143267;3.036682;,
   -0.000000;11.122599;3.036682;,
   -0.000000;11.122599;0.000000;,
   -0.000000;11.122599;0.000000;,
   -9.589321;11.143267;0.000000;,
   -9.589321;11.143267;3.036682;,
   -9.589322;11.143268;12.636546;,
   -0.000000;11.122600;12.636546;,
   -0.000000;11.122599;3.036682;,
   -0.000000;11.122599;3.036682;,
   -9.589321;11.143267;3.036682;,
   -9.589322;11.143268;12.636546;,
   -5.390475;6.944414;12.636546;,
   -0.000000;6.924538;12.636546;,
   -0.000000;11.122600;12.636546;,
   -0.000000;11.122600;12.636546;,
   -9.589322;11.143268;12.636546;,
   -5.390475;6.944414;12.636546;,
   0.000000;-2.358669;0.004330;,
   0.000000;-2.358669;6.000494;,
   -8.318295;-2.358670;6.000494;,
   -8.318295;-2.358670;6.000494;,
   -8.318295;-2.358670;0.004330;,
   0.000000;-2.358669;0.004330;,
   -8.318295;-2.358670;6.000494;,
   -10.232649;1.743647;6.000494;,
   -10.232649;1.743645;0.004330;,
   -10.232649;1.743645;0.004330;,
   -8.318295;-2.358670;0.004330;,
   -8.318295;-2.358670;6.000494;,
   -0.000000;3.014498;12.344032;,
   -0.000000;3.014498;20.438414;,
   -8.315182;3.007843;20.438414;,
   -8.315182;3.007843;20.438414;,
   -8.315182;3.007843;12.344032;,
   -0.000000;3.014498;12.344032;,
   -8.315182;3.007843;12.344032;,
   -8.315182;3.007843;20.438414;,
   -11.762308;6.406833;20.438414;,
   -11.762308;6.406833;20.438414;,
   -11.762308;6.406833;12.344032;,
   -8.315182;3.007843;12.344032;,
   -11.762308;6.406833;20.438414;,
   -8.315182;3.007843;20.438414;,
   -8.315184;9.865688;20.438414;,
   -8.315184;9.865688;12.344032;,
   -11.762308;6.406833;12.344032;,
   -11.762308;6.406833;20.438414;,
   -11.762308;6.406833;20.438414;,
   -8.315184;9.865688;20.438414;,
   -8.315184;9.865688;12.344032;,
   -23.153656;-9.429009;12.497618;,
   -14.393465;-0.668797;12.525284;,
   -14.393468;-0.668801;17.568254;,
   -14.393468;-0.668801;17.568254;,
   -23.153656;-9.429009;17.568256;,
   -23.153656;-9.429009;12.497618;,
   -25.971157;-6.611494;17.568256;,
   -25.971157;-6.611494;12.497618;,
   -23.153656;-9.429009;12.497618;,
   -23.153656;-9.429009;12.497618;,
   -23.153656;-9.429009;17.568256;,
   -25.971157;-6.611494;17.568256;,
   -17.226620;2.133063;17.568256;,
   -25.971157;-6.611494;17.568256;,
   -23.153656;-9.429009;17.568256;,
   -23.153656;-9.429009;17.568256;,
   -14.393468;-0.668801;17.568254;,
   -17.226620;2.133063;17.568256;,
   -17.226616;2.133067;12.525285;,
   -25.971157;-6.611494;12.497618;,
   -25.971157;-6.611494;17.568256;,
   -25.971157;-6.611494;17.568256;,
   -17.226620;2.133063;17.568256;,
   -17.226616;2.133067;12.525285;,
   -17.226616;2.133067;12.525285;,
   -17.226620;2.133063;17.568256;,
   -14.393468;-0.668801;17.568254;,
   -14.393468;-0.668801;17.568254;,
   -14.393465;-0.668797;12.525284;,
   -17.226616;2.133067;12.525285;,
   -14.942103;-0.325254;13.931973;,
   -9.903824;4.713034;13.959637;,
   -9.903829;4.713030;16.898193;,
   -9.903829;4.713030;16.898193;,
   -14.942103;-0.325254;16.898197;,
   -14.942103;-0.325254;13.931973;,
   -16.473854;1.206496;16.898197;,
   -16.473846;1.206503;13.931973;,
   -14.942103;-0.325254;13.931973;,
   -14.942103;-0.325254;13.931973;,
   -14.942103;-0.325254;16.898197;,
   -16.473854;1.206496;16.898197;,
   -11.451220;6.229137;16.898197;,
   -16.473854;1.206496;16.898197;,
   -14.942103;-0.325254;16.898197;,
   -14.942103;-0.325254;16.898197;,
   -9.903829;4.713030;16.898193;,
   -11.451220;6.229137;16.898197;,
   -11.451215;6.229141;13.959637;,
   -16.473846;1.206503;13.931973;,
   -16.473854;1.206496;16.898197;,
   -16.473854;1.206496;16.898197;,
   -11.451220;6.229137;16.898197;,
   -11.451215;6.229141;13.959637;,
   -10.647455;1.687433;3.036682;,
   -10.647455;1.687434;0.000000;,
   -0.000000;1.679108;0.000000;,
   -0.000000;1.679108;0.000000;,
   -0.000000;1.679108;3.036682;,
   -10.647455;1.687433;3.036682;,
   -10.647455;1.687434;12.636546;,
   -10.647455;1.687433;3.036682;,
   -0.000000;1.679108;3.036682;,
   -0.000000;1.679108;3.036682;,
   -0.000000;1.679108;12.636546;,
   -10.647455;1.687434;12.636546;,
   -5.390475;6.944414;12.636546;,
   -10.647455;1.687434;12.636546;,
   -0.000000;1.679108;12.636546;,
   -0.000000;1.679108;12.636546;,
   -0.000000;6.924538;12.636546;,
   -5.390475;6.944414;12.636546;,
   -0.000000;1.743648;6.000494;,
   -10.232649;1.743647;6.000494;,
   -8.318295;-2.358670;6.000494;,
   -8.318295;-2.358670;6.000494;,
   0.000000;-2.358669;6.000494;,
   -0.000000;1.743648;6.000494;,
   -8.315184;9.865688;20.438414;,
   -8.315182;3.007843;20.438414;,
   -0.000000;3.014498;20.438414;,
   -0.000000;3.014498;20.438414;,
   -0.000000;9.872344;20.438414;,
   -8.315184;9.865688;20.438414;,
   -8.315184;9.865688;12.344032;,
   -8.315184;9.865688;20.438414;,
   -0.000000;9.872344;20.438414;,
   -0.000000;9.872344;20.438414;,
   -0.000000;9.872344;12.344032;,
   -8.315184;9.865688;12.344032;,
   23.478151;-11.143256;12.636546;,
   14.846307;5.886286;12.636546;,
   10.647455;1.687435;12.636546;,
   14.846307;5.886286;12.636546;,
   23.478151;-11.143256;12.636546;,
   27.676998;-6.944403;12.636546;,
   27.676998;-6.944403;3.036682;,
   14.846306;5.886285;0.000000;,
   14.846306;5.886285;3.036681;,
   14.846306;5.886285;0.000000;,
   27.676998;-6.944403;3.036682;,
   27.676998;-6.944403;0.000000;,
   27.676998;-6.944403;3.036682;,
   23.478151;-11.143256;0.000000;,
   27.676998;-6.944403;0.000000;,
   23.478151;-11.143256;0.000000;,
   27.676998;-6.944403;3.036682;,
   23.478151;-11.143256;3.036682;,
   14.846307;5.886286;12.636546;,
   27.676998;-6.944403;3.036682;,
   14.846306;5.886285;3.036681;,
   27.676998;-6.944403;3.036682;,
   14.846307;5.886286;12.636546;,
   27.676998;-6.944403;12.636546;,
   27.676998;-6.944403;3.036682;,
   23.478151;-11.143256;12.636546;,
   23.478151;-11.143256;3.036682;,
   23.478151;-11.143256;12.636546;,
   27.676998;-6.944403;3.036682;,
   27.676998;-6.944403;12.636546;,
   5.390474;6.944415;12.636546;,
   14.846307;5.886286;12.636546;,
   9.589321;11.143269;12.636546;,
   14.846307;5.886286;12.636546;,
   5.390474;6.944415;12.636546;,
   10.647455;1.687435;12.636546;,
   9.589320;11.143268;3.036682;,
   14.846306;5.886285;0.000000;,
   9.589320;11.143268;0.000000;,
   14.846306;5.886285;0.000000;,
   9.589320;11.143268;3.036682;,
   14.846306;5.886285;3.036681;,
   23.478151;-11.143256;3.036682;,
   10.647455;1.687435;0.000000;,
   23.478151;-11.143256;0.000000;,
   10.647455;1.687435;0.000000;,
   23.478151;-11.143256;3.036682;,
   10.647455;1.687434;3.036682;,
   9.589321;11.143269;12.636546;,
   14.846306;5.886285;3.036681;,
   9.589320;11.143268;3.036682;,
   14.846306;5.886285;3.036681;,
   9.589321;11.143269;12.636546;,
   14.846307;5.886286;12.636546;,
   23.478151;-11.143256;12.636546;,
   10.647455;1.687434;3.036682;,
   23.478151;-11.143256;3.036682;,
   10.647455;1.687434;3.036682;,
   23.478151;-11.143256;12.636546;,
   10.647455;1.687435;12.636546;,
   9.589320;11.143268;3.036682;,
   -0.000000;11.122599;0.000000;,
   -0.000000;11.122599;3.036682;,
   -0.000000;11.122599;0.000000;,
   9.589320;11.143268;3.036682;,
   9.589320;11.143268;0.000000;,
   9.589321;11.143269;12.636546;,
   -0.000000;11.122599;3.036682;,
   -0.000000;11.122600;12.636546;,
   -0.000000;11.122599;3.036682;,
   9.589321;11.143269;12.636546;,
   9.589320;11.143268;3.036682;,
   5.390474;6.944415;12.636546;,
   -0.000000;11.122600;12.636546;,
   -0.000000;6.924538;12.636546;,
   -0.000000;11.122600;12.636546;,
   5.390474;6.944415;12.636546;,
   9.589321;11.143269;12.636546;,
   0.000000;-2.358669;0.004330;,
   8.322308;-2.358670;6.000494;,
   0.000000;-2.358669;6.000494;,
   8.322308;-2.358670;6.000494;,
   0.000000;-2.358669;0.004330;,
   8.322308;-2.358670;0.004330;,
   -0.000000;3.014498;12.344032;,
   8.315182;3.007844;20.438414;,
   -0.000000;3.014498;20.438414;,
   8.315182;3.007844;20.438414;,
   -0.000000;3.014498;12.344032;,
   8.315182;3.007844;12.344032;,
   8.315182;3.007844;12.344032;,
   11.762308;6.406834;20.438414;,
   8.315182;3.007844;20.438414;,
   11.762308;6.406834;20.438414;,
   8.315182;3.007844;12.344032;,
   11.762308;6.406834;12.344032;,
   11.762308;6.406834;20.438414;,
   8.315183;9.865689;20.438414;,
   8.315182;3.007844;20.438414;,
   8.315183;9.865689;12.344032;,
   11.762308;6.406834;20.438414;,
   11.762308;6.406834;12.344032;,
   11.762308;6.406834;20.438414;,
   8.315183;9.865689;12.344032;,
   8.315183;9.865689;20.438414;,
   23.153658;-9.429008;12.497618;,
   14.393468;-0.668800;17.568254;,
   14.393465;-0.668796;12.525284;,
   14.393468;-0.668800;17.568254;,
   23.153658;-9.429008;12.497618;,
   23.153658;-9.429008;17.568256;,
   25.971159;-6.611492;17.568256;,
   23.153658;-9.429008;12.497618;,
   25.971159;-6.611492;12.497618;,
   23.153658;-9.429008;12.497618;,
   25.971159;-6.611492;17.568256;,
   23.153658;-9.429008;17.568256;,
   17.226620;2.133065;17.568256;,
   23.153658;-9.429008;17.568256;,
   25.971159;-6.611492;17.568256;,
   23.153658;-9.429008;17.568256;,
   17.226620;2.133065;17.568256;,
   14.393468;-0.668800;17.568254;,
   17.226616;2.133069;12.525285;,
   25.971159;-6.611492;17.568256;,
   25.971159;-6.611492;12.497618;,
   25.971159;-6.611492;17.568256;,
   17.226616;2.133069;12.525285;,
   17.226620;2.133065;17.568256;,
   17.226616;2.133069;12.525285;,
   14.393468;-0.668800;17.568254;,
   17.226620;2.133065;17.568256;,
   14.393468;-0.668800;17.568254;,
   17.226616;2.133069;12.525285;,
   14.393465;-0.668796;12.525284;,
   14.942103;-0.325252;13.931973;,
   9.903828;4.713031;16.898193;,
   9.903824;4.713035;13.959637;,
   9.903828;4.713031;16.898193;,
   14.942103;-0.325252;13.931973;,
   14.942103;-0.325252;16.898197;,
   16.473852;1.206497;16.898197;,
   14.942103;-0.325252;13.931973;,
   16.473846;1.206505;13.931973;,
   14.942103;-0.325252;13.931973;,
   16.473852;1.206497;16.898197;,
   14.942103;-0.325252;16.898197;,
   11.451219;6.229138;16.898197;,
   14.942103;-0.325252;16.898197;,
   16.473852;1.206497;16.898197;,
   14.942103;-0.325252;16.898197;,
   11.451219;6.229138;16.898197;,
   9.903828;4.713031;16.898193;,
   11.451215;6.229142;13.959637;,
   16.473852;1.206497;16.898197;,
   16.473846;1.206505;13.931973;,
   16.473852;1.206497;16.898197;,
   11.451215;6.229142;13.959637;,
   11.451219;6.229138;16.898197;,
   10.647455;1.687434;3.036682;,
   -0.000000;1.679108;0.000000;,
   10.647455;1.687435;0.000000;,
   -0.000000;1.679108;0.000000;,
   10.647455;1.687434;3.036682;,
   -0.000000;1.679108;3.036682;,
   10.647455;1.687435;12.636546;,
   -0.000000;1.679108;3.036682;,
   10.647455;1.687434;3.036682;,
   -0.000000;1.679108;3.036682;,
   10.647455;1.687435;12.636546;,
   -0.000000;1.679108;12.636546;,
   5.390474;6.944415;12.636546;,
   -0.000000;1.679108;12.636546;,
   10.647455;1.687435;12.636546;,
   -0.000000;1.679108;12.636546;,
   5.390474;6.944415;12.636546;,
   -0.000000;6.924538;12.636546;,
   -0.000000;1.743648;6.000494;,
   8.322308;-2.358670;6.000494;,
   10.236659;1.743648;6.000494;,
   8.322308;-2.358670;6.000494;,
   -0.000000;1.743648;6.000494;,
   0.000000;-2.358669;6.000494;,
   8.315183;9.865689;20.438414;,
   -0.000000;3.014498;20.438414;,
   8.315182;3.007844;20.438414;,
   -0.000000;3.014498;20.438414;,
   8.315183;9.865689;20.438414;,
   -0.000000;9.872344;20.438414;,
   8.315183;9.865689;12.344032;,
   -0.000000;9.872344;20.438414;,
   8.315183;9.865689;20.438414;,
   -0.000000;9.872344;20.438414;,
   8.315183;9.865689;12.344032;,
   -0.000000;9.872344;12.344032;,
   10.236659;1.743648;6.000494;,
   8.322308;-2.358670;6.000494;,
   10.240672;1.743646;0.004330;,
   8.322308;-2.358670;0.004330;,
   10.240672;1.743646;0.004330;,
   8.322308;-2.358670;6.000494;;
   134;
   3;0,1,2;,
   3;3,4,5;,
   3;6,7,8;,
   3;9,10,11;,
   3;12,13,14;,
   3;15,16,17;,
   3;18,19,20;,
   3;21,22,23;,
   3;24,25,26;,
   3;27,28,29;,
   3;30,31,32;,
   3;33,34,35;,
   3;36,37,38;,
   3;39,40,41;,
   3;42,43,44;,
   3;45,46,47;,
   3;48,49,50;,
   3;51,52,53;,
   3;54,55,56;,
   3;57,58,59;,
   3;60,61,62;,
   3;63,64,65;,
   3;66,67,68;,
   3;69,70,71;,
   3;72,73,74;,
   3;75,76,77;,
   3;78,79,80;,
   3;81,82,83;,
   3;84,85,86;,
   3;87,88,89;,
   3;90,91,92;,
   3;93,94,95;,
   3;96,97,98;,
   3;99,100,101;,
   3;102,103,104;,
   3;105,106,107;,
   3;108,109,110;,
   3;111,112,113;,
   3;114,115,116;,
   3;117,118,119;,
   3;120,121,122;,
   3;123,124,125;,
   3;126,127,128;,
   3;129,130,131;,
   3;132,133,134;,
   3;135,136,137;,
   3;138,139,140;,
   3;141,142,143;,
   3;144,145,146;,
   3;147,148,149;,
   3;150,151,152;,
   3;153,154,155;,
   3;156,157,158;,
   3;159,160,161;,
   3;162,163,164;,
   3;165,166,167;,
   3;168,169,170;,
   3;171,172,173;,
   3;174,175,176;,
   3;177,178,179;,
   3;180,181,182;,
   3;183,184,185;,
   3;186,187,188;,
   3;189,190,191;,
   3;192,193,194;,
   3;195,196,197;,
   3;198,199,200;,
   3;201,202,203;,
   3;204,205,206;,
   3;207,208,209;,
   3;210,211,212;,
   3;213,214,215;,
   3;216,217,218;,
   3;219,220,221;,
   3;222,223,224;,
   3;225,226,227;,
   3;228,229,230;,
   3;231,232,233;,
   3;234,235,236;,
   3;237,238,239;,
   3;240,241,242;,
   3;243,244,245;,
   3;246,247,248;,
   3;249,250,251;,
   3;252,253,254;,
   3;255,256,257;,
   3;258,259,260;,
   3;261,262,263;,
   3;264,265,266;,
   3;267,268,269;,
   3;270,271,272;,
   3;273,274,275;,
   3;276,277,278;,
   3;279,280,281;,
   3;282,283,284;,
   3;285,286,287;,
   3;288,289,290;,
   3;291,292,293;,
   3;294,295,296;,
   3;297,298,299;,
   3;300,301,302;,
   3;303,304,305;,
   3;306,307,308;,
   3;309,310,311;,
   3;312,313,314;,
   3;315,316,317;,
   3;318,319,320;,
   3;321,322,323;,
   3;324,325,326;,
   3;327,328,329;,
   3;330,331,332;,
   3;333,334,335;,
   3;336,337,338;,
   3;339,340,341;,
   3;342,343,344;,
   3;345,346,347;,
   3;348,349,350;,
   3;351,352,353;,
   3;354,355,356;,
   3;357,358,359;,
   3;360,361,362;,
   3;363,364,365;,
   3;366,367,368;,
   3;369,370,371;,
   3;372,373,374;,
   3;375,376,377;,
   3;378,379,380;,
   3;381,382,383;,
   3;384,385,386;,
   3;387,388,389;,
   3;390,391,392;,
   3;393,394,395;,
   3;396,397,398;,
   3;399,400,401;;

   MeshNormals  {
    402;
    0.000000;0.000000;1.000000;,
    0.000000;0.000000;1.000000;,
    0.000000;0.000000;1.000000;,
    0.000000;0.000000;1.000000;,
    0.000000;0.000000;1.000000;,
    0.000000;0.000000;1.000000;,
    -0.707107;0.707107;-0.000000;,
    -0.707107;0.707107;-0.000000;,
    -0.707107;0.707107;0.000000;,
    -0.707107;0.707107;0.000000;,
    -0.707107;0.707107;0.000000;,
    -0.707107;0.707107;-0.000000;,
    -0.707107;-0.707106;0.000000;,
    -0.707107;-0.707106;0.000000;,
    -0.707107;-0.707106;0.000000;,
    -0.707107;-0.707106;0.000000;,
    -0.707107;-0.707106;0.000000;,
    -0.707107;-0.707106;0.000000;,
    -0.707107;0.707107;-0.000000;,
    -0.707107;0.707107;-0.000000;,
    -0.707107;0.707107;-0.000000;,
    -0.707107;0.707107;-0.000000;,
    -0.707107;0.707107;0.000000;,
    -0.707107;0.707107;-0.000000;,
    -0.707107;-0.707106;0.000000;,
    -0.707107;-0.707106;0.000000;,
    -0.707107;-0.707106;0.000000;,
    -0.707107;-0.707106;0.000000;,
    -0.707107;-0.707106;0.000000;,
    -0.707107;-0.707106;0.000000;,
    0.000000;0.000000;1.000000;,
    0.000000;0.000000;1.000000;,
    0.000000;0.000000;1.000000;,
    0.000000;0.000000;1.000000;,
    0.000000;0.000000;1.000000;,
    0.000000;0.000000;1.000000;,
    -0.707107;0.707107;-0.000000;,
    -0.707107;0.707107;0.000000;,
    -0.707107;0.707107;0.000000;,
    -0.707107;0.707107;0.000000;,
    -0.707107;0.707107;-0.000000;,
    -0.707107;0.707107;-0.000000;,
    0.707107;-0.707107;-0.000000;,
    0.707107;-0.707107;0.000000;,
    0.707107;-0.707107;-0.000000;,
    0.707107;-0.707107;-0.000000;,
    0.707107;-0.707107;-0.000000;,
    0.707107;-0.707107;-0.000000;,
    -0.707107;0.707107;-0.000000;,
    -0.707107;0.707107;-0.000000;,
    -0.707107;0.707107;-0.000000;,
    -0.707107;0.707107;-0.000000;,
    -0.707107;0.707107;-0.000000;,
    -0.707107;0.707107;-0.000000;,
    0.707107;-0.707107;0.000000;,
    0.707107;-0.707107;-0.000000;,
    0.707107;-0.707107;-0.000000;,
    0.707107;-0.707107;-0.000000;,
    0.707107;-0.707107;0.000000;,
    0.707107;-0.707107;0.000000;,
    0.002155;0.999998;-0.000000;,
    -0.000000;1.000000;-0.000000;,
    -0.000000;1.000000;0.000000;,
    -0.000000;1.000000;0.000000;,
    0.002155;0.999998;0.000000;,
    0.002155;0.999998;-0.000000;,
    0.002155;0.999998;-0.000000;,
    -0.000000;1.000000;-0.000000;,
    -0.000000;1.000000;-0.000000;,
    -0.000000;1.000000;-0.000000;,
    0.002155;0.999998;-0.000000;,
    0.002155;0.999998;-0.000000;,
    0.000000;0.000000;1.000000;,
    0.000000;0.000000;1.000000;,
    0.000000;0.000000;1.000000;,
    0.000000;0.000000;1.000000;,
    0.000000;0.000000;1.000000;,
    0.000000;0.000000;1.000000;,
    0.000000;-1.000000;-0.000000;,
    0.000000;-1.000000;0.000000;,
    0.000000;-1.000000;0.000000;,
    0.000000;-1.000000;0.000000;,
    0.000000;-1.000000;0.000000;,
    0.000000;-1.000000;-0.000000;,
    -0.906188;-0.422874;0.000000;,
    -0.906188;-0.422874;0.000000;,
    -0.906188;-0.422874;0.000000;,
    -0.906188;-0.422874;0.000000;,
    -0.906188;-0.422874;0.000000;,
    -0.906188;-0.422874;0.000000;,
    0.000000;-1.000000;0.000000;,
    0.000000;-1.000000;0.000000;,
    -0.379063;-0.925371;0.000000;,
    -0.379063;-0.925371;0.000000;,
    -0.379063;-0.925371;0.000000;,
    0.000000;-1.000000;0.000000;,
    -0.379063;-0.925371;0.000000;,
    -0.379063;-0.925371;0.000000;,
    -0.702118;-0.712061;0.000000;,
    -0.702118;-0.712061;0.000000;,
    -0.702118;-0.712061;0.000000;,
    -0.379063;-0.925371;0.000000;,
    0.000000;0.000000;1.000000;,
    0.000000;0.000000;1.000000;,
    0.000000;0.000000;1.000000;,
    -0.708307;0.705905;0.000000;,
    -0.708307;0.705905;0.000000;,
    -0.708307;0.705905;0.000000;,
    -0.708307;0.705905;0.000000;,
    -0.708307;0.705905;0.000000;,
    -0.708307;0.705905;0.000000;,
    0.707108;-0.707106;-0.000000;,
    0.707108;-0.707106;-0.000000;,
    0.707108;-0.707106;-0.000000;,
    0.707108;-0.707106;-0.000000;,
    0.707108;-0.707106;0.000000;,
    0.707108;-0.707106;-0.000000;,
    -0.707109;-0.707105;0.000000;,
    -0.707109;-0.707105;0.000000;,
    -0.707109;-0.707105;0.000000;,
    -0.707109;-0.707105;0.000000;,
    -0.707109;-0.707105;0.000000;,
    -0.707109;-0.707105;0.000000;,
    0.000000;-0.000000;1.000000;,
    0.000000;0.000000;1.000000;,
    0.000000;-0.000000;1.000000;,
    0.000000;-0.000000;1.000000;,
    0.000000;-0.000000;1.000000;,
    0.000000;-0.000000;1.000000;,
    -0.707108;0.707106;0.000000;,
    -0.707108;0.707106;0.000000;,
    -0.707108;0.707106;0.000000;,
    -0.707108;0.707106;0.000000;,
    -0.707108;0.707106;0.000000;,
    -0.707108;0.707106;0.000000;,
    0.703170;0.711022;0.000001;,
    0.703170;0.711022;0.000001;,
    0.703170;0.711022;0.000001;,
    0.703170;0.711022;0.000001;,
    0.703170;0.711022;0.000001;,
    0.703170;0.711022;0.000001;,
    0.707107;-0.707106;0.000000;,
    0.707107;-0.707106;0.000000;,
    0.707107;-0.707106;0.000000;,
    0.707107;-0.707106;0.000000;,
    0.707107;-0.707106;0.000000;,
    0.707107;-0.707106;0.000000;,
    -0.707108;-0.707106;-0.000001;,
    -0.707110;-0.707103;-0.000004;,
    -0.707109;-0.707105;-0.000002;,
    -0.707109;-0.707105;-0.000002;,
    -0.707106;-0.707107;0.000000;,
    -0.707108;-0.707106;-0.000001;,
    0.000001;-0.000001;1.000000;,
    0.000000;0.000000;1.000000;,
    0.000000;-0.000000;1.000000;,
    0.000000;-0.000000;1.000000;,
    0.000002;-0.000001;1.000000;,
    0.000001;-0.000001;1.000000;,
    -0.707107;0.707106;-0.000000;,
    -0.707107;0.707106;0.000000;,
    -0.707107;0.707106;0.000000;,
    -0.707107;0.707106;0.000000;,
    -0.707107;0.707106;-0.000000;,
    -0.707107;0.707106;-0.000000;,
    -0.000782;-1.000000;-0.000000;,
    -0.000782;-1.000000;-0.000000;,
    0.000000;-1.000000;-0.000000;,
    0.000000;-1.000000;-0.000000;,
    0.000000;-1.000000;0.000000;,
    -0.000782;-1.000000;-0.000000;,
    -0.000782;-1.000000;0.000000;,
    -0.000782;-1.000000;-0.000000;,
    0.000000;-1.000000;0.000000;,
    0.000000;-1.000000;0.000000;,
    0.000000;-1.000000;0.000000;,
    -0.000782;-1.000000;0.000000;,
    0.000000;0.000000;1.000000;,
    0.000000;0.000000;1.000000;,
    0.000000;0.000000;1.000000;,
    0.000000;0.000000;1.000000;,
    0.000000;0.000000;1.000000;,
    0.000000;0.000000;1.000000;,
    0.000000;0.000000;1.000000;,
    0.000000;0.000000;1.000000;,
    0.000000;0.000000;1.000000;,
    0.000000;0.000000;1.000000;,
    0.000000;0.000000;1.000000;,
    0.000000;0.000000;1.000000;,
    0.000000;0.000000;1.000000;,
    0.000000;0.000000;1.000000;,
    0.000000;0.000000;1.000000;,
    0.000000;0.000000;1.000000;,
    0.000000;0.000000;1.000000;,
    0.000000;0.000000;1.000000;,
    -0.000800;1.000000;0.000000;,
    -0.000800;1.000000;0.000000;,
    -0.000000;1.000000;0.000000;,
    -0.000000;1.000000;0.000000;,
    -0.000000;1.000000;0.000000;,
    -0.000800;1.000000;0.000000;,
    0.000000;0.000000;1.000000;,
    0.000000;0.000000;1.000000;,
    0.000000;0.000000;1.000000;,
    0.000000;0.000000;1.000000;,
    0.000000;0.000000;1.000000;,
    0.000000;0.000000;1.000000;,
    0.707107;0.707107;-0.000000;,
    0.707107;0.707107;0.000000;,
    0.707107;0.707107;-0.000000;,
    0.707107;0.707107;0.000000;,
    0.707107;0.707107;-0.000000;,
    0.707107;0.707107;0.000000;,
    0.707107;-0.707106;0.000000;,
    0.707107;-0.707106;0.000000;,
    0.707107;-0.707106;0.000000;,
    0.707107;-0.707106;0.000000;,
    0.707107;-0.707106;0.000000;,
    0.707107;-0.707106;0.000000;,
    0.707107;0.707107;-0.000000;,
    0.707107;0.707107;-0.000000;,
    0.707107;0.707107;-0.000000;,
    0.707107;0.707107;-0.000000;,
    0.707107;0.707107;-0.000000;,
    0.707107;0.707107;0.000000;,
    0.707107;-0.707106;0.000000;,
    0.707107;-0.707106;0.000000;,
    0.707107;-0.707106;0.000000;,
    0.707107;-0.707106;0.000000;,
    0.707107;-0.707106;0.000000;,
    0.707107;-0.707106;0.000000;,
    0.000000;0.000000;1.000000;,
    0.000000;0.000000;1.000000;,
    0.000000;0.000000;1.000000;,
    0.000000;0.000000;1.000000;,
    0.000000;0.000000;1.000000;,
    0.000000;0.000000;1.000000;,
    0.707107;0.707107;-0.000000;,
    0.707107;0.707107;0.000000;,
    0.707107;0.707107;0.000000;,
    0.707107;0.707107;0.000000;,
    0.707107;0.707107;-0.000000;,
    0.707107;0.707107;-0.000000;,
    -0.707107;-0.707107;-0.000000;,
    -0.707107;-0.707107;-0.000000;,
    -0.707107;-0.707107;0.000000;,
    -0.707107;-0.707107;-0.000000;,
    -0.707107;-0.707107;-0.000000;,
    -0.707107;-0.707107;-0.000000;,
    0.707107;0.707107;-0.000000;,
    0.707107;0.707107;-0.000000;,
    0.707107;0.707107;-0.000000;,
    0.707107;0.707107;-0.000000;,
    0.707107;0.707107;-0.000000;,
    0.707107;0.707107;-0.000000;,
    -0.707107;-0.707107;0.000000;,
    -0.707107;-0.707107;-0.000000;,
    -0.707107;-0.707107;-0.000000;,
    -0.707107;-0.707107;-0.000000;,
    -0.707107;-0.707107;0.000000;,
    -0.707107;-0.707107;0.000000;,
    -0.002155;0.999998;-0.000000;,
    -0.000000;1.000000;0.000000;,
    -0.000000;1.000000;-0.000000;,
    -0.000000;1.000000;0.000000;,
    -0.002155;0.999998;-0.000000;,
    -0.002155;0.999998;0.000000;,
    -0.002155;0.999998;-0.000000;,
    -0.000000;1.000000;-0.000000;,
    -0.000000;1.000000;-0.000000;,
    -0.000000;1.000000;-0.000000;,
    -0.002155;0.999998;-0.000000;,
    -0.002155;0.999998;-0.000000;,
    0.000000;0.000000;1.000000;,
    0.000000;0.000000;1.000000;,
    0.000000;0.000000;1.000000;,
    0.000000;0.000000;1.000000;,
    0.000000;0.000000;1.000000;,
    0.000000;0.000000;1.000000;,
    0.000000;-1.000000;-0.000000;,
    -0.000000;-1.000000;-0.000000;,
    0.000000;-1.000000;0.000000;,
    -0.000000;-1.000000;-0.000000;,
    0.000000;-1.000000;-0.000000;,
    -0.000000;-1.000000;-0.000000;,
    0.000000;-1.000000;0.000000;,
    0.379063;-0.925371;0.000000;,
    0.000000;-1.000000;0.000000;,
    0.379063;-0.925371;0.000000;,
    0.000000;-1.000000;0.000000;,
    0.379063;-0.925371;0.000000;,
    0.379063;-0.925371;0.000000;,
    0.702118;-0.712061;0.000000;,
    0.379063;-0.925371;0.000000;,
    0.702118;-0.712061;0.000000;,
    0.379063;-0.925371;0.000000;,
    0.702118;-0.712061;0.000000;,
    0.000000;0.000000;1.000000;,
    0.000000;0.000000;1.000000;,
    0.000000;0.000000;1.000000;,
    0.708307;0.705905;0.000000;,
    0.708307;0.705905;0.000000;,
    0.708307;0.705905;0.000000;,
    0.708307;0.705905;0.000000;,
    0.708307;0.705905;0.000000;,
    0.708307;0.705905;0.000000;,
    -0.707107;-0.707106;-0.000000;,
    -0.707107;-0.707106;-0.000000;,
    -0.707108;-0.707106;-0.000000;,
    -0.707107;-0.707106;-0.000000;,
    -0.707107;-0.707106;-0.000000;,
    -0.707107;-0.707106;0.000000;,
    0.707109;-0.707105;0.000000;,
    0.707109;-0.707105;0.000000;,
    0.707109;-0.707105;0.000000;,
    0.707109;-0.707105;0.000000;,
    0.707109;-0.707105;0.000000;,
    0.707109;-0.707105;0.000000;,
    -0.000000;-0.000000;1.000000;,
    -0.000000;-0.000000;1.000000;,
    0.000000;0.000000;1.000000;,
    -0.000000;-0.000000;1.000000;,
    -0.000000;-0.000000;1.000000;,
    -0.000000;-0.000000;1.000000;,
    0.707107;0.707106;0.000000;,
    0.707107;0.707106;0.000000;,
    0.707107;0.707106;0.000000;,
    0.707107;0.707106;0.000000;,
    0.707107;0.707106;0.000000;,
    0.707107;0.707106;0.000000;,
    -0.703170;0.711022;0.000001;,
    -0.703170;0.711022;0.000001;,
    -0.703170;0.711022;0.000001;,
    -0.703170;0.711022;0.000001;,
    -0.703170;0.711022;0.000001;,
    -0.703170;0.711022;0.000001;,
    -0.707107;-0.707106;-0.000000;,
    -0.707107;-0.707106;-0.000000;,
    -0.707107;-0.707106;-0.000000;,
    -0.707107;-0.707106;-0.000000;,
    -0.707107;-0.707106;-0.000000;,
    -0.707107;-0.707106;0.000000;,
    0.707108;-0.707105;-0.000001;,
    0.707109;-0.707105;-0.000002;,
    0.707110;-0.707103;-0.000003;,
    0.707109;-0.707105;-0.000002;,
    0.707108;-0.707105;-0.000001;,
    0.707107;-0.707107;0.000000;,
    -0.000001;-0.000001;1.000000;,
    -0.000000;-0.000000;1.000000;,
    0.000000;0.000000;1.000000;,
    -0.000000;-0.000000;1.000000;,
    -0.000001;-0.000001;1.000000;,
    -0.000002;-0.000001;1.000000;,
    0.707107;0.707106;0.000000;,
    0.707107;0.707106;0.000000;,
    0.707107;0.707106;0.000000;,
    0.707107;0.707106;0.000000;,
    0.707107;0.707106;0.000000;,
    0.707107;0.707106;0.000000;,
    0.000782;-1.000000;-0.000000;,
    0.000000;-1.000000;-0.000000;,
    0.000782;-1.000000;-0.000000;,
    0.000000;-1.000000;-0.000000;,
    0.000782;-1.000000;-0.000000;,
    0.000000;-1.000000;0.000000;,
    0.000782;-1.000000;0.000000;,
    0.000000;-1.000000;0.000000;,
    0.000782;-1.000000;-0.000000;,
    0.000000;-1.000000;0.000000;,
    0.000782;-1.000000;0.000000;,
    0.000000;-1.000000;0.000000;,
    0.000000;0.000000;1.000000;,
    0.000000;0.000000;1.000000;,
    0.000000;0.000000;1.000000;,
    0.000000;0.000000;1.000000;,
    0.000000;0.000000;1.000000;,
    0.000000;0.000000;1.000000;,
    0.000000;0.000000;1.000000;,
    0.000000;0.000000;1.000000;,
    0.000000;0.000000;1.000000;,
    0.000000;0.000000;1.000000;,
    0.000000;0.000000;1.000000;,
    0.000000;0.000000;1.000000;,
    0.000000;0.000000;1.000000;,
    0.000000;0.000000;1.000000;,
    0.000000;0.000000;1.000000;,
    0.000000;0.000000;1.000000;,
    0.000000;0.000000;1.000000;,
    0.000000;0.000000;1.000000;,
    0.000800;1.000000;0.000000;,
    -0.000000;1.000000;0.000000;,
    0.000800;1.000000;0.000000;,
    -0.000000;1.000000;0.000000;,
    0.000800;1.000000;0.000000;,
    -0.000000;1.000000;0.000000;,
    0.906188;-0.422874;0.000607;,
    0.906049;-0.423174;0.000357;,
    0.905989;-0.423302;0.000250;,
    0.905849;-0.423602;0.000000;,
    0.905989;-0.423302;0.000250;,
    0.906049;-0.423174;0.000357;;
    134;
    3;0,1,2;,
    3;3,4,5;,
    3;6,7,8;,
    3;9,10,11;,
    3;12,13,14;,
    3;15,16,17;,
    3;18,19,20;,
    3;21,22,23;,
    3;24,25,26;,
    3;27,28,29;,
    3;30,31,32;,
    3;33,34,35;,
    3;36,37,38;,
    3;39,40,41;,
    3;42,43,44;,
    3;45,46,47;,
    3;48,49,50;,
    3;51,52,53;,
    3;54,55,56;,
    3;57,58,59;,
    3;60,61,62;,
    3;63,64,65;,
    3;66,67,68;,
    3;69,70,71;,
    3;72,73,74;,
    3;75,76,77;,
    3;78,79,80;,
    3;81,82,83;,
    3;84,85,86;,
    3;87,88,89;,
    3;90,91,92;,
    3;93,94,95;,
    3;96,97,98;,
    3;99,100,101;,
    3;102,103,104;,
    3;105,106,107;,
    3;108,109,110;,
    3;111,112,113;,
    3;114,115,116;,
    3;117,118,119;,
    3;120,121,122;,
    3;123,124,125;,
    3;126,127,128;,
    3;129,130,131;,
    3;132,133,134;,
    3;135,136,137;,
    3;138,139,140;,
    3;141,142,143;,
    3;144,145,146;,
    3;147,148,149;,
    3;150,151,152;,
    3;153,154,155;,
    3;156,157,158;,
    3;159,160,161;,
    3;162,163,164;,
    3;165,166,167;,
    3;168,169,170;,
    3;171,172,173;,
    3;174,175,176;,
    3;177,178,179;,
    3;180,181,182;,
    3;183,184,185;,
    3;186,187,188;,
    3;189,190,191;,
    3;192,193,194;,
    3;195,196,197;,
    3;198,199,200;,
    3;201,202,203;,
    3;204,205,206;,
    3;207,208,209;,
    3;210,211,212;,
    3;213,214,215;,
    3;216,217,218;,
    3;219,220,221;,
    3;222,223,224;,
    3;225,226,227;,
    3;228,229,230;,
    3;231,232,233;,
    3;234,235,236;,
    3;237,238,239;,
    3;240,241,242;,
    3;243,244,245;,
    3;246,247,248;,
    3;249,250,251;,
    3;252,253,254;,
    3;255,256,257;,
    3;258,259,260;,
    3;261,262,263;,
    3;264,265,266;,
    3;267,268,269;,
    3;270,271,272;,
    3;273,274,275;,
    3;276,277,278;,
    3;279,280,281;,
    3;282,283,284;,
    3;285,286,287;,
    3;288,289,290;,
    3;291,292,293;,
    3;294,295,296;,
    3;297,298,299;,
    3;300,301,302;,
    3;303,304,305;,
    3;306,307,308;,
    3;309,310,311;,
    3;312,313,314;,
    3;315,316,317;,
    3;318,319,320;,
    3;321,322,323;,
    3;324,325,326;,
    3;327,328,329;,
    3;330,331,332;,
    3;333,334,335;,
    3;336,337,338;,
    3;339,340,341;,
    3;342,343,344;,
    3;345,346,347;,
    3;348,349,350;,
    3;351,352,353;,
    3;354,355,356;,
    3;357,358,359;,
    3;360,361,362;,
    3;363,364,365;,
    3;366,367,368;,
    3;369,370,371;,
    3;372,373,374;,
    3;375,376,377;,
    3;378,379,380;,
    3;381,382,383;,
    3;384,385,386;,
    3;387,388,389;,
    3;390,391,392;,
    3;393,394,395;,
    3;396,397,398;,
    3;399,400,401;;
   }

   MeshMaterialList  {
    1;
    134;
    0,
    0,
    0,
    0,
    0,
    0,
    0,
    0,
    0,
    0,
    0,
    0,
    0,
    0,
    0,
    0,
    0,
    0,
    0,
    0,
    0,
    0,
    0,
    0,
    0,
    0,
    0,
    0,
    0,
    0,
    0,
    0,
    0,
    0,
    0,
    0,
    0,
    0,
    0,
    0,
    0,
    0,
    0,
    0,
    0,
    0,
    0,
    0,
    0,
    0,
    0,
    0,
    0,
    0,
    0,
    0,
    0,
    0,
    0,
    0,
    0,
    0,
    0,
    0,
    0,
    0,
    0,
    0,
    0,
    0,
    0,
    0,
    0,
    0,
    0,
    0,
    0,
    0,
    0,
    0,
    0,
    0,
    0,
    0,
    0,
    0,
    0,
    0,
    0,
    0,
    0,
    0,
    0,
    0,
    0,
    0,
    0,
    0,
    0,
    0,
    0,
    0,
    0,
    0,
    0,
    0,
    0,
    0,
    0,
    0,
    0,
    0,
    0,
    0,
    0,
    0,
    0,
    0,
    0,
    0,
    0,
    0,
    0,
    0,
    0,
    0,
    0,
    0,
    0,
    0,
    0,
    0,
    0,
    0;
    { buildz4 }
   }

   MeshTextureCoords  {
    402;
    0.891086;1.003945;,
    0.999747;1.003945;,
    0.999747;0.923806;,
    0.999747;0.923806;,
    0.891086;0.923806;,
    0.891086;1.003945;,
    0.713811;0.925600;,
    0.438235;0.925600;,
    0.438235;1.002191;,
    0.438235;1.002191;,
    0.713811;1.002191;,
    0.713811;0.925600;,
    0.358108;0.925605;,
    0.358108;1.002192;,
    0.472231;1.002192;,
    0.472231;1.002192;,
    0.472231;0.925605;,
    0.358108;0.925605;,
    0.377036;-0.003110;,
    0.377036;0.237159;,
    0.007314;0.237159;,
    0.007314;0.237159;,
    0.007314;-0.003110;,
    0.377036;-0.003110;,
    0.236181;0.237159;,
    0.360424;0.237159;,
    0.360424;-0.003110;,
    0.360424;-0.003110;,
    0.236181;-0.003110;,
    0.236181;0.237159;,
    1.001278;1.003945;,
    1.001278;0.923806;,
    0.923119;0.923806;,
    0.923119;0.923806;,
    0.923119;1.003945;,
    1.001278;1.003945;,
    0.325326;0.925600;,
    0.325326;1.002191;,
    0.438235;1.002191;,
    0.438235;1.002191;,
    0.438235;0.925600;,
    0.325326;0.925600;,
    0.324885;0.925605;,
    0.324885;1.002192;,
    0.590355;1.002192;,
    0.590355;1.002192;,
    0.590355;0.925605;,
    0.324885;0.925605;,
    0.615131;-0.003110;,
    0.615131;0.237159;,
    0.352460;0.237159;,
    0.352460;0.237159;,
    0.352460;-0.003110;,
    0.615131;-0.003110;,
    0.007314;-0.003110;,
    0.007314;0.237159;,
    0.373344;0.237159;,
    0.373344;0.237159;,
    0.373344;-0.003110;,
    0.007314;-0.003110;,
    0.713811;0.925600;,
    0.438235;0.925600;,
    0.438235;1.002191;,
    0.438235;1.002191;,
    0.713811;1.002191;,
    0.713811;0.925600;,
    0.289706;-0.003110;,
    0.487778;-0.003110;,
    0.487778;0.237159;,
    0.487778;0.237159;,
    0.289706;0.237159;,
    0.289706;-0.003110;,
    1.001278;1.003945;,
    0.944686;1.003945;,
    0.945301;0.923806;,
    0.945301;0.923806;,
    1.001278;0.923806;,
    1.001278;1.003945;,
    0.208379;0.544534;,
    0.208379;0.464790;,
    0.081968;0.464790;,
    0.081968;0.464790;,
    0.081968;0.544534;,
    0.208379;0.544534;,
    0.009115;0.464790;,
    0.098537;0.464790;,
    0.098537;0.544534;,
    0.098537;0.544534;,
    0.009115;0.544534;,
    0.009115;0.464790;,
    0.568818;0.157492;,
    0.568818;-0.017233;,
    0.381307;-0.017233;,
    0.381307;-0.017233;,
    0.381307;0.157492;,
    0.568818;0.157492;,
    0.664794;0.157492;,
    0.664794;-0.017233;,
    0.558494;-0.017233;,
    0.558494;-0.017233;,
    0.558494;0.157492;,
    0.664794;0.157492;,
    1.001278;0.923806;,
    1.001278;1.003945;,
    0.891086;0.923806;,
    0.008476;0.157492;,
    0.118467;0.157492;,
    0.118467;-0.017233;,
    0.118467;-0.017233;,
    0.008476;-0.017233;,
    0.008476;0.157492;,
    0.381307;0.094738;,
    0.620498;0.094738;,
    0.620498;-0.006159;,
    0.620498;-0.006159;,
    0.381307;-0.006159;,
    0.381307;0.094738;,
    0.397918;-0.006159;,
    0.397918;0.094738;,
    0.482070;0.094738;,
    0.482070;0.094738;,
    0.482070;-0.006159;,
    0.397918;-0.006159;,
    1.001278;0.923806;,
    0.890918;0.923806;,
    0.890918;1.003945;,
    0.890918;1.003945;,
    1.001278;1.003945;,
    1.001278;0.923806;,
    0.605103;0.094730;,
    0.378470;0.094730;,
    0.378470;-0.006173;,
    0.378470;-0.006173;,
    0.605103;-0.006173;,
    0.605103;0.094730;,
    0.635568;0.094738;,
    0.635568;-0.006159;,
    0.562726;-0.006159;,
    0.562726;-0.006159;,
    0.562726;0.094738;,
    0.635568;0.094738;,
    0.281091;0.491339;,
    0.126541;0.491572;,
    0.126493;0.393793;,
    0.126493;0.393793;,
    0.281091;0.393793;,
    0.281091;0.491339;,
    0.713834;0.683490;,
    0.713834;0.872969;,
    0.569514;0.872969;,
    0.569514;0.872969;,
    0.569514;0.683490;,
    0.713834;0.683490;,
    1.001278;0.966257;,
    0.890918;0.966257;,
    0.890918;1.002099;,
    0.890918;1.002099;,
    1.001278;1.002099;,
    1.001278;0.966257;,
    0.281436;0.491564;,
    0.125834;0.491331;,
    0.125880;0.393773;,
    0.125880;0.393773;,
    0.281436;0.393773;,
    0.281436;0.491564;,
    0.324885;0.925605;,
    0.324885;1.002192;,
    0.459458;1.002192;,
    0.459458;1.002192;,
    0.459458;0.925605;,
    0.324885;0.925605;,
    0.615131;-0.003110;,
    0.615131;0.237159;,
    0.352460;0.237159;,
    0.352460;0.237159;,
    0.352460;-0.003110;,
    0.615131;-0.003110;,
    0.890918;1.003945;,
    0.890918;0.923806;,
    0.946862;0.923806;,
    0.946862;0.923806;,
    0.947510;1.003945;,
    0.890918;1.003945;,
    0.661815;0.999682;,
    0.716895;0.999682;,
    0.716895;0.963840;,
    0.716895;0.963840;,
    0.662047;0.963840;,
    0.661815;0.999682;,
    0.999433;1.003945;,
    0.999433;0.923806;,
    0.946511;0.923806;,
    0.946511;0.923806;,
    0.946511;1.003945;,
    0.999433;1.003945;,
    0.568818;0.157492;,
    0.568818;-0.017233;,
    0.381307;-0.017233;,
    0.381307;-0.017233;,
    0.381307;0.157492;,
    0.568818;0.157492;,
    0.891086;1.003945;,
    0.999747;0.923806;,
    0.999747;1.003945;,
    0.999747;0.923806;,
    0.891086;1.003945;,
    0.891086;0.923806;,
    0.713811;0.925600;,
    0.438235;1.002191;,
    0.438235;0.925600;,
    0.438235;1.002191;,
    0.713811;0.925600;,
    0.713811;1.002191;,
    0.358108;0.925605;,
    0.472231;1.002192;,
    0.358108;1.002192;,
    0.472231;1.002192;,
    0.358108;0.925605;,
    0.472231;0.925605;,
    0.377036;-0.003110;,
    0.007314;0.237159;,
    0.377036;0.237159;,
    0.007314;0.237159;,
    0.377036;-0.003110;,
    0.007314;-0.003110;,
    0.236181;0.237159;,
    0.360424;-0.003110;,
    0.360424;0.237159;,
    0.360424;-0.003110;,
    0.236181;0.237159;,
    0.236181;-0.003110;,
    1.001278;1.003945;,
    0.923119;0.923806;,
    1.001278;0.923806;,
    0.923119;0.923806;,
    1.001278;1.003945;,
    0.923119;1.003945;,
    0.325326;0.925600;,
    0.438235;1.002191;,
    0.325326;1.002191;,
    0.438235;1.002191;,
    0.325326;0.925600;,
    0.438235;0.925600;,
    0.324885;0.925605;,
    0.590355;1.002192;,
    0.324885;1.002192;,
    0.590355;1.002192;,
    0.324885;0.925605;,
    0.590355;0.925605;,
    0.615131;-0.003110;,
    0.352460;0.237159;,
    0.615131;0.237159;,
    0.352460;0.237159;,
    0.615131;-0.003110;,
    0.352460;-0.003110;,
    0.007314;-0.003110;,
    0.373344;0.237159;,
    0.007314;0.237159;,
    0.373344;0.237159;,
    0.007314;-0.003110;,
    0.373344;-0.003110;,
    0.713811;0.925600;,
    0.438235;1.002191;,
    0.438235;0.925600;,
    0.438235;1.002191;,
    0.713811;0.925600;,
    0.713811;1.002191;,
    0.289706;-0.003110;,
    0.487778;0.237159;,
    0.487778;-0.003110;,
    0.487778;0.237159;,
    0.289706;-0.003110;,
    0.289706;0.237159;,
    1.001278;1.003945;,
    0.945301;0.923806;,
    0.944686;1.003945;,
    0.945301;0.923806;,
    1.001278;1.003945;,
    1.001278;0.923806;,
    0.208379;0.544534;,
    0.081968;0.464790;,
    0.208379;0.464790;,
    0.081968;0.464790;,
    0.208379;0.544534;,
    0.081968;0.544534;,
    0.568818;0.157492;,
    0.381307;-0.017233;,
    0.568818;-0.017233;,
    0.381307;-0.017233;,
    0.568818;0.157492;,
    0.381307;0.157492;,
    0.664794;0.157492;,
    0.558494;-0.017233;,
    0.664794;-0.017233;,
    0.558494;-0.017233;,
    0.664794;0.157492;,
    0.558494;0.157492;,
    1.001278;0.923806;,
    0.891086;0.923806;,
    1.001278;1.003945;,
    0.008476;0.157492;,
    0.118467;-0.017233;,
    0.118467;0.157492;,
    0.118467;-0.017233;,
    0.008476;0.157492;,
    0.008476;-0.017233;,
    0.381307;0.094738;,
    0.620498;-0.006159;,
    0.620498;0.094738;,
    0.620498;-0.006159;,
    0.381307;0.094738;,
    0.381307;-0.006159;,
    0.397918;-0.006159;,
    0.482070;0.094738;,
    0.397918;0.094738;,
    0.482070;0.094738;,
    0.397918;-0.006159;,
    0.482070;-0.006159;,
    1.001278;0.923806;,
    0.890918;1.003945;,
    0.890918;0.923806;,
    0.890918;1.003945;,
    1.001278;0.923806;,
    1.001278;1.003945;,
    0.605103;0.094730;,
    0.378470;-0.006173;,
    0.378470;0.094730;,
    0.378470;-0.006173;,
    0.605103;0.094730;,
    0.605103;-0.006173;,
    0.635568;0.094738;,
    0.562726;-0.006159;,
    0.635568;-0.006159;,
    0.562726;-0.006159;,
    0.635568;0.094738;,
    0.562726;0.094738;,
    0.281091;0.491339;,
    0.126493;0.393793;,
    0.126541;0.491572;,
    0.126493;0.393793;,
    0.281091;0.491339;,
    0.281091;0.393793;,
    0.713834;0.683490;,
    0.569514;0.872969;,
    0.713834;0.872969;,
    0.569514;0.872969;,
    0.713834;0.683490;,
    0.569514;0.683490;,
    1.001278;0.966257;,
    0.890918;1.002099;,
    0.890918;0.966257;,
    0.890918;1.002099;,
    1.001278;0.966257;,
    1.001278;1.002099;,
    0.281436;0.491564;,
    0.125880;0.393773;,
    0.125834;0.491331;,
    0.125880;0.393773;,
    0.281436;0.491564;,
    0.281436;0.393773;,
    0.324885;0.925605;,
    0.459458;1.002192;,
    0.324885;1.002192;,
    0.459458;1.002192;,
    0.324885;0.925605;,
    0.459458;0.925605;,
    0.615131;-0.003110;,
    0.352460;0.237159;,
    0.615131;0.237159;,
    0.352460;0.237159;,
    0.615131;-0.003110;,
    0.352460;-0.003110;,
    0.890918;1.003945;,
    0.946862;0.923806;,
    0.890918;0.923806;,
    0.946862;0.923806;,
    0.890918;1.003945;,
    0.947510;1.003945;,
    0.661815;0.999682;,
    0.716895;0.963840;,
    0.716895;0.999682;,
    0.716895;0.963840;,
    0.661815;0.999682;,
    0.662047;0.963840;,
    0.999433;1.003945;,
    0.946511;0.923806;,
    0.999433;0.923806;,
    0.946511;0.923806;,
    0.999433;1.003945;,
    0.946511;1.003945;,
    0.568818;0.157492;,
    0.381307;-0.017233;,
    0.568818;-0.017233;,
    0.381307;-0.017233;,
    0.568818;0.157492;,
    0.381307;0.157492;,
    0.098537;0.464790;,
    0.009115;0.464790;,
    0.098537;0.544534;,
    0.009115;0.544534;,
    0.098537;0.544534;,
    0.009115;0.464790;;
   }
  }
 }
}