xof 0303txt 0032
template XSkinMeshHeader {
 <3cf169ce-ff7c-44ab-93c0-f78f62d172e2>
 WORD nMaxSkinWeightsPerVertex;
 WORD nMaxSkinWeightsPerFace;
 WORD nBones;
}

template VertexDuplicationIndices {
 <b8d65549-d7c9-4995-89cf-53a9a8b031e3>
 DWORD nIndices;
 DWORD nOriginalVertices;
 array DWORD indices[nIndices];
}

template SkinWeights {
 <6f0d123b-bad2-4167-a0d0-80224f25fabb>
 STRING transformNodeName;
 DWORD nWeights;
 array DWORD vertexIndices[nWeights];
 array FLOAT weights[nWeights];
 Matrix4x4 matrixOffset;
}

template FVFData {
 <b6e70a0e-8ef9-4e83-94ad-ecc8b0c04897>
 DWORD dwFVF;
 DWORD nDWords;
 array DWORD data[nDWords];
}

template EffectInstance {
 <e331f7e4-0559-4cc2-8e99-1cec1657928f>
 STRING EffectFilename;
 [...]
}

template EffectParamFloats {
 <3014b9a0-62f5-478c-9b86-e4ac9f4e418b>
 STRING ParamName;
 DWORD nFloats;
 array FLOAT Floats[nFloats];
}

template EffectParamString {
 <1dbc4c88-94c1-46ee-9076-2c28818c9481>
 STRING ParamName;
 STRING Value;
}

template EffectParamDWord {
 <e13963bc-ae51-4c5d-b00f-cfa3a9d97ce5>
 STRING ParamName;
 DWORD Value;
}


Material skyscrapers {
 1.000000;1.000000;1.000000;1.000000;;
 3.200000;
 0.000000;0.000000;0.000000;;
 0.000000;0.000000;0.000000;;

 TextureFilename {
  "Skyscrp.tga";
 }
}

Material buildz1 {
 1.000000;1.000000;1.000000;1.000000;;
 3.200000;
 0.000000;0.000000;0.000000;;
 0.000000;0.000000;0.000000;;

 TextureFilename {
  "buildz1.tga";
 }
}

Material buildz3 {
 1.000000;1.000000;1.000000;1.000000;;
 3.200000;
 0.000000;0.000000;0.000000;;
 0.000000;0.000000;0.000000;;

 TextureFilename {
  "buildz3.tga";
 }
}

Material buildz4 {
 1.000000;1.000000;1.000000;1.000000;;
 3.200000;
 0.000000;0.000000;0.000000;;
 0.000000;0.000000;0.000000;;

 TextureFilename {
  "buildz4.tga";
 }
}

Material buildz5 {
 1.000000;1.000000;1.000000;1.000000;;
 3.200000;
 0.000000;0.000000;0.000000;;
 0.000000;0.000000;0.000000;;

 TextureFilename {
  "buildz5.tga";
 }
}

Material buildz6 {
 1.000000;1.000000;1.000000;1.000000;;
 3.200000;
 0.000000;0.000000;0.000000;;
 0.000000;0.000000;0.000000;;

 TextureFilename {
  "buildz6.tga";
 }
}

Material buildz2 {
 1.000000;1.000000;1.000000;1.000000;;
 3.200000;
 0.000000;0.000000;0.000000;;
 0.000000;0.000000;0.000000;;

 TextureFilename {
  "buildz2.tga";
 }
}

Material roads {
 1.000000;1.000000;1.000000;1.000000;;
 3.200000;
 0.000000;0.000000;0.000000;;
 0.000000;0.000000;0.000000;;

 TextureFilename {
  "roads.tga";
 }
}

Material roads-2 {
 1.000000;1.000000;1.000000;1.000000;;
 3.200000;
 0.000000;0.000000;0.000000;;
 0.000000;0.000000;0.000000;;

 TextureFilename {
  "roads2.tga";
 }
}

Material tree-01 {
 1.000000;1.000000;1.000000;1.000000;;
 3.200000;
 0.000000;0.000000;0.000000;;
 0.000000;0.000000;0.000000;;

 TextureFilename {
  "trees-02.tga";
 }
}

Frame building-commercial_08 {
 

 FrameTransformMatrix {
  1.000000,0.000000,0.000000,0.000000,0.000000,-0.000000,-1.000000,0.000000,0.000000,1.000000,-0.000000,0.000000,0.000000,-12.670539,12.491668,1.000000;;
 }

 Frame {
  

  FrameTransformMatrix {
   1.000000,0.000000,0.000000,0.000000,0.000000,1.000000,0.000000,0.000000,0.000000,0.000000,1.000000,0.000000,0.000000,-0.000000,0.000000,1.000000;;
  }

  Mesh  {
   216;
   6.397139;-8.632090;11.351270;,
   -6.390190;-8.632094;11.351270;,
   -4.461426;-12.256082;7.849286;,
   -4.461426;-12.256082;7.849286;,
   4.469124;-12.256073;7.849286;,
   6.397139;-8.632090;11.351270;,
   -0.018393;-0.023754;14.285409;,
   -2.917697;3.915584;13.545924;,
   -2.907327;-3.926467;13.545924;,
   -2.907327;-3.926467;13.545924;,
   2.905887;-3.926463;13.545924;,
   -0.018393;-0.023754;14.285409;,
   9.179357;-8.632090;7.833528;,
   6.397139;-8.632090;11.351270;,
   4.469124;-12.256073;7.849286;,
   9.179356;8.632084;7.833528;,
   6.385437;8.626720;11.351269;,
   6.397139;-8.632090;11.351270;,
   6.397139;-8.632090;11.351270;,
   9.179357;-8.632090;7.833528;,
   9.179356;8.632084;7.833528;,
   -9.172423;-8.649429;7.833528;,
   -6.390190;-8.632094;11.351270;,
   -6.413000;8.618056;11.351269;,
   -6.413000;8.618056;11.351269;,
   -9.172424;8.649423;7.833528;,
   -9.172423;-8.649429;7.833528;,
   -4.461426;-12.256082;7.849286;,
   -6.390190;-8.632094;11.351270;,
   -9.172423;-8.649429;7.833528;,
   5.395590;-14.553187;4.122291;,
   -5.386118;-14.553187;4.122291;,
   -5.395846;-14.570531;0.000000;,
   -5.395846;-14.570531;0.000000;,
   5.404913;-14.570522;0.000000;,
   5.395590;-14.553187;4.122291;,
   11.035145;-10.221539;4.114412;,
   5.395590;-14.553187;4.122291;,
   5.404913;-14.570522;0.000000;,
   5.404913;-14.570522;0.000000;,
   11.041976;-10.238454;0.000000;,
   11.035145;-10.221539;4.114412;,
   -5.386118;-14.553187;4.122291;,
   -11.038580;-10.218332;4.110473;,
   -11.041994;-10.226791;0.000000;,
   -11.041994;-10.226791;0.000000;,
   -5.395846;-14.570531;0.000000;,
   -5.386118;-14.553187;4.122291;,
   -5.386118;-14.553187;4.122291;,
   5.395590;-14.553187;4.122291;,
   4.470359;-12.262731;5.343606;,
   4.470359;-12.262731;5.343606;,
   -4.462715;-12.262739;5.343606;,
   -5.386118;-14.553187;4.122291;,
   5.395590;-14.553187;4.122291;,
   11.035145;-10.221539;4.114412;,
   9.181252;-8.565413;5.339666;,
   9.181252;-8.565413;5.339666;,
   4.470359;-12.262731;5.343606;,
   5.395590;-14.553187;4.122291;,
   -11.038580;-10.218332;4.110473;,
   -5.386118;-14.553187;4.122291;,
   -4.462715;-12.262739;5.343606;,
   -4.462715;-12.262739;5.343606;,
   -9.161031;-8.609367;5.337696;,
   -11.038580;-10.218332;4.110473;,
   4.469124;-12.256073;7.849286;,
   -4.461426;-12.256082;7.849286;,
   -4.462715;-12.262739;5.343606;,
   -4.462715;-12.262739;5.343606;,
   4.470359;-12.262731;5.343606;,
   4.469124;-12.256073;7.849286;,
   9.179357;-8.632090;7.833528;,
   4.469124;-12.256073;7.849286;,
   4.470359;-12.262731;5.343606;,
   4.470359;-12.262731;5.343606;,
   9.181252;-8.565413;5.339666;,
   9.179357;-8.632090;7.833528;,
   9.179356;8.632084;7.833528;,
   9.179357;-8.632090;7.833528;,
   9.181252;-8.565413;5.339666;,
   9.181252;-8.565413;5.339666;,
   9.181253;8.531276;5.339666;,
   9.179356;8.632084;7.833528;,
   -9.172423;-8.649429;7.833528;,
   -9.172424;8.649423;7.833528;,
   -9.161033;8.592292;5.337696;,
   -9.161033;8.592292;5.337696;,
   -9.161031;-8.609367;5.337696;,
   -9.172423;-8.649429;7.833528;,
   -4.461426;-12.256082;7.849286;,
   -9.172423;-8.649429;7.833528;,
   -9.161031;-8.609367;5.337696;,
   -9.161031;-8.609367;5.337696;,
   -4.462715;-12.262739;5.343606;,
   -4.461426;-12.256082;7.849286;,
   -6.413000;8.618056;11.351269;,
   6.385437;8.626720;11.351269;,
   -4.461427;12.256075;7.849286;,
   4.469123;12.256067;7.849286;,
   -4.461427;12.256075;7.849286;,
   6.385437;8.626720;11.351269;,
   6.385437;8.626720;11.351269;,
   9.179356;8.632084;7.833528;,
   4.469123;12.256067;7.849286;,
   -6.413000;8.618056;11.351269;,
   -4.461427;12.256075;7.849286;,
   -9.172424;8.649423;7.833528;,
   -5.386119;14.553181;4.122291;,
   5.395589;14.553182;4.122291;,
   -5.395847;14.570524;0.000000;,
   5.404912;14.570517;0.000000;,
   -5.395847;14.570524;0.000000;,
   5.395589;14.553182;4.122291;,
   5.395589;14.553182;4.122291;,
   11.035145;10.185671;4.114412;,
   5.404912;14.570517;0.000000;,
   11.041978;10.202972;0.000000;,
   5.404912;14.570517;0.000000;,
   11.035145;10.185671;4.114412;,
   -11.038581;10.200399;4.110473;,
   -5.386119;14.553181;4.122291;,
   -11.041997;10.209050;0.000000;,
   -5.395847;14.570524;0.000000;,
   -11.041997;10.209050;0.000000;,
   -5.386119;14.553181;4.122291;,
   5.395589;14.553182;4.122291;,
   -5.386119;14.553181;4.122291;,
   4.470358;12.262725;5.343606;,
   -4.462716;12.262733;5.343606;,
   4.470358;12.262725;5.343606;,
   -5.386119;14.553181;4.122291;,
   11.035145;10.185671;4.114412;,
   5.395589;14.553182;4.122291;,
   9.181253;8.531276;5.339666;,
   4.470358;12.262725;5.343606;,
   9.181253;8.531276;5.339666;,
   5.395589;14.553182;4.122291;,
   -5.386119;14.553181;4.122291;,
   -11.038581;10.200399;4.110473;,
   -4.462716;12.262733;5.343606;,
   -9.161033;8.592292;5.337696;,
   -4.462716;12.262733;5.343606;,
   -11.038581;10.200399;4.110473;,
   -4.461427;12.256075;7.849286;,
   4.469123;12.256067;7.849286;,
   -4.462716;12.262733;5.343606;,
   4.470358;12.262725;5.343606;,
   -4.462716;12.262733;5.343606;,
   4.469123;12.256067;7.849286;,
   4.469123;12.256067;7.849286;,
   9.179356;8.632084;7.833528;,
   4.470358;12.262725;5.343606;,
   9.181253;8.531276;5.339666;,
   4.470358;12.262725;5.343606;,
   9.179356;8.632084;7.833528;,
   -9.172424;8.649423;7.833528;,
   -4.461427;12.256075;7.849286;,
   -9.161033;8.592292;5.337696;,
   -4.462716;12.262733;5.343606;,
   -9.161033;8.592292;5.337696;,
   -4.461427;12.256075;7.849286;,
   -6.390190;-8.632094;11.351270;,
   6.397139;-8.632090;11.351270;,
   2.905887;-3.926463;13.545924;,
   2.905887;-3.926463;13.545924;,
   -2.907327;-3.926467;13.545924;,
   -6.390190;-8.632094;11.351270;,
   6.385437;8.626720;11.351269;,
   -6.413000;8.618056;11.351269;,
   -2.917697;3.915584;13.545924;,
   -2.917697;3.915584;13.545924;,
   2.900568;3.919521;13.545924;,
   6.385437;8.626720;11.351269;,
   -6.413000;8.618056;11.351269;,
   -6.390190;-8.632094;11.351270;,
   -2.907327;-3.926467;13.545924;,
   -2.907327;-3.926467;13.545924;,
   -2.917697;3.915584;13.545924;,
   -6.413000;8.618056;11.351269;,
   6.397139;-8.632090;11.351270;,
   6.385437;8.626720;11.351269;,
   2.900568;3.919521;13.545924;,
   2.900568;3.919521;13.545924;,
   2.905887;-3.926463;13.545924;,
   6.397139;-8.632090;11.351270;,
   -0.018393;-0.023754;14.285409;,
   2.905887;-3.926463;13.545924;,
   2.900568;3.919521;13.545924;,
   2.900568;3.919521;13.545924;,
   -2.917697;3.915584;13.545924;,
   -0.018393;-0.023754;14.285409;,
   11.035145;10.185671;4.114412;,
   11.035145;-10.221539;4.114412;,
   11.041978;10.202972;0.000000;,
   11.041976;-10.238454;0.000000;,
   11.041978;10.202972;0.000000;,
   11.035145;-10.221539;4.114412;,
   11.035145;-10.221539;4.114412;,
   11.035145;10.185671;4.114412;,
   9.181252;-8.565413;5.339666;,
   9.181253;8.531276;5.339666;,
   9.181252;-8.565413;5.339666;,
   11.035145;10.185671;4.114412;,
   -11.038580;-10.218332;4.110473;,
   -11.038581;10.200399;4.110473;,
   -11.041997;10.209050;0.000000;,
   -11.041997;10.209050;0.000000;,
   -11.041994;-10.226791;0.000000;,
   -11.038580;-10.218332;4.110473;,
   -11.038581;10.200399;4.110473;,
   -11.038580;-10.218332;4.110473;,
   -9.161031;-8.609367;5.337696;,
   -9.161031;-8.609367;5.337696;,
   -9.161033;8.592292;5.337696;,
   -11.038581;10.200399;4.110473;;
   72;
   3;0,1,2;,
   3;3,4,5;,
   3;6,7,8;,
   3;9,10,11;,
   3;12,13,14;,
   3;15,16,17;,
   3;18,19,20;,
   3;21,22,23;,
   3;24,25,26;,
   3;27,28,29;,
   3;30,31,32;,
   3;33,34,35;,
   3;36,37,38;,
   3;39,40,41;,
   3;42,43,44;,
   3;45,46,47;,
   3;48,49,50;,
   3;51,52,53;,
   3;54,55,56;,
   3;57,58,59;,
   3;60,61,62;,
   3;63,64,65;,
   3;66,67,68;,
   3;69,70,71;,
   3;72,73,74;,
   3;75,76,77;,
   3;78,79,80;,
   3;81,82,83;,
   3;84,85,86;,
   3;87,88,89;,
   3;90,91,92;,
   3;93,94,95;,
   3;96,97,98;,
   3;99,100,101;,
   3;102,103,104;,
   3;105,106,107;,
   3;108,109,110;,
   3;111,112,113;,
   3;114,115,116;,
   3;117,118,119;,
   3;120,121,122;,
   3;123,124,125;,
   3;126,127,128;,
   3;129,130,131;,
   3;132,133,134;,
   3;135,136,137;,
   3;138,139,140;,
   3;141,142,143;,
   3;144,145,146;,
   3;147,148,149;,
   3;150,151,152;,
   3;153,154,155;,
   3;156,157,158;,
   3;159,160,161;,
   3;162,163,164;,
   3;165,166,167;,
   3;168,169,170;,
   3;171,172,173;,
   3;174,175,176;,
   3;177,178,179;,
   3;180,181,182;,
   3;183,184,185;,
   3;186,187,188;,
   3;189,190,191;,
   3;192,193,194;,
   3;195,196,197;,
   3;198,199,200;,
   3;201,202,203;,
   3;204,205,206;,
   3;207,208,209;,
   3;210,211,212;,
   3;213,214,215;;

   MeshNormals  {
    216;
    0.000001;-0.694899;0.719107;,
    0.000000;-0.694899;0.719108;,
    0.000000;-0.694899;0.719108;,
    0.000000;-0.694899;0.719108;,
    0.000001;-0.694899;0.719107;,
    0.000001;-0.694899;0.719107;,
    -0.001024;-0.000669;0.999999;,
    -0.101973;0.110533;0.988627;,
    -0.102621;-0.111332;0.988471;,
    -0.102621;-0.111332;0.988471;,
    0.102402;-0.110586;0.988577;,
    -0.001024;-0.000669;0.999999;,
    0.549988;-0.712949;0.434991;,
    0.549988;-0.712949;0.434991;,
    0.549988;-0.712949;0.434991;,
    0.783271;0.000445;0.621681;,
    0.783065;0.000531;0.621940;,
    0.784129;0.000086;0.620598;,
    0.784129;0.000086;0.620598;,
    0.784334;0.000000;0.620338;,
    0.783271;0.000445;0.621681;,
    -0.784732;-0.000869;0.619835;,
    -0.784330;-0.001037;0.620343;,
    -0.786410;-0.000167;0.617704;,
    -0.786410;-0.000167;0.617704;,
    -0.786809;-0.000000;0.617197;,
    -0.784732;-0.000869;0.619835;,
    -0.547766;-0.713582;0.436753;,
    -0.547766;-0.713582;0.436753;,
    -0.547766;-0.713582;0.436753;,
    0.000001;-0.999991;0.004206;,
    0.000000;-0.999991;0.004207;,
    0.000000;-0.999991;0.004207;,
    0.000000;-0.999991;0.004207;,
    0.000001;-0.999991;0.004205;,
    0.000001;-0.999991;0.004206;,
    0.609272;-0.792949;0.004419;,
    0.609136;-0.793052;0.004712;,
    0.609204;-0.793000;0.004565;,
    0.609204;-0.793000;0.004565;,
    0.609340;-0.792898;0.004271;,
    0.609272;-0.792949;0.004419;,
    -0.609352;-0.792891;0.003895;,
    -0.608548;-0.793514;0.002138;,
    -0.608951;-0.793202;0.003018;,
    -0.608951;-0.793202;0.003018;,
    -0.609752;-0.792578;0.004774;,
    -0.609352;-0.792891;0.003895;,
    0.000000;-0.470509;0.882395;,
    0.000000;-0.470509;0.882395;,
    0.000000;-0.470509;0.882395;,
    0.000000;-0.470511;0.882394;,
    0.000000;-0.470511;0.882394;,
    0.000000;-0.470511;0.882394;,
    0.273806;-0.354854;0.893929;,
    0.273806;-0.354854;0.893929;,
    0.273806;-0.354854;0.893929;,
    0.283073;-0.359727;0.889081;,
    0.283073;-0.359727;0.889081;,
    0.283073;-0.359727;0.889081;,
    -0.279254;-0.361710;0.889485;,
    -0.279254;-0.361710;0.889485;,
    -0.279254;-0.361710;0.889485;,
    -0.278000;-0.356071;0.892149;,
    -0.278000;-0.356071;0.892149;,
    -0.278000;-0.356071;0.892149;,
    0.000001;-0.999996;0.002657;,
    0.000001;-0.999996;0.002657;,
    0.000001;-0.999996;0.002657;,
    0.000001;-0.999996;0.002657;,
    0.000001;-0.999996;0.002657;,
    0.000001;-0.999996;0.002657;,
    0.615419;-0.788061;-0.014795;,
    0.609791;-0.792559;0.002406;,
    0.611716;-0.791070;-0.003404;,
    0.611716;-0.791070;-0.003404;,
    0.617257;-0.786493;-0.020559;,
    0.615419;-0.788061;-0.014795;,
    1.000000;-0.000000;0.000761;,
    1.000000;0.000000;0.000760;,
    1.000000;0.000000;0.000760;,
    1.000000;0.000000;0.000760;,
    1.000000;-0.000000;0.000761;,
    1.000000;-0.000000;0.000761;,
    -0.999990;-0.000000;-0.004565;,
    -0.999990;-0.000000;-0.004564;,
    -0.999990;-0.000000;-0.004564;,
    -0.999990;-0.000000;-0.004564;,
    -0.999990;-0.000000;-0.004565;,
    -0.999990;-0.000000;-0.004565;,
    -0.612337;-0.790594;-0.002122;,
    -0.607783;-0.793952;-0.015518;,
    -0.609351;-0.792825;-0.010949;,
    -0.609351;-0.792825;-0.010949;,
    -0.613849;-0.789420;0.002413;,
    -0.612337;-0.790594;-0.002122;,
    -0.000470;0.693639;0.720322;,
    -0.000169;0.694105;0.719874;,
    -0.000364;0.693803;0.720165;,
    0.000001;0.694367;0.719621;,
    -0.000364;0.693803;0.720165;,
    -0.000169;0.694105;0.719874;,
    0.549294;0.712037;0.437355;,
    0.549294;0.712037;0.437355;,
    0.549294;0.712037;0.437355;,
    -0.547934;0.713803;0.436181;,
    -0.547934;0.713803;0.436181;,
    -0.547934;0.713803;0.436181;,
    -0.000000;0.999991;0.004207;,
    0.000001;0.999991;0.004206;,
    0.000000;0.999991;0.004207;,
    0.000001;0.999991;0.004205;,
    0.000000;0.999991;0.004207;,
    0.000001;0.999991;0.004206;,
    0.612293;0.790617;0.004709;,
    0.612406;0.790531;0.004464;,
    0.612350;0.790574;0.004587;,
    0.612462;0.790488;0.004341;,
    0.612350;0.790574;0.004587;,
    0.612406;0.790531;0.004464;,
    -0.610129;0.792299;0.002175;,
    -0.610919;0.791683;0.003908;,
    -0.610524;0.791992;0.003041;,
    -0.611312;0.791375;0.004772;,
    -0.610524;0.791992;0.003041;,
    -0.610919;0.791683;0.003908;,
    -0.000000;0.470509;0.882395;,
    -0.000000;0.470509;0.882395;,
    -0.000000;0.470509;0.882395;,
    0.000000;0.470511;0.882394;,
    0.000000;0.470511;0.882394;,
    0.000000;0.470511;0.882394;,
    0.275178;0.353711;0.893960;,
    0.275178;0.353711;0.893960;,
    0.275178;0.353711;0.893960;,
    0.284970;0.358831;0.888838;,
    0.284970;0.358831;0.888838;,
    0.284970;0.358831;0.888838;,
    -0.280096;0.361314;0.889381;,
    -0.280096;0.361314;0.889381;,
    -0.280096;0.361314;0.889381;,
    -0.278764;0.355393;0.892180;,
    -0.278764;0.355393;0.892180;,
    -0.278764;0.355393;0.892180;,
    0.000001;0.999996;0.002657;,
    0.000001;0.999996;0.002657;,
    0.000001;0.999996;0.002657;,
    0.000001;0.999996;0.002657;,
    0.000001;0.999996;0.002657;,
    0.000001;0.999996;0.002657;,
    0.609791;0.792559;0.002406;,
    0.617969;0.785871;-0.022812;,
    0.612600;0.790369;-0.006099;,
    0.620588;0.783516;-0.031199;,
    0.612600;0.790369;-0.006099;,
    0.617969;0.785871;-0.022812;,
    -0.607711;0.793882;-0.020946;,
    -0.613669;0.789556;-0.003488;,
    -0.609769;0.792437;-0.014987;,
    -0.615632;0.788030;0.002410;,
    -0.609769;0.792437;-0.014987;,
    -0.613669;0.789556;-0.003488;,
    0.000000;-0.422679;0.906279;,
    0.000000;-0.422679;0.906279;,
    0.000000;-0.422679;0.906279;,
    0.000000;-0.422679;0.906279;,
    0.000000;-0.422679;0.906279;,
    0.000000;-0.422679;0.906279;,
    -0.000286;0.422737;0.906252;,
    -0.000286;0.422737;0.906252;,
    -0.000286;0.422737;0.906252;,
    -0.000286;0.422737;0.906252;,
    -0.000286;0.422737;0.906252;,
    -0.000286;0.422737;0.906252;,
    -0.532435;-0.000704;0.846471;,
    -0.532435;-0.000704;0.846471;,
    -0.532435;-0.000704;0.846471;,
    -0.532435;-0.000704;0.846471;,
    -0.532435;-0.000704;0.846471;,
    -0.532435;-0.000704;0.846471;,
    0.532547;0.000361;0.846400;,
    0.532547;0.000361;0.846400;,
    0.532547;0.000361;0.846400;,
    0.532547;0.000361;0.846400;,
    0.532547;0.000361;0.846400;,
    0.532547;0.000361;0.846400;,
    -0.001024;-0.000669;0.999999;,
    0.102402;-0.110586;0.988577;,
    0.101585;0.110215;0.988703;,
    0.101585;0.110215;0.988703;,
    -0.101973;0.110533;0.988627;,
    -0.001024;-0.000669;0.999999;,
    0.999999;0.000000;0.001661;,
    0.999999;-0.000000;0.001660;,
    0.999999;-0.000000;0.001661;,
    0.999999;-0.000000;0.001660;,
    0.999999;-0.000000;0.001661;,
    0.999999;-0.000000;0.001660;,
    0.551370;0.000000;0.834261;,
    0.551370;0.000000;0.834261;,
    0.551370;0.000000;0.834261;,
    0.551371;-0.000000;0.834260;,
    0.551371;-0.000000;0.834260;,
    0.551371;-0.000000;0.834260;,
    -1.000000;-0.000000;0.000831;,
    -1.000000;-0.000000;0.000831;,
    -1.000000;-0.000000;0.000831;,
    -1.000000;-0.000000;0.000831;,
    -1.000000;-0.000000;0.000831;,
    -1.000000;-0.000000;0.000831;,
    -0.547123;-0.000000;0.837052;,
    -0.547123;-0.000000;0.837052;,
    -0.547123;-0.000000;0.837052;,
    -0.547123;-0.000000;0.837052;,
    -0.547123;-0.000000;0.837052;,
    -0.547123;-0.000000;0.837052;;
    72;
    3;0,1,2;,
    3;3,4,5;,
    3;6,7,8;,
    3;9,10,11;,
    3;12,13,14;,
    3;15,16,17;,
    3;18,19,20;,
    3;21,22,23;,
    3;24,25,26;,
    3;27,28,29;,
    3;30,31,32;,
    3;33,34,35;,
    3;36,37,38;,
    3;39,40,41;,
    3;42,43,44;,
    3;45,46,47;,
    3;48,49,50;,
    3;51,52,53;,
    3;54,55,56;,
    3;57,58,59;,
    3;60,61,62;,
    3;63,64,65;,
    3;66,67,68;,
    3;69,70,71;,
    3;72,73,74;,
    3;75,76,77;,
    3;78,79,80;,
    3;81,82,83;,
    3;84,85,86;,
    3;87,88,89;,
    3;90,91,92;,
    3;93,94,95;,
    3;96,97,98;,
    3;99,100,101;,
    3;102,103,104;,
    3;105,106,107;,
    3;108,109,110;,
    3;111,112,113;,
    3;114,115,116;,
    3;117,118,119;,
    3;120,121,122;,
    3;123,124,125;,
    3;126,127,128;,
    3;129,130,131;,
    3;132,133,134;,
    3;135,136,137;,
    3;138,139,140;,
    3;141,142,143;,
    3;144,145,146;,
    3;147,148,149;,
    3;150,151,152;,
    3;153,154,155;,
    3;156,157,158;,
    3;159,160,161;,
    3;162,163,164;,
    3;165,166,167;,
    3;168,169,170;,
    3;171,172,173;,
    3;174,175,176;,
    3;177,178,179;,
    3;180,181,182;,
    3;183,184,185;,
    3;186,187,188;,
    3;189,190,191;,
    3;192,193,194;,
    3;195,196,197;,
    3;198,199,200;,
    3;201,202,203;,
    3;204,205,206;,
    3;207,208,209;,
    3;210,211,212;,
    3;213,214,215;;
   }

   MeshMaterialList  {
    1;
    72;
    0,
    0,
    0,
    0,
    0,
    0,
    0,
    0,
    0,
    0,
    0,
    0,
    0,
    0,
    0,
    0,
    0,
    0,
    0,
    0,
    0,
    0,
    0,
    0,
    0,
    0,
    0,
    0,
    0,
    0,
    0,
    0,
    0,
    0,
    0,
    0,
    0,
    0,
    0,
    0,
    0,
    0,
    0,
    0,
    0,
    0,
    0,
    0,
    0,
    0,
    0,
    0,
    0,
    0,
    0,
    0,
    0,
    0,
    0,
    0,
    0,
    0,
    0,
    0,
    0,
    0,
    0,
    0,
    0,
    0,
    0,
    0;
    { skyscrapers }
   }

   MeshTextureCoords  {
    216;
    0.467856;0.508833;,
    0.199940;0.508833;,
    0.242411;0.612983;,
    0.242411;0.612983;,
    0.425401;0.612983;,
    0.467856;0.508833;,
    0.390498;0.548384;,
    0.327976;0.470073;,
    0.446870;0.470073;,
    0.446870;0.470073;,
    0.327976;0.470073;,
    0.390498;0.548384;,
    0.357521;0.612983;,
    0.312178;0.508833;,
    0.254916;0.612983;,
    0.424167;0.615158;,
    0.424166;0.507787;,
    0.153712;0.507788;,
    0.153712;0.507788;,
    0.154174;0.615160;,
    0.424167;0.615158;,
    0.424167;0.615158;,
    0.424166;0.507787;,
    0.153712;0.507788;,
    0.153712;0.507788;,
    0.154174;0.615160;,
    0.424167;0.615158;,
    0.273459;0.613156;,
    0.330251;0.509638;,
    0.378896;0.612969;,
    0.220812;0.923708;,
    0.386704;0.923708;,
    0.386674;0.996611;,
    0.386674;0.996611;,
    0.220842;0.996611;,
    0.220812;0.923708;,
    0.194745;0.922389;,
    0.305714;0.923708;,
    0.305744;0.996611;,
    0.305744;0.996611;,
    0.194745;0.997500;,
    0.194745;0.922389;,
    0.303648;0.923708;,
    0.396696;0.921420;,
    0.396695;0.996405;,
    0.396695;0.996405;,
    0.303617;0.996611;,
    0.303648;0.923708;,
    0.897277;0.356690;,
    0.992785;0.356809;,
    0.992798;0.317452;,
    0.992798;0.317452;,
    0.897290;0.317333;,
    0.897277;0.356690;,
    0.992785;0.356809;,
    0.939066;0.357039;,
    0.939079;0.317682;,
    0.939079;0.317682;,
    0.992798;0.317452;,
    0.992785;0.356809;,
    0.940665;0.357026;,
    0.897277;0.356690;,
    0.897290;0.317333;,
    0.897290;0.317333;,
    0.940678;0.317669;,
    0.940665;0.357026;,
    0.809590;0.364539;,
    0.986557;0.364539;,
    0.986547;0.410336;,
    0.986547;0.410336;,
    0.809600;0.410336;,
    0.809590;0.364539;,
    0.619256;0.702657;,
    0.730225;0.704148;,
    0.730235;0.748099;,
    0.730235;0.748099;,
    0.619256;0.747178;,
    0.619256;0.702657;,
    0.592084;0.702654;,
    0.976245;0.702656;,
    0.976245;0.747177;,
    0.976245;0.747177;,
    0.592083;0.747176;,
    0.592084;0.702654;,
    0.885293;0.701564;,
    0.532508;0.701565;,
    0.532508;0.746087;,
    0.532508;0.746087;,
    0.885293;0.746085;,
    0.885293;0.701564;,
    0.728159;0.704148;,
    0.821207;0.701563;,
    0.821206;0.746084;,
    0.821206;0.746084;,
    0.728149;0.748099;,
    0.728159;0.704148;,
    0.199940;0.508833;,
    0.467856;0.508833;,
    0.242411;0.612983;,
    0.425401;0.612983;,
    0.242411;0.612983;,
    0.467856;0.508833;,
    0.312178;0.508833;,
    0.357521;0.612983;,
    0.254916;0.612983;,
    0.330251;0.509638;,
    0.273459;0.613156;,
    0.378896;0.612969;,
    0.386704;0.923708;,
    0.220812;0.923708;,
    0.386674;0.996611;,
    0.220842;0.996611;,
    0.386674;0.996611;,
    0.220812;0.923708;,
    0.305714;0.923708;,
    0.194745;0.922389;,
    0.305744;0.996611;,
    0.194745;0.997500;,
    0.305744;0.996611;,
    0.194745;0.922389;,
    0.396696;0.921420;,
    0.303648;0.923708;,
    0.396695;0.996405;,
    0.303617;0.996611;,
    0.396695;0.996405;,
    0.303648;0.923708;,
    0.992785;0.356809;,
    0.897277;0.356690;,
    0.992798;0.317452;,
    0.897290;0.317333;,
    0.992798;0.317452;,
    0.897277;0.356690;,
    0.939066;0.357039;,
    0.992785;0.356809;,
    0.939079;0.317682;,
    0.992798;0.317452;,
    0.939079;0.317682;,
    0.992785;0.356809;,
    0.897277;0.356690;,
    0.940665;0.357026;,
    0.897290;0.317333;,
    0.940678;0.317669;,
    0.897290;0.317333;,
    0.940665;0.357026;,
    0.986557;0.364539;,
    0.809590;0.364539;,
    0.986547;0.410336;,
    0.809600;0.410336;,
    0.986547;0.410336;,
    0.809590;0.364539;,
    0.730225;0.704148;,
    0.619256;0.702657;,
    0.730235;0.748099;,
    0.619256;0.747178;,
    0.730235;0.748099;,
    0.619256;0.702657;,
    0.821207;0.701563;,
    0.728159;0.704148;,
    0.821206;0.746084;,
    0.728149;0.748099;,
    0.821206;0.746084;,
    0.728159;0.704148;,
    0.193240;0.482993;,
    0.459789;0.482993;,
    0.386807;0.563149;,
    0.386807;0.563149;,
    0.266239;0.563149;,
    0.193240;0.482993;,
    0.193240;0.482993;,
    0.459789;0.482993;,
    0.386807;0.563149;,
    0.386807;0.563149;,
    0.266239;0.563149;,
    0.193240;0.482993;,
    0.137569;0.482993;,
    0.402874;0.482993;,
    0.330172;0.563149;,
    0.330172;0.563149;,
    0.210285;0.563149;,
    0.137569;0.482993;,
    0.137569;0.482993;,
    0.402874;0.482993;,
    0.330172;0.563149;,
    0.330172;0.563149;,
    0.210285;0.563149;,
    0.137569;0.482993;,
    0.390498;0.548384;,
    0.446870;0.470073;,
    0.327976;0.470073;,
    0.327976;0.470073;,
    0.446870;0.470073;,
    0.390498;0.548384;,
    0.469761;0.923708;,
    0.141447;0.923708;,
    0.469730;0.996611;,
    0.141477;0.996611;,
    0.469730;0.996611;,
    0.141447;0.923708;,
    1.000077;0.356809;,
    0.891830;0.356690;,
    0.989107;0.317452;,
    0.899135;0.317333;,
    0.989107;0.317452;,
    0.891830;0.356690;,
    0.141447;0.923708;,
    0.469761;0.923708;,
    0.469730;0.996611;,
    0.469730;0.996611;,
    0.141477;0.996611;,
    0.141447;0.923708;,
    0.891830;0.356690;,
    1.000077;0.356809;,
    0.989107;0.317452;,
    0.989107;0.317452;,
    0.899135;0.317333;,
    0.891830;0.356690;;
   }
  }
 }
}