xof 0303txt 0032
template XSkinMeshHeader {
 <3cf169ce-ff7c-44ab-93c0-f78f62d172e2>
 WORD nMaxSkinWeightsPerVertex;
 WORD nMaxSkinWeightsPerFace;
 WORD nBones;
}

template VertexDuplicationIndices {
 <b8d65549-d7c9-4995-89cf-53a9a8b031e3>
 DWORD nIndices;
 DWORD nOriginalVertices;
 array DWORD indices[nIndices];
}

template SkinWeights {
 <6f0d123b-bad2-4167-a0d0-80224f25fabb>
 STRING transformNodeName;
 DWORD nWeights;
 array DWORD vertexIndices[nWeights];
 array FLOAT weights[nWeights];
 Matrix4x4 matrixOffset;
}

template FVFData {
 <b6e70a0e-8ef9-4e83-94ad-ecc8b0c04897>
 DWORD dwFVF;
 DWORD nDWords;
 array DWORD data[nDWords];
}

template EffectInstance {
 <e331f7e4-0559-4cc2-8e99-1cec1657928f>
 STRING EffectFilename;
 [...]
}

template EffectParamFloats {
 <3014b9a0-62f5-478c-9b86-e4ac9f4e418b>
 STRING ParamName;
 DWORD nFloats;
 array FLOAT Floats[nFloats];
}

template EffectParamString {
 <1dbc4c88-94c1-46ee-9076-2c28818c9481>
 STRING ParamName;
 STRING Value;
}

template EffectParamDWord {
 <e13963bc-ae51-4c5d-b00f-cfa3a9d97ce5>
 STRING ParamName;
 DWORD Value;
}


Material skyscrapers {
 1.000000;1.000000;1.000000;1.000000;;
 3.200000;
 0.000000;0.000000;0.000000;;
 0.000000;0.000000;0.000000;;

 TextureFilename {
  "Skyscrp.tga";
 }
}

Material buildz1 {
 1.000000;1.000000;1.000000;1.000000;;
 3.200000;
 0.000000;0.000000;0.000000;;
 0.000000;0.000000;0.000000;;

 TextureFilename {
  "buildz1.tga";
 }
}

Material buildz3 {
 1.000000;1.000000;1.000000;1.000000;;
 3.200000;
 0.000000;0.000000;0.000000;;
 0.000000;0.000000;0.000000;;

 TextureFilename {
  "buildz3.tga";
 }
}

Material buildz4 {
 1.000000;1.000000;1.000000;1.000000;;
 3.200000;
 0.000000;0.000000;0.000000;;
 0.000000;0.000000;0.000000;;

 TextureFilename {
  "buildz4.tga";
 }
}

Material buildz5 {
 1.000000;1.000000;1.000000;1.000000;;
 3.200000;
 0.000000;0.000000;0.000000;;
 0.000000;0.000000;0.000000;;

 TextureFilename {
  "buildz5.tga";
 }
}

Material buildz6 {
 1.000000;1.000000;1.000000;1.000000;;
 3.200000;
 0.000000;0.000000;0.000000;;
 0.000000;0.000000;0.000000;;

 TextureFilename {
  "buildz6.tga";
 }
}

Material buildz2 {
 1.000000;1.000000;1.000000;1.000000;;
 3.200000;
 0.000000;0.000000;0.000000;;
 0.000000;0.000000;0.000000;;

 TextureFilename {
  "buildz2.tga";
 }
}

Material roads {
 1.000000;1.000000;1.000000;1.000000;;
 3.200000;
 0.000000;0.000000;0.000000;;
 0.000000;0.000000;0.000000;;

 TextureFilename {
  "roads.tga";
 }
}

Material roads-2 {
 1.000000;1.000000;1.000000;1.000000;;
 3.200000;
 0.000000;0.000000;0.000000;;
 0.000000;0.000000;0.000000;;

 TextureFilename {
  "roads2.tga";
 }
}

Material tree-01 {
 1.000000;1.000000;1.000000;1.000000;;
 3.200000;
 0.000000;0.000000;0.000000;;
 0.000000;0.000000;0.000000;;

 TextureFilename {
  "trees-02.tga";
 }
}

Frame building-commercial_01 {
 

 FrameTransformMatrix {
  1.000000,0.000000,0.000000,0.000000,0.000000,-0.000000,-1.000000,0.000000,0.000000,1.000000,-0.000000,0.000000,0.000000,-12.670539,12.491668,1.000000;;
 }

 Frame {
  

  FrameTransformMatrix {
   1.000000,0.000000,0.000000,0.000000,0.000000,1.000000,0.000000,0.000000,0.000000,0.000000,1.000000,0.000000,0.000000,-0.000000,0.000000,1.000000;;
  }

  Mesh  {
   696;
   -12.011899;-6.212555;16.241737;,
   -13.457115;-0.187774;16.241737;,
   -14.048725;-7.288122;16.386381;,
   -12.011899;-6.212555;16.241737;,
   -14.048725;-7.288122;16.386381;,
   -9.131251;-12.933560;16.386381;,
   -18.447979;10.316046;0.000002;,
   -18.447979;10.316046;7.623289;,
   -10.053236;10.329613;7.623289;,
   -10.053236;10.329613;7.623289;,
   -10.053236;10.329613;0.000002;,
   -18.447979;10.316046;0.000002;,
   -14.048725;-7.288122;16.386381;,
   -14.048725;-7.288122;7.623289;,
   -9.131252;-12.933560;7.623289;,
   -9.131252;-12.933560;7.623289;,
   -9.131251;-12.933560;16.386381;,
   -14.048725;-7.288122;16.386381;,
   -16.558546;-8.568349;0.000002;,
   -16.558546;-8.568349;7.623289;,
   -18.538366;-0.281850;7.623289;,
   -18.538366;-0.281850;7.623289;,
   -18.538366;-0.281850;0.000002;,
   -16.558546;-8.568349;0.000002;,
   -0.000008;-17.978651;7.623289;,
   -10.558424;-15.362834;7.623289;,
   -10.558424;-15.362834;0.000002;,
   -10.558424;-15.362834;0.000002;,
   -0.000008;-17.978651;0.000000;,
   -0.000008;-17.978651;7.623289;,
   -18.538366;-0.281850;7.623289;,
   -18.447979;10.316046;7.623289;,
   -18.447979;10.316046;0.000002;,
   -18.447979;10.316046;0.000002;,
   -18.538366;-0.281850;0.000002;,
   -18.538366;-0.281850;7.623289;,
   -13.464795;5.994954;16.241737;,
   -15.746287;8.016123;16.386381;,
   -15.738980;0.036940;16.386381;,
   -16.558546;-8.568349;0.000002;,
   -10.558424;-15.362834;0.000002;,
   -10.558424;-15.362834;7.623289;,
   -10.558424;-15.362834;7.623289;,
   -16.558546;-8.568349;7.623289;,
   -16.558546;-8.568349;0.000002;,
   -14.048725;-7.288122;16.386381;,
   -15.738980;0.036940;16.386381;,
   -15.738980;0.036940;7.623289;,
   -15.738980;0.036940;7.623289;,
   -14.048725;-7.288122;7.623289;,
   -14.048725;-7.288122;16.386381;,
   -0.000008;-15.161211;16.386381;,
   -9.131251;-12.933560;16.386381;,
   -9.131252;-12.933560;7.623289;,
   -9.131252;-12.933560;7.623289;,
   -0.000008;-15.161211;7.623289;,
   -0.000008;-15.161211;16.386381;,
   -15.738980;0.036940;16.386381;,
   -15.746287;8.016123;16.386381;,
   -15.746287;8.016122;7.623289;,
   -15.746287;8.016122;7.623289;,
   -15.738980;0.036940;7.623289;,
   -15.738980;0.036940;16.386381;,
   -10.053236;10.329613;7.623289;,
   -15.746287;8.016122;7.623289;,
   -6.812180;7.926602;7.576515;,
   -10.053236;10.329613;7.623289;,
   -18.447979;10.316046;7.623289;,
   -15.746287;8.016122;7.623289;,
   -9.131252;-12.933560;7.623289;,
   -14.048725;-7.288122;7.623289;,
   -16.558546;-8.568349;7.623289;,
   -16.558546;-8.568349;7.623289;,
   -10.558424;-15.362834;7.623289;,
   -9.131252;-12.933560;7.623289;,
   -14.048725;-7.288122;7.623289;,
   -15.738980;0.036940;7.623289;,
   -18.538366;-0.281850;7.623289;,
   -18.538366;-0.281850;7.623289;,
   -16.558546;-8.568349;7.623289;,
   -14.048725;-7.288122;7.623289;,
   -0.000008;-15.161211;7.623289;,
   -9.131252;-12.933560;7.623289;,
   -10.558424;-15.362834;7.623289;,
   -10.558424;-15.362834;7.623289;,
   -0.000008;-17.978651;7.623289;,
   -0.000008;-15.161211;7.623289;,
   -15.738980;0.036940;7.623289;,
   -15.746287;8.016122;7.623289;,
   -18.447979;10.316046;7.623289;,
   -18.447979;10.316046;7.623289;,
   -18.538366;-0.281850;7.623289;,
   -15.738980;0.036940;7.623289;,
   -13.457115;-0.187774;16.241737;,
   -13.464795;5.994954;16.241737;,
   -15.738980;0.036940;16.386381;,
   -13.457115;-0.187774;16.241737;,
   -15.738980;0.036940;16.386381;,
   -14.048725;-7.288122;16.386381;,
   -7.807310;-10.855865;16.241737;,
   -12.011899;-6.212555;16.241737;,
   -9.131251;-12.933560;16.386381;,
   -7.807310;-10.855865;16.241737;,
   -9.131251;-12.933560;16.386381;,
   -0.000008;-15.161211;16.386381;,
   -0.000008;-12.716804;16.241737;,
   -7.807310;-10.855865;16.241737;,
   -0.000008;-15.161211;16.386381;,
   -0.000009;-0.591409;33.560104;,
   -11.274923;-0.591404;33.560108;,
   -10.064029;-5.639346;33.560108;,
   -0.000009;-0.591409;33.560104;,
   -10.064029;-5.639346;33.560108;,
   -6.541158;-9.529805;33.560108;,
   -0.000009;-0.591409;33.560104;,
   -6.541158;-9.529805;33.560108;,
   -0.000008;-11.089018;33.560104;,
   -10.064029;-5.639346;33.560108;,
   -10.064029;-5.639346;24.895178;,
   -6.541159;-9.529805;24.895178;,
   -6.541159;-9.529805;24.895178;,
   -6.541158;-9.529805;33.560108;,
   -10.064029;-5.639346;33.560108;,
   -6.894630;4.480784;33.560108;,
   -11.283049;4.473717;33.560108;,
   -11.274923;-0.591404;33.560108;,
   -6.894630;4.480784;33.560108;,
   -0.000009;-0.591409;33.560104;,
   -0.000009;4.491874;33.560104;,
   -10.064029;-5.639346;33.560108;,
   -11.274923;-0.591404;33.560108;,
   -11.274923;-0.591404;24.895178;,
   -11.274923;-0.591404;24.895178;,
   -10.064029;-5.639346;24.895178;,
   -10.064029;-5.639346;33.560108;,
   -0.000008;-11.089018;33.560104;,
   -6.541158;-9.529805;33.560108;,
   -6.541159;-9.529805;24.895178;,
   -6.541159;-9.529805;24.895178;,
   -0.000008;-11.089018;24.895178;,
   -0.000008;-11.089018;33.560104;,
   -11.274923;-0.591404;33.560108;,
   -11.283049;4.473717;33.560108;,
   -11.283049;4.473716;24.895178;,
   -11.283049;4.473716;24.895178;,
   -11.274923;-0.591404;24.895178;,
   -11.274923;-0.591404;33.560108;,
   -2.404272;-2.249615;35.205784;,
   -0.665067;-2.249615;35.205784;,
   -0.665067;1.422105;35.205784;,
   -0.665067;1.422105;35.205784;,
   -2.404272;1.422105;35.205784;,
   -2.404272;-2.249615;35.205784;,
   -2.404272;-2.249615;33.384129;,
   -0.665067;-2.249615;33.384129;,
   -0.665067;-2.249615;35.205784;,
   -0.665067;-2.249615;35.205784;,
   -2.404272;-2.249615;35.205784;,
   -2.404272;-2.249615;33.384129;,
   -0.665067;-2.249615;33.384129;,
   -0.665067;1.422105;33.384129;,
   -0.665067;1.422105;35.205784;,
   -0.665067;1.422105;35.205784;,
   -0.665067;-2.249615;35.205784;,
   -0.665067;-2.249615;33.384129;,
   -0.665067;1.422105;33.384129;,
   -2.404272;1.422105;33.384129;,
   -2.404272;1.422105;35.205784;,
   -2.404272;1.422105;35.205784;,
   -0.665067;1.422105;35.205784;,
   -0.665067;1.422105;33.384129;,
   -2.404272;1.422105;33.384129;,
   -2.404272;-2.249615;33.384129;,
   -2.404272;-2.249615;35.205784;,
   -2.404272;-2.249615;35.205784;,
   -2.404272;1.422105;35.205784;,
   -2.404272;1.422105;33.384129;,
   -11.274923;-0.591404;24.895178;,
   -13.457115;-0.187774;24.906668;,
   -12.011899;-6.212555;24.906668;,
   -6.541159;-9.529805;24.895178;,
   -10.064029;-5.639346;24.895178;,
   -7.807309;-10.855865;24.906668;,
   -6.541159;-9.529805;24.895178;,
   -7.807309;-10.855865;24.906668;,
   -0.000008;-12.716804;24.906668;,
   -12.011899;-6.212555;24.906668;,
   -12.011899;-6.212555;16.241737;,
   -7.807310;-10.855865;16.241737;,
   -7.807310;-10.855865;16.241737;,
   -7.807309;-10.855865;24.906668;,
   -12.011899;-6.212555;24.906668;,
   -11.283049;4.473716;24.895178;,
   -13.464795;5.994955;24.906668;,
   -13.457115;-0.187774;24.906668;,
   -12.011899;-6.212555;24.906668;,
   -13.457115;-0.187774;24.906668;,
   -13.457115;-0.187774;16.241737;,
   -13.457115;-0.187774;16.241737;,
   -12.011899;-6.212555;16.241737;,
   -12.011899;-6.212555;24.906668;,
   -0.000008;-12.716804;24.906668;,
   -7.807309;-10.855865;24.906668;,
   -7.807310;-10.855865;16.241737;,
   -7.807310;-10.855865;16.241737;,
   -0.000008;-12.716804;16.241737;,
   -0.000008;-12.716804;24.906668;,
   -13.457115;-0.187774;24.906668;,
   -13.464795;5.994955;24.906668;,
   -13.464795;5.994954;16.241737;,
   -13.464795;5.994954;16.241737;,
   -13.457115;-0.187774;16.241737;,
   -13.457115;-0.187774;24.906668;,
   -11.274923;-0.591404;24.895178;,
   -11.283049;4.473716;24.895178;,
   -13.457115;-0.187774;24.906668;,
   -10.064029;-5.639346;24.895178;,
   -11.274923;-0.591404;24.895178;,
   -12.011899;-6.212555;24.906668;,
   -10.064029;-5.639346;24.895178;,
   -12.011899;-6.212555;24.906668;,
   -7.807309;-10.855865;24.906668;,
   -0.000008;-11.089018;24.895178;,
   -6.541159;-9.529805;24.895178;,
   -0.000008;-12.716804;24.906668;,
   -10.004230;17.874420;0.000002;,
   -10.004230;17.874420;7.623289;,
   -0.000009;17.978647;7.623289;,
   -0.000009;17.978647;7.623289;,
   -0.000009;17.978647;0.000003;,
   -10.004230;17.874420;0.000002;,
   -10.053236;10.329613;7.623289;,
   -10.004230;17.874420;7.623289;,
   -10.004230;17.874420;0.000002;,
   -10.004230;17.874420;0.000002;,
   -10.053236;10.329613;0.000002;,
   -10.053236;10.329613;7.623289;,
   -10.004230;17.874420;7.623289;,
   -0.000010;15.687346;7.576516;,
   -0.000009;17.978647;7.623289;,
   -15.746287;8.016122;7.623289;,
   -15.746287;8.016123;16.386381;,
   -6.812180;7.926602;7.576515;,
   -11.283049;4.473716;24.895178;,
   -11.283049;4.473717;33.560108;,
   -6.860182;4.436742;24.935970;,
   -6.860182;4.436742;24.935970;,
   -13.464795;5.994955;24.906668;,
   -11.283049;4.473716;24.895178;,
   -6.868197;15.657247;7.576516;,
   -6.874961;15.655311;16.386381;,
   -0.000010;15.687346;7.576516;,
   -0.000010;15.655317;16.386381;,
   -0.000010;15.687346;7.576516;,
   -6.874961;15.655311;16.386381;,
   -0.000010;15.655317;16.386381;,
   -6.874960;12.139057;16.381708;,
   -0.000009;12.139067;16.241737;,
   -0.000010;15.655317;16.386381;,
   -6.874961;15.655311;16.386381;,
   -6.874960;12.139057;16.381708;,
   -6.874960;9.601734;24.906668;,
   -6.874960;9.575153;33.560108;,
   -0.000009;9.575159;24.895178;,
   -0.000009;9.575159;33.560104;,
   -0.000009;9.575159;24.895178;,
   -6.874960;9.575153;33.560108;,
   -0.000009;9.575159;33.560104;,
   -6.874960;9.575153;33.560108;,
   -0.000009;4.491874;33.560104;,
   -6.894630;4.480784;33.560108;,
   -0.000009;4.491874;33.560104;,
   -6.874960;9.575153;33.560108;,
   -6.874960;12.139057;16.381708;,
   -6.874960;12.139061;24.906668;,
   -0.000009;12.139067;16.241737;,
   -0.000010;12.139067;24.906668;,
   -0.000009;12.139067;16.241737;,
   -6.874960;12.139061;24.906668;,
   -0.000010;12.139067;24.906668;,
   -6.874960;12.139061;24.906668;,
   -0.000009;9.575159;24.895178;,
   -0.000009;9.575159;24.895178;,
   -6.874960;12.139061;24.906668;,
   -6.874960;9.601734;24.906668;,
   -6.812180;7.926602;7.576515;,
   -6.874960;12.139057;16.381708;,
   -6.868197;15.657247;7.576516;,
   -6.874960;12.139057;16.381708;,
   -6.812180;7.926602;7.576515;,
   -6.866623;8.025697;16.391245;,
   -6.885422;5.994611;24.906668;,
   -6.874960;9.575153;33.560108;,
   -6.874960;9.601734;24.906668;,
   -6.874960;9.575153;33.560108;,
   -6.885422;5.994611;24.906668;,
   -6.894630;4.480784;33.560108;,
   -6.866623;8.025697;16.391245;,
   -6.874960;9.601734;24.906668;,
   -6.874960;12.139057;16.381708;,
   -6.874960;9.601734;24.906668;,
   -6.818436;5.994609;16.311680;,
   -6.885422;5.994611;24.906668;,
   -6.860182;4.436742;24.935970;,
   -6.894630;4.480784;33.560108;,
   -6.885422;5.994611;24.906668;,
   -6.874960;12.139061;24.906668;,
   -6.874960;12.139057;16.381708;,
   -6.874960;9.601734;24.906668;,
   -6.818436;5.994609;16.311680;,
   -6.874960;9.601734;24.906668;,
   -6.866623;8.025697;16.391245;,
   -6.874961;15.655311;16.386381;,
   -6.868197;15.657247;7.576516;,
   -6.874960;12.139057;16.381708;,
   -6.894630;4.480784;33.560108;,
   -6.860182;4.436742;24.935970;,
   -11.283049;4.473717;33.560108;,
   -6.885422;5.994611;24.906668;,
   -13.464795;5.994955;24.906668;,
   -6.860182;4.436742;24.935970;,
   -6.885422;5.994611;24.906668;,
   -6.818436;5.994609;16.311680;,
   -13.464795;5.994955;24.906668;,
   -13.464795;5.994954;16.241737;,
   -13.464795;5.994955;24.906668;,
   -6.818436;5.994609;16.311680;,
   -6.866623;8.025697;16.391245;,
   -13.464795;5.994954;16.241737;,
   -6.818436;5.994609;16.311680;,
   -6.866623;8.025697;16.391245;,
   -15.746287;8.016123;16.386381;,
   -13.464795;5.994954;16.241737;,
   -6.866623;8.025697;16.391245;,
   -6.812180;7.926602;7.576515;,
   -15.746287;8.016123;16.386381;,
   -0.000009;-0.591409;33.560104;,
   -6.894630;4.480784;33.560108;,
   -11.274923;-0.591404;33.560108;,
   -10.004230;17.874420;7.623289;,
   -6.868197;15.657247;7.576516;,
   -0.000010;15.687346;7.576516;,
   -6.868197;15.657247;7.576516;,
   -10.004230;17.874420;7.623289;,
   -10.053236;10.329613;7.623289;,
   -6.812180;7.926602;7.576515;,
   -6.868197;15.657247;7.576516;,
   -10.053236;10.329613;7.623289;,
   13.457100;-0.187773;16.241737;,
   12.011882;-6.212554;16.241737;,
   14.048709;-7.288121;16.386381;,
   14.048709;-7.288121;16.386381;,
   12.011882;-6.212554;16.241737;,
   9.131235;-12.933559;16.386381;,
   18.447960;10.316047;7.623289;,
   18.447960;10.316047;0.000000;,
   10.053218;10.329613;7.623289;,
   10.053218;10.329613;0.000000;,
   10.053218;10.329613;7.623289;,
   18.447960;10.316047;0.000000;,
   14.048709;-7.288121;7.623289;,
   14.048709;-7.288121;16.386381;,
   9.131236;-12.933559;7.623289;,
   9.131235;-12.933559;16.386381;,
   9.131236;-12.933559;7.623289;,
   14.048709;-7.288121;16.386381;,
   16.558531;-8.568348;7.623289;,
   16.558531;-8.568348;0.000000;,
   18.538347;-0.281848;7.623289;,
   18.538347;-0.281848;0.000000;,
   18.538347;-0.281848;7.623289;,
   16.558531;-8.568348;0.000000;,
   10.558408;-15.362835;7.623289;,
   -0.000008;-17.978651;7.623289;,
   10.558408;-15.362835;0.000000;,
   -0.000008;-17.978651;0.000000;,
   10.558408;-15.362835;0.000000;,
   -0.000008;-17.978651;7.623289;,
   18.447960;10.316047;7.623289;,
   18.538347;-0.281848;7.623289;,
   18.447960;10.316047;0.000000;,
   18.538347;-0.281848;0.000000;,
   18.447960;10.316047;0.000000;,
   18.538347;-0.281848;7.623289;,
   15.746269;8.016124;16.386381;,
   13.464778;5.994956;16.241737;,
   15.738963;0.036942;16.386381;,
   10.558408;-15.362835;0.000000;,
   16.558531;-8.568348;0.000000;,
   10.558408;-15.362835;7.623289;,
   16.558531;-8.568348;7.623289;,
   10.558408;-15.362835;7.623289;,
   16.558531;-8.568348;0.000000;,
   15.738963;0.036942;16.386381;,
   14.048709;-7.288121;16.386381;,
   15.738963;0.036942;7.623289;,
   14.048709;-7.288121;7.623289;,
   15.738963;0.036942;7.623289;,
   14.048709;-7.288121;16.386381;,
   9.131235;-12.933559;16.386381;,
   -0.000008;-15.161211;16.386381;,
   9.131236;-12.933559;7.623289;,
   -0.000008;-15.161211;7.623289;,
   9.131236;-12.933559;7.623289;,
   -0.000008;-15.161211;16.386381;,
   15.746269;8.016124;16.386381;,
   15.738963;0.036942;16.386381;,
   15.746269;8.016124;7.623289;,
   15.738963;0.036942;7.623289;,
   15.746269;8.016124;7.623289;,
   15.738963;0.036942;16.386381;,
   15.746269;8.016124;7.623289;,
   10.053218;10.329613;7.623289;,
   6.812162;7.926602;7.576515;,
   18.447960;10.316047;7.623289;,
   10.053218;10.329613;7.623289;,
   15.746269;8.016124;7.623289;,
   14.048709;-7.288121;7.623289;,
   9.131236;-12.933559;7.623289;,
   16.558531;-8.568348;7.623289;,
   10.558408;-15.362835;7.623289;,
   16.558531;-8.568348;7.623289;,
   9.131236;-12.933559;7.623289;,
   15.738963;0.036942;7.623289;,
   14.048709;-7.288121;7.623289;,
   18.538347;-0.281848;7.623289;,
   16.558531;-8.568348;7.623289;,
   18.538347;-0.281848;7.623289;,
   14.048709;-7.288121;7.623289;,
   9.131236;-12.933559;7.623289;,
   -0.000008;-15.161211;7.623289;,
   10.558408;-15.362835;7.623289;,
   -0.000008;-17.978651;7.623289;,
   10.558408;-15.362835;7.623289;,
   -0.000008;-15.161211;7.623289;,
   15.746269;8.016124;7.623289;,
   15.738963;0.036942;7.623289;,
   18.447960;10.316047;7.623289;,
   18.538347;-0.281848;7.623289;,
   18.447960;10.316047;7.623289;,
   15.738963;0.036942;7.623289;,
   13.464778;5.994956;16.241737;,
   13.457100;-0.187773;16.241737;,
   15.738963;0.036942;16.386381;,
   15.738963;0.036942;16.386381;,
   13.457100;-0.187773;16.241737;,
   14.048709;-7.288121;16.386381;,
   12.011882;-6.212554;16.241737;,
   7.807293;-10.855864;16.241737;,
   9.131235;-12.933559;16.386381;,
   9.131235;-12.933559;16.386381;,
   7.807293;-10.855864;16.241737;,
   -0.000008;-15.161211;16.386381;,
   7.807293;-10.855864;16.241737;,
   -0.000008;-12.716804;16.241737;,
   -0.000008;-15.161211;16.386381;,
   11.274906;-0.591403;33.560104;,
   -0.000009;-0.591409;33.560104;,
   10.064013;-5.639345;33.560104;,
   10.064013;-5.639345;33.560104;,
   -0.000009;-0.591409;33.560104;,
   6.541142;-9.529804;33.560104;,
   6.541142;-9.529804;33.560104;,
   -0.000009;-0.591409;33.560104;,
   -0.000008;-11.089018;33.560104;,
   10.064013;-5.639345;24.895178;,
   10.064013;-5.639345;33.560104;,
   6.541142;-9.529804;24.895178;,
   6.541142;-9.529804;33.560104;,
   6.541142;-9.529804;24.895178;,
   10.064013;-5.639345;33.560104;,
   11.283031;4.473718;33.560104;,
   6.894611;4.480785;33.560104;,
   11.274906;-0.591403;33.560104;,
   -0.000009;-0.591409;33.560104;,
   6.894611;4.480785;33.560104;,
   -0.000009;4.491874;33.560104;,
   11.274906;-0.591403;33.560104;,
   10.064013;-5.639345;33.560104;,
   11.274906;-0.591403;24.895178;,
   10.064013;-5.639345;24.895178;,
   11.274906;-0.591403;24.895178;,
   10.064013;-5.639345;33.560104;,
   6.541142;-9.529804;33.560104;,
   -0.000008;-11.089018;33.560104;,
   6.541142;-9.529804;24.895178;,
   -0.000008;-11.089018;24.895178;,
   6.541142;-9.529804;24.895178;,
   -0.000008;-11.089018;33.560104;,
   11.283031;4.473718;33.560104;,
   11.274906;-0.591403;33.560104;,
   11.283031;4.473717;24.895178;,
   11.274906;-0.591403;24.895178;,
   11.283031;4.473717;24.895178;,
   11.274906;-0.591403;33.560104;,
   0.665050;-2.249614;35.205784;,
   2.404255;-2.249614;35.205784;,
   0.665050;1.422106;35.205784;,
   2.404255;1.422106;35.205784;,
   0.665050;1.422106;35.205784;,
   2.404255;-2.249614;35.205784;,
   0.665050;-2.249614;33.384129;,
   2.404255;-2.249614;33.384129;,
   0.665050;-2.249614;35.205784;,
   2.404255;-2.249614;35.205784;,
   0.665050;-2.249614;35.205784;,
   2.404255;-2.249614;33.384129;,
   0.665050;1.422106;33.384129;,
   0.665050;-2.249614;33.384129;,
   0.665050;1.422106;35.205784;,
   0.665050;-2.249614;35.205784;,
   0.665050;1.422106;35.205784;,
   0.665050;-2.249614;33.384129;,
   2.404255;1.422106;33.384129;,
   0.665050;1.422106;33.384129;,
   2.404255;1.422106;35.205784;,
   0.665050;1.422106;35.205784;,
   2.404255;1.422106;35.205784;,
   0.665050;1.422106;33.384129;,
   2.404255;-2.249614;33.384129;,
   2.404255;1.422106;33.384129;,
   2.404255;-2.249614;35.205784;,
   2.404255;1.422106;35.205784;,
   2.404255;-2.249614;35.205784;,
   2.404255;1.422106;33.384129;,
   13.457100;-0.187773;24.906668;,
   11.274906;-0.591403;24.895178;,
   12.011882;-6.212554;24.906668;,
   10.064013;-5.639345;24.895178;,
   6.541142;-9.529804;24.895178;,
   7.807292;-10.855864;24.906668;,
   7.807292;-10.855864;24.906668;,
   6.541142;-9.529804;24.895178;,
   -0.000008;-12.716804;24.906668;,
   12.011882;-6.212554;16.241737;,
   12.011882;-6.212554;24.906668;,
   7.807293;-10.855864;16.241737;,
   7.807292;-10.855864;24.906668;,
   7.807293;-10.855864;16.241737;,
   12.011882;-6.212554;24.906668;,
   13.464778;5.994956;24.906668;,
   11.283031;4.473717;24.895178;,
   13.457100;-0.187773;24.906668;,
   13.457100;-0.187773;24.906668;,
   12.011882;-6.212554;24.906668;,
   13.457100;-0.187773;16.241737;,
   12.011882;-6.212554;16.241737;,
   13.457100;-0.187773;16.241737;,
   12.011882;-6.212554;24.906668;,
   7.807292;-10.855864;24.906668;,
   -0.000008;-12.716804;24.906668;,
   7.807293;-10.855864;16.241737;,
   -0.000008;-12.716804;16.241737;,
   7.807293;-10.855864;16.241737;,
   -0.000008;-12.716804;24.906668;,
   13.464778;5.994956;24.906668;,
   13.457100;-0.187773;24.906668;,
   13.464778;5.994956;16.241737;,
   13.457100;-0.187773;16.241737;,
   13.464778;5.994956;16.241737;,
   13.457100;-0.187773;24.906668;,
   11.283031;4.473717;24.895178;,
   11.274906;-0.591403;24.895178;,
   13.457100;-0.187773;24.906668;,
   11.274906;-0.591403;24.895178;,
   10.064013;-5.639345;24.895178;,
   12.011882;-6.212554;24.906668;,
   12.011882;-6.212554;24.906668;,
   10.064013;-5.639345;24.895178;,
   7.807292;-10.855864;24.906668;,
   6.541142;-9.529804;24.895178;,
   -0.000008;-11.089018;24.895178;,
   -0.000008;-12.716804;24.906668;,
   10.004210;17.874422;7.623289;,
   10.004210;17.874422;0.000000;,
   -0.000009;17.978647;7.623289;,
   -0.000009;17.978647;0.000003;,
   -0.000009;17.978647;7.623289;,
   10.004210;17.874422;0.000000;,
   10.004210;17.874422;7.623289;,
   10.053218;10.329613;7.623289;,
   10.004210;17.874422;0.000000;,
   10.053218;10.329613;0.000000;,
   10.004210;17.874422;0.000000;,
   10.053218;10.329613;7.623289;,
   -0.000010;15.687346;7.576516;,
   10.004210;17.874422;7.623289;,
   -0.000009;17.978647;7.623289;,
   15.746269;8.016124;16.386381;,
   15.746269;8.016124;7.623289;,
   6.812162;7.926602;7.576515;,
   11.283031;4.473718;33.560104;,
   11.283031;4.473717;24.895178;,
   6.860164;4.436743;24.935970;,
   13.464778;5.994956;24.906668;,
   6.860164;4.436743;24.935970;,
   11.283031;4.473717;24.895178;,
   6.874941;15.655310;16.386381;,
   6.868178;15.657245;7.576516;,
   -0.000010;15.687346;7.576516;,
   -0.000010;15.687346;7.576516;,
   -0.000010;15.655317;16.386381;,
   6.874941;15.655310;16.386381;,
   6.874941;12.139058;16.381708;,
   -0.000010;15.655317;16.386381;,
   -0.000009;12.139067;16.241737;,
   6.874941;15.655310;16.386381;,
   -0.000010;15.655317;16.386381;,
   6.874941;12.139058;16.381708;,
   6.874941;9.575154;33.560104;,
   6.874941;9.601734;24.906668;,
   -0.000009;9.575159;24.895178;,
   -0.000009;9.575159;24.895178;,
   -0.000009;9.575159;33.560104;,
   6.874941;9.575154;33.560104;,
   6.874941;9.575154;33.560104;,
   -0.000009;9.575159;33.560104;,
   -0.000009;4.491874;33.560104;,
   -0.000009;4.491874;33.560104;,
   6.894611;4.480785;33.560104;,
   6.874941;9.575154;33.560104;,
   6.874941;12.139061;24.906668;,
   6.874941;12.139058;16.381708;,
   -0.000009;12.139067;16.241737;,
   -0.000009;12.139067;16.241737;,
   -0.000010;12.139067;24.906668;,
   6.874941;12.139061;24.906668;,
   6.874941;12.139061;24.906668;,
   -0.000010;12.139067;24.906668;,
   -0.000009;9.575159;24.895178;,
   6.874941;12.139061;24.906668;,
   -0.000009;9.575159;24.895178;,
   6.874941;9.601734;24.906668;,
   6.874941;12.139058;16.381708;,
   6.812162;7.926602;7.576515;,
   6.868178;15.657245;7.576516;,
   6.812162;7.926602;7.576515;,
   6.874941;12.139058;16.381708;,
   6.866604;8.025698;16.391245;,
   6.874941;9.575154;33.560104;,
   6.885404;5.994611;24.906668;,
   6.874941;9.601734;24.906668;,
   6.885404;5.994611;24.906668;,
   6.874941;9.575154;33.560104;,
   6.894611;4.480785;33.560104;,
   6.874941;9.601734;24.906668;,
   6.866604;8.025698;16.391245;,
   6.874941;12.139058;16.381708;,
   6.818418;5.994609;16.311680;,
   6.874941;9.601734;24.906668;,
   6.885404;5.994611;24.906668;,
   6.894611;4.480785;33.560104;,
   6.860164;4.436743;24.935970;,
   6.885404;5.994611;24.906668;,
   6.874941;12.139058;16.381708;,
   6.874941;12.139061;24.906668;,
   6.874941;9.601734;24.906668;,
   6.874941;9.601734;24.906668;,
   6.818418;5.994609;16.311680;,
   6.866604;8.025698;16.391245;,
   6.868178;15.657245;7.576516;,
   6.874941;15.655310;16.386381;,
   6.874941;12.139058;16.381708;,
   6.860164;4.436743;24.935970;,
   6.894611;4.480785;33.560104;,
   11.283031;4.473718;33.560104;,
   13.464778;5.994956;24.906668;,
   6.885404;5.994611;24.906668;,
   6.860164;4.436743;24.935970;,
   6.818418;5.994609;16.311680;,
   6.885404;5.994611;24.906668;,
   13.464778;5.994956;24.906668;,
   13.464778;5.994956;24.906668;,
   13.464778;5.994956;16.241737;,
   6.818418;5.994609;16.311680;,
   13.464778;5.994956;16.241737;,
   6.866604;8.025698;16.391245;,
   6.818418;5.994609;16.311680;,
   15.746269;8.016124;16.386381;,
   6.866604;8.025698;16.391245;,
   13.464778;5.994956;16.241737;,
   6.812162;7.926602;7.576515;,
   6.866604;8.025698;16.391245;,
   15.746269;8.016124;16.386381;,
   6.894611;4.480785;33.560104;,
   -0.000009;-0.591409;33.560104;,
   11.274906;-0.591403;33.560104;,
   6.868178;15.657245;7.576516;,
   10.004210;17.874422;7.623289;,
   -0.000010;15.687346;7.576516;,
   10.004210;17.874422;7.623289;,
   6.868178;15.657245;7.576516;,
   10.053218;10.329613;7.623289;,
   6.868178;15.657245;7.576516;,
   6.812162;7.926602;7.576515;,
   10.053218;10.329613;7.623289;;
   232;
   3;0,1,2;,
   3;3,4,5;,
   3;6,7,8;,
   3;9,10,11;,
   3;12,13,14;,
   3;15,16,17;,
   3;18,19,20;,
   3;21,22,23;,
   3;24,25,26;,
   3;27,28,29;,
   3;30,31,32;,
   3;33,34,35;,
   3;36,37,38;,
   3;39,40,41;,
   3;42,43,44;,
   3;45,46,47;,
   3;48,49,50;,
   3;51,52,53;,
   3;54,55,56;,
   3;57,58,59;,
   3;60,61,62;,
   3;63,64,65;,
   3;66,67,68;,
   3;69,70,71;,
   3;72,73,74;,
   3;75,76,77;,
   3;78,79,80;,
   3;81,82,83;,
   3;84,85,86;,
   3;87,88,89;,
   3;90,91,92;,
   3;93,94,95;,
   3;96,97,98;,
   3;99,100,101;,
   3;102,103,104;,
   3;105,106,107;,
   3;108,109,110;,
   3;111,112,113;,
   3;114,115,116;,
   3;117,118,119;,
   3;120,121,122;,
   3;123,124,125;,
   3;126,127,128;,
   3;129,130,131;,
   3;132,133,134;,
   3;135,136,137;,
   3;138,139,140;,
   3;141,142,143;,
   3;144,145,146;,
   3;147,148,149;,
   3;150,151,152;,
   3;153,154,155;,
   3;156,157,158;,
   3;159,160,161;,
   3;162,163,164;,
   3;165,166,167;,
   3;168,169,170;,
   3;171,172,173;,
   3;174,175,176;,
   3;177,178,179;,
   3;180,181,182;,
   3;183,184,185;,
   3;186,187,188;,
   3;189,190,191;,
   3;192,193,194;,
   3;195,196,197;,
   3;198,199,200;,
   3;201,202,203;,
   3;204,205,206;,
   3;207,208,209;,
   3;210,211,212;,
   3;213,214,215;,
   3;216,217,218;,
   3;219,220,221;,
   3;222,223,224;,
   3;225,226,227;,
   3;228,229,230;,
   3;231,232,233;,
   3;234,235,236;,
   3;237,238,239;,
   3;240,241,242;,
   3;243,244,245;,
   3;246,247,248;,
   3;249,250,251;,
   3;252,253,254;,
   3;255,256,257;,
   3;258,259,260;,
   3;261,262,263;,
   3;264,265,266;,
   3;267,268,269;,
   3;270,271,272;,
   3;273,274,275;,
   3;276,277,278;,
   3;279,280,281;,
   3;282,283,284;,
   3;285,286,287;,
   3;288,289,290;,
   3;291,292,293;,
   3;294,295,296;,
   3;297,298,299;,
   3;300,301,302;,
   3;303,304,305;,
   3;306,307,308;,
   3;309,310,311;,
   3;312,313,314;,
   3;315,316,317;,
   3;318,319,320;,
   3;321,322,323;,
   3;324,325,326;,
   3;327,328,329;,
   3;330,331,332;,
   3;333,334,335;,
   3;336,337,338;,
   3;339,340,341;,
   3;342,343,344;,
   3;345,346,347;,
   3;348,349,350;,
   3;351,352,353;,
   3;354,355,356;,
   3;357,358,359;,
   3;360,361,362;,
   3;363,364,365;,
   3;366,367,368;,
   3;369,370,371;,
   3;372,373,374;,
   3;375,376,377;,
   3;378,379,380;,
   3;381,382,383;,
   3;384,385,386;,
   3;387,388,389;,
   3;390,391,392;,
   3;393,394,395;,
   3;396,397,398;,
   3;399,400,401;,
   3;402,403,404;,
   3;405,406,407;,
   3;408,409,410;,
   3;411,412,413;,
   3;414,415,416;,
   3;417,418,419;,
   3;420,421,422;,
   3;423,424,425;,
   3;426,427,428;,
   3;429,430,431;,
   3;432,433,434;,
   3;435,436,437;,
   3;438,439,440;,
   3;441,442,443;,
   3;444,445,446;,
   3;447,448,449;,
   3;450,451,452;,
   3;453,454,455;,
   3;456,457,458;,
   3;459,460,461;,
   3;462,463,464;,
   3;465,466,467;,
   3;468,469,470;,
   3;471,472,473;,
   3;474,475,476;,
   3;477,478,479;,
   3;480,481,482;,
   3;483,484,485;,
   3;486,487,488;,
   3;489,490,491;,
   3;492,493,494;,
   3;495,496,497;,
   3;498,499,500;,
   3;501,502,503;,
   3;504,505,506;,
   3;507,508,509;,
   3;510,511,512;,
   3;513,514,515;,
   3;516,517,518;,
   3;519,520,521;,
   3;522,523,524;,
   3;525,526,527;,
   3;528,529,530;,
   3;531,532,533;,
   3;534,535,536;,
   3;537,538,539;,
   3;540,541,542;,
   3;543,544,545;,
   3;546,547,548;,
   3;549,550,551;,
   3;552,553,554;,
   3;555,556,557;,
   3;558,559,560;,
   3;561,562,563;,
   3;564,565,566;,
   3;567,568,569;,
   3;570,571,572;,
   3;573,574,575;,
   3;576,577,578;,
   3;579,580,581;,
   3;582,583,584;,
   3;585,586,587;,
   3;588,589,590;,
   3;591,592,593;,
   3;594,595,596;,
   3;597,598,599;,
   3;600,601,602;,
   3;603,604,605;,
   3;606,607,608;,
   3;609,610,611;,
   3;612,613,614;,
   3;615,616,617;,
   3;618,619,620;,
   3;621,622,623;,
   3;624,625,626;,
   3;627,628,629;,
   3;630,631,632;,
   3;633,634,635;,
   3;636,637,638;,
   3;639,640,641;,
   3;642,643,644;,
   3;645,646,647;,
   3;648,649,650;,
   3;651,652,653;,
   3;654,655,656;,
   3;657,658,659;,
   3;660,661,662;,
   3;663,664,665;,
   3;666,667,668;,
   3;669,670,671;,
   3;672,673,674;,
   3;675,676,677;,
   3;678,679,680;,
   3;681,682,683;,
   3;684,685,686;,
   3;687,688,689;,
   3;690,691,692;,
   3;693,694,695;;

   MeshNormals  {
    696;
    0.055408;0.028550;0.998056;,
    0.063917;0.008472;0.997919;,
    0.055863;0.028815;0.998023;,
    0.055408;0.028550;0.998056;,
    0.055863;0.028815;0.998023;,
    0.030541;0.050497;0.998257;,
    -0.001616;0.999999;0.000000;,
    -0.001616;0.999999;0.000000;,
    -0.001616;0.999999;0.000000;,
    -0.001616;0.999999;0.000000;,
    -0.001616;0.999999;0.000000;,
    -0.001616;0.999999;0.000000;,
    -0.890804;-0.454388;0.000000;,
    -0.890804;-0.454388;0.000000;,
    -0.519910;-0.854221;0.000000;,
    -0.519910;-0.854221;0.000000;,
    -0.519910;-0.854221;0.000000;,
    -0.890804;-0.454388;0.000000;,
    -0.887475;-0.460855;-0.000000;,
    -0.887475;-0.460855;0.000000;,
    -0.993622;-0.112758;-0.000000;,
    -0.993622;-0.112758;-0.000000;,
    -0.993622;-0.112758;-0.000000;,
    -0.887475;-0.460855;-0.000000;,
    -0.000000;-1.000000;0.000000;,
    -0.518530;-0.855060;0.000000;,
    -0.518530;-0.855060;0.000000;,
    -0.518530;-0.855060;0.000000;,
    -0.000000;-1.000000;0.000000;,
    -0.000000;-1.000000;0.000000;,
    -0.993622;-0.112758;-0.000000;,
    -0.999964;0.008528;0.000000;,
    -0.999964;0.008528;0.000000;,
    -0.999964;0.008528;0.000000;,
    -0.993622;-0.112758;-0.000000;,
    -0.993622;-0.112758;-0.000000;,
    0.030015;-0.034808;0.998943;,
    0.033870;-0.033252;0.998873;,
    0.063897;0.006426;0.997936;,
    -0.887475;-0.460855;-0.000000;,
    -0.518530;-0.855060;0.000000;,
    -0.518530;-0.855060;0.000000;,
    -0.518530;-0.855060;0.000000;,
    -0.887475;-0.460855;0.000000;,
    -0.887475;-0.460855;-0.000000;,
    -0.890804;-0.454388;0.000000;,
    -0.993526;-0.113602;0.000000;,
    -0.993526;-0.113602;0.000000;,
    -0.993526;-0.113602;0.000000;,
    -0.890804;-0.454388;0.000000;,
    -0.890804;-0.454388;0.000000;,
    0.000000;-1.000000;0.000000;,
    -0.519910;-0.854221;0.000000;,
    -0.519910;-0.854221;0.000000;,
    -0.519910;-0.854221;0.000000;,
    0.000000;-1.000000;0.000000;,
    0.000000;-1.000000;0.000000;,
    -0.993526;-0.113602;0.000000;,
    -1.000000;-0.000916;0.000000;,
    -1.000000;-0.000916;0.000000;,
    -1.000000;-0.000916;0.000000;,
    -0.993526;-0.113602;0.000000;,
    -0.993526;-0.113602;0.000000;,
    0.009130;-0.005633;0.999942;,
    0.000428;-0.001054;0.999999;,
    0.010709;-0.005019;0.999930;,
    0.009130;-0.005633;0.999942;,
    0.000000;0.000000;1.000000;,
    0.000428;-0.001054;0.999999;,
    0.000000;0.000000;1.000000;,
    0.000000;0.000000;1.000000;,
    0.000000;0.000000;1.000000;,
    0.000000;0.000000;1.000000;,
    0.000000;0.000000;1.000000;,
    0.000000;0.000000;1.000000;,
    0.000000;0.000000;1.000000;,
    0.000000;0.000000;1.000000;,
    0.000000;0.000000;1.000000;,
    0.000000;0.000000;1.000000;,
    0.000000;0.000000;1.000000;,
    0.000000;0.000000;1.000000;,
    0.000000;0.000000;1.000000;,
    0.000000;0.000000;1.000000;,
    0.000000;0.000000;1.000000;,
    0.000000;0.000000;1.000000;,
    0.000000;0.000000;1.000000;,
    0.000000;0.000000;1.000000;,
    0.000000;0.000000;1.000000;,
    0.000428;-0.001054;0.999999;,
    0.000000;0.000000;1.000000;,
    0.000000;0.000000;1.000000;,
    0.000000;0.000000;1.000000;,
    0.000000;0.000000;1.000000;,
    0.063917;0.008472;0.997919;,
    0.030015;-0.034808;0.998943;,
    0.063897;0.006426;0.997936;,
    0.063917;0.008472;0.997919;,
    0.063897;0.006426;0.997936;,
    0.055863;0.028815;0.998023;,
    0.029552;0.050562;0.998284;,
    0.055408;0.028550;0.998056;,
    0.030541;0.050497;0.998257;,
    0.029552;0.050562;0.998284;,
    0.030541;0.050497;0.998257;,
    -0.000000;0.059283;0.998241;,
    -0.000000;0.059070;0.998254;,
    0.029552;0.050562;0.998284;,
    -0.000000;0.059283;0.998241;,
    0.000000;-0.000000;1.000000;,
    0.000000;-0.000000;1.000000;,
    0.000000;0.000000;1.000000;,
    0.000000;-0.000000;1.000000;,
    0.000000;0.000000;1.000000;,
    0.000000;0.000000;1.000000;,
    0.000000;-0.000000;1.000000;,
    0.000000;0.000000;1.000000;,
    0.000000;0.000000;1.000000;,
    -0.884375;-0.466776;0.000000;,
    -0.884375;-0.466776;0.000000;,
    -0.509387;-0.860537;0.000000;,
    -0.509387;-0.860537;0.000000;,
    -0.509387;-0.860537;0.000000;,
    -0.884375;-0.466776;0.000000;,
    0.000000;-0.000000;1.000000;,
    0.000000;0.000000;1.000000;,
    0.000000;-0.000000;1.000000;,
    0.000000;-0.000000;1.000000;,
    0.000000;-0.000000;1.000000;,
    0.000000;-0.000000;1.000000;,
    -0.884375;-0.466776;0.000000;,
    -0.992985;-0.118240;0.000000;,
    -0.992985;-0.118240;0.000000;,
    -0.992985;-0.118240;0.000000;,
    -0.884375;-0.466776;0.000000;,
    -0.884375;-0.466776;0.000000;,
    0.000000;-1.000000;0.000000;,
    -0.509387;-0.860537;0.000000;,
    -0.509387;-0.860537;0.000000;,
    -0.509387;-0.860537;0.000000;,
    0.000000;-1.000000;0.000000;,
    0.000000;-1.000000;0.000000;,
    -0.992985;-0.118240;0.000000;,
    -0.999999;-0.001604;0.000000;,
    -0.999999;-0.001604;0.000000;,
    -0.999999;-0.001604;0.000000;,
    -0.992985;-0.118240;0.000000;,
    -0.992985;-0.118240;0.000000;,
    0.000000;0.000000;1.000000;,
    0.000000;0.000000;1.000000;,
    0.000000;0.000000;1.000000;,
    0.000000;0.000000;1.000000;,
    0.000000;0.000000;1.000000;,
    0.000000;0.000000;1.000000;,
    0.000000;-1.000000;0.000000;,
    0.000000;-1.000000;0.000000;,
    0.000000;-1.000000;0.000000;,
    0.000000;-1.000000;0.000000;,
    0.000000;-1.000000;0.000000;,
    0.000000;-1.000000;0.000000;,
    1.000000;0.000000;0.000000;,
    1.000000;0.000000;0.000000;,
    1.000000;0.000000;0.000000;,
    1.000000;0.000000;0.000000;,
    1.000000;0.000000;0.000000;,
    1.000000;0.000000;0.000000;,
    -0.000000;1.000000;0.000000;,
    -0.000000;1.000000;0.000000;,
    -0.000000;1.000000;0.000000;,
    -0.000000;1.000000;0.000000;,
    -0.000000;1.000000;0.000000;,
    -0.000000;1.000000;0.000000;,
    -1.000000;-0.000000;0.000000;,
    -1.000000;-0.000000;0.000000;,
    -1.000000;-0.000000;0.000000;,
    -1.000000;-0.000000;0.000000;,
    -1.000000;-0.000000;0.000000;,
    -1.000000;-0.000000;0.000000;,
    0.005410;0.000782;0.999985;,
    0.005364;0.000529;0.999985;,
    0.005148;0.002551;0.999983;,
    0.002989;0.005811;0.999979;,
    0.005037;0.002928;0.999983;,
    0.003437;0.005383;0.999980;,
    0.002989;0.005811;0.999979;,
    0.003437;0.005383;0.999980;,
    -0.000000;0.007058;0.999975;,
    -0.884375;-0.466776;0.000000;,
    -0.884375;-0.466776;0.000000;,
    -0.509383;-0.860540;0.000000;,
    -0.509383;-0.860540;0.000000;,
    -0.509383;-0.860540;0.000000;,
    -0.884375;-0.466776;0.000000;,
    -0.002622;-0.011312;0.999933;,
    0.000968;-0.002275;0.999997;,
    0.005364;0.000529;0.999985;,
    -0.884375;-0.466776;0.000000;,
    -0.993006;-0.118060;0.000000;,
    -0.993006;-0.118060;0.000000;,
    -0.993006;-0.118060;0.000000;,
    -0.884375;-0.466776;0.000000;,
    -0.884375;-0.466776;0.000000;,
    0.000000;-1.000000;0.000000;,
    -0.509383;-0.860540;0.000000;,
    -0.509383;-0.860540;0.000000;,
    -0.509383;-0.860540;0.000000;,
    0.000000;-1.000000;0.000000;,
    0.000000;-1.000000;0.000000;,
    -0.993006;-0.118060;0.000000;,
    -0.999999;-0.001242;0.000000;,
    -0.999999;-0.001242;0.000000;,
    -0.999999;-0.001242;0.000000;,
    -0.993006;-0.118060;0.000000;,
    -0.993006;-0.118060;0.000000;,
    0.005410;0.000782;0.999985;,
    -0.002622;-0.011312;0.999933;,
    0.005364;0.000529;0.999985;,
    0.005037;0.002928;0.999983;,
    0.005410;0.000782;0.999985;,
    0.005148;0.002551;0.999983;,
    0.005037;0.002928;0.999983;,
    0.005148;0.002551;0.999983;,
    0.003437;0.005383;0.999980;,
    -0.000000;0.007058;0.999975;,
    0.002989;0.005811;0.999979;,
    -0.000000;0.007058;0.999975;,
    -0.010418;0.999946;0.000000;,
    -0.010418;0.999946;0.000000;,
    -0.000000;1.000000;0.000000;,
    -0.000000;1.000000;0.000000;,
    -0.000000;1.000000;0.000000;,
    -0.010418;0.999946;0.000000;,
    -0.999979;0.006495;0.000000;,
    -0.999979;0.006495;0.000000;,
    -0.999979;0.006495;0.000000;,
    -0.999979;0.006495;0.000000;,
    -0.999979;0.006495;0.000000;,
    -0.999979;0.006495;0.000000;,
    0.009047;-0.008243;0.999925;,
    0.000000;-0.020486;0.999790;,
    0.000000;-0.020409;0.999792;,
    0.010020;0.999950;-0.000000;,
    0.004521;0.999974;-0.005576;,
    0.004427;0.999974;-0.005671;,
    0.008359;0.999965;-0.000000;,
    0.001397;0.999993;-0.003571;,
    0.005387;0.999984;-0.001525;,
    -0.001357;0.013053;0.999914;,
    0.000968;-0.002275;0.999997;,
    -0.002622;-0.011312;0.999933;,
    -0.004382;0.999990;0.000216;,
    -0.001848;0.999996;0.002194;,
    0.000000;0.999999;0.001659;,
    0.000000;0.999993;0.003635;,
    0.000000;0.999999;0.001659;,
    -0.001848;0.999996;0.002194;,
    0.000000;-0.029137;0.999575;,
    0.006127;-0.013307;0.999893;,
    0.000000;-0.041101;0.999155;,
    0.000000;-0.029137;0.999575;,
    0.000000;-0.001329;0.999999;,
    0.006127;-0.013307;0.999893;,
    0.003871;0.999988;0.003072;,
    0.001652;0.999998;0.001312;,
    -0.000000;0.999998;0.001759;,
    -0.000000;1.000000;0.000000;,
    -0.000000;0.999998;0.001759;,
    0.001652;0.999998;0.001312;,
    0.000000;0.000000;1.000000;,
    0.000001;-0.000000;1.000000;,
    0.000000;-0.000000;1.000000;,
    0.000000;-0.000000;1.000000;,
    0.000000;-0.000000;1.000000;,
    0.000001;-0.000000;1.000000;,
    -0.000001;1.000000;-0.000000;,
    -0.000001;1.000000;-0.000000;,
    -0.000000;1.000000;-0.000000;,
    -0.000000;1.000000;-0.000000;,
    -0.000000;1.000000;-0.000000;,
    -0.000001;1.000000;-0.000000;,
    0.000000;-0.004481;0.999990;,
    0.001291;-0.001018;0.999999;,
    0.000000;-0.003472;0.999994;,
    0.000000;-0.003472;0.999994;,
    0.001291;-0.001018;0.999999;,
    0.001671;0.000000;0.999999;,
    -0.999974;-0.005794;-0.004358;,
    -0.999994;-0.002308;-0.002471;,
    -0.999981;-0.005493;-0.002963;,
    -0.999994;-0.002308;-0.002471;,
    -0.999974;-0.005794;-0.004358;,
    -0.999947;-0.010249;-0.000924;,
    -0.999989;-0.002617;-0.003802;,
    -0.999993;0.003620;-0.000289;,
    -0.999998;0.000399;-0.001843;,
    -0.999993;0.003620;-0.000289;,
    -0.999989;-0.002617;-0.003802;,
    -0.999998;0.001583;-0.000787;,
    -0.999947;-0.010249;-0.000924;,
    -0.999998;0.000399;-0.001843;,
    -0.999994;-0.002308;-0.002471;,
    -0.999998;0.000399;-0.001843;,
    -0.999857;-0.016913;0.000523;,
    -0.999989;-0.002617;-0.003802;,
    -0.999860;-0.016273;-0.003911;,
    -0.999998;0.001583;-0.000787;,
    -0.999989;-0.002617;-0.003802;,
    -1.000000;0.000000;0.000000;,
    -0.999994;-0.002308;-0.002471;,
    -0.999998;0.000399;-0.001843;,
    -0.999857;-0.016913;0.000523;,
    -0.999998;0.000399;-0.001843;,
    -0.999947;-0.010249;-0.000924;,
    -1.000000;0.000001;-0.000768;,
    -0.999981;-0.005493;-0.002963;,
    -0.999994;-0.002308;-0.002471;,
    -0.001610;0.999986;-0.005113;,
    0.005387;0.999984;-0.001525;,
    0.001397;0.999993;-0.003571;,
    0.000001;0.018806;0.999823;,
    0.000968;-0.002275;0.999997;,
    -0.001357;0.013053;0.999914;,
    0.000052;1.000000;0.000000;,
    0.000052;1.000000;0.000000;,
    0.000052;1.000000;0.000000;,
    0.000052;1.000000;-0.000000;,
    0.000052;1.000000;0.000000;,
    0.000052;1.000000;0.000000;,
    -0.008637;-0.045480;0.998928;,
    0.030015;-0.034808;0.998943;,
    -0.010517;-0.039391;0.999169;,
    -0.008637;-0.045480;0.998928;,
    0.033870;-0.033252;0.998873;,
    0.030015;-0.034808;0.998943;,
    -0.001072;0.999936;-0.011248;,
    0.004427;0.999974;-0.005671;,
    0.004521;0.999974;-0.005576;,
    0.000000;-0.000000;1.000000;,
    0.000000;-0.000000;1.000000;,
    0.000000;-0.000000;1.000000;,
    0.009047;-0.008243;0.999925;,
    0.006916;-0.011233;0.999913;,
    0.000000;-0.020486;0.999790;,
    0.006916;-0.011233;0.999913;,
    0.009047;-0.008243;0.999925;,
    0.009130;-0.005633;0.999942;,
    0.010709;-0.005019;0.999930;,
    0.006916;-0.011233;0.999913;,
    0.009130;-0.005633;0.999942;,
    -0.063917;0.008472;0.997919;,
    -0.055408;0.028550;0.998056;,
    -0.055863;0.028815;0.998023;,
    -0.055863;0.028815;0.998023;,
    -0.055408;0.028550;0.998056;,
    -0.030541;0.050497;0.998257;,
    0.001616;0.999999;0.000000;,
    0.001616;0.999999;0.000000;,
    0.001616;0.999999;0.000000;,
    0.001616;0.999999;0.000000;,
    0.001616;0.999999;0.000000;,
    0.001616;0.999999;0.000000;,
    0.890804;-0.454388;0.000000;,
    0.890804;-0.454388;0.000000;,
    0.519910;-0.854221;0.000000;,
    0.519910;-0.854221;0.000000;,
    0.519910;-0.854221;0.000000;,
    0.890804;-0.454388;0.000000;,
    0.887476;-0.460855;0.000000;,
    0.887476;-0.460855;0.000000;,
    0.993623;-0.112757;0.000000;,
    0.993623;-0.112757;0.000000;,
    0.993623;-0.112757;0.000000;,
    0.887476;-0.460855;0.000000;,
    0.518530;-0.855060;0.000000;,
    -0.000000;-1.000000;0.000000;,
    0.518530;-0.855060;0.000000;,
    -0.000000;-1.000000;0.000000;,
    0.518530;-0.855060;0.000000;,
    -0.000000;-1.000000;0.000000;,
    0.999964;0.008528;0.000000;,
    0.993623;-0.112757;0.000000;,
    0.999964;0.008528;0.000000;,
    0.993623;-0.112757;0.000000;,
    0.999964;0.008528;0.000000;,
    0.993623;-0.112757;0.000000;,
    -0.033870;-0.033252;0.998873;,
    -0.030015;-0.034808;0.998943;,
    -0.063897;0.006426;0.997936;,
    0.518530;-0.855060;0.000000;,
    0.887476;-0.460855;0.000000;,
    0.518530;-0.855060;0.000000;,
    0.887476;-0.460855;0.000000;,
    0.518530;-0.855060;0.000000;,
    0.887476;-0.460855;0.000000;,
    0.993526;-0.113602;0.000000;,
    0.890804;-0.454388;0.000000;,
    0.993526;-0.113602;0.000000;,
    0.890804;-0.454388;0.000000;,
    0.993526;-0.113602;0.000000;,
    0.890804;-0.454388;0.000000;,
    0.519910;-0.854221;0.000000;,
    0.000000;-1.000000;0.000000;,
    0.519910;-0.854221;0.000000;,
    0.000000;-1.000000;0.000000;,
    0.519910;-0.854221;0.000000;,
    0.000000;-1.000000;0.000000;,
    1.000000;-0.000916;0.000000;,
    0.993526;-0.113602;0.000000;,
    1.000000;-0.000916;0.000000;,
    0.993526;-0.113602;0.000000;,
    1.000000;-0.000916;0.000000;,
    0.993526;-0.113602;0.000000;,
    -0.000428;-0.001054;0.999999;,
    -0.009130;-0.005633;0.999942;,
    -0.010709;-0.005019;0.999930;,
    0.000000;0.000000;1.000000;,
    -0.009130;-0.005633;0.999942;,
    -0.000428;-0.001054;0.999999;,
    0.000000;0.000000;1.000000;,
    0.000000;0.000000;1.000000;,
    0.000000;0.000000;1.000000;,
    0.000000;0.000000;1.000000;,
    0.000000;0.000000;1.000000;,
    0.000000;0.000000;1.000000;,
    0.000000;0.000000;1.000000;,
    0.000000;0.000000;1.000000;,
    0.000000;0.000000;1.000000;,
    0.000000;0.000000;1.000000;,
    0.000000;0.000000;1.000000;,
    0.000000;0.000000;1.000000;,
    0.000000;0.000000;1.000000;,
    0.000000;0.000000;1.000000;,
    0.000000;0.000000;1.000000;,
    0.000000;0.000000;1.000000;,
    0.000000;0.000000;1.000000;,
    0.000000;0.000000;1.000000;,
    -0.000428;-0.001054;0.999999;,
    0.000000;0.000000;1.000000;,
    0.000000;0.000000;1.000000;,
    0.000000;0.000000;1.000000;,
    0.000000;0.000000;1.000000;,
    0.000000;0.000000;1.000000;,
    -0.030015;-0.034808;0.998943;,
    -0.063917;0.008472;0.997919;,
    -0.063897;0.006426;0.997936;,
    -0.063897;0.006426;0.997936;,
    -0.063917;0.008472;0.997919;,
    -0.055863;0.028815;0.998023;,
    -0.055408;0.028550;0.998056;,
    -0.029552;0.050562;0.998284;,
    -0.030541;0.050497;0.998257;,
    -0.030541;0.050497;0.998257;,
    -0.029552;0.050562;0.998284;,
    -0.000000;0.059283;0.998241;,
    -0.029552;0.050562;0.998284;,
    -0.000000;0.059070;0.998254;,
    -0.000000;0.059283;0.998241;,
    0.000000;0.000000;1.000000;,
    0.000000;-0.000000;1.000000;,
    0.000000;0.000000;1.000000;,
    0.000000;0.000000;1.000000;,
    0.000000;-0.000000;1.000000;,
    0.000000;0.000000;1.000000;,
    0.000000;0.000000;1.000000;,
    0.000000;-0.000000;1.000000;,
    0.000000;0.000000;1.000000;,
    0.884375;-0.466776;0.000000;,
    0.884375;-0.466776;0.000000;,
    0.509387;-0.860537;0.000000;,
    0.509387;-0.860537;0.000000;,
    0.509387;-0.860537;0.000000;,
    0.884375;-0.466776;0.000000;,
    0.000000;0.000000;1.000000;,
    0.000000;0.000000;1.000000;,
    0.000000;0.000000;1.000000;,
    0.000000;-0.000000;1.000000;,
    0.000000;0.000000;1.000000;,
    0.000000;-0.000000;1.000000;,
    0.992985;-0.118240;0.000000;,
    0.884375;-0.466776;0.000000;,
    0.992985;-0.118240;0.000000;,
    0.884375;-0.466776;0.000000;,
    0.992985;-0.118240;0.000000;,
    0.884375;-0.466776;0.000000;,
    0.509387;-0.860537;0.000000;,
    0.000000;-1.000000;0.000000;,
    0.509387;-0.860537;0.000000;,
    0.000000;-1.000000;0.000000;,
    0.509387;-0.860537;0.000000;,
    0.000000;-1.000000;0.000000;,
    0.999999;-0.001604;0.000000;,
    0.992985;-0.118240;0.000000;,
    0.999999;-0.001604;0.000000;,
    0.992985;-0.118240;0.000000;,
    0.999999;-0.001604;0.000000;,
    0.992985;-0.118240;0.000000;,
    0.000000;0.000000;1.000000;,
    0.000000;0.000000;1.000000;,
    0.000000;0.000000;1.000000;,
    0.000000;0.000000;1.000000;,
    0.000000;0.000000;1.000000;,
    0.000000;0.000000;1.000000;,
    0.000000;-1.000000;0.000000;,
    0.000000;-1.000000;0.000000;,
    0.000000;-1.000000;0.000000;,
    0.000000;-1.000000;0.000000;,
    0.000000;-1.000000;0.000000;,
    0.000000;-1.000000;0.000000;,
    -1.000000;-0.000000;0.000000;,
    -1.000000;-0.000000;0.000000;,
    -1.000000;-0.000000;0.000000;,
    -1.000000;-0.000000;0.000000;,
    -1.000000;-0.000000;0.000000;,
    -1.000000;-0.000000;0.000000;,
    0.000000;1.000000;0.000000;,
    0.000000;1.000000;0.000000;,
    0.000000;1.000000;0.000000;,
    0.000000;1.000000;0.000000;,
    0.000000;1.000000;0.000000;,
    0.000000;1.000000;0.000000;,
    1.000000;0.000000;0.000000;,
    1.000000;0.000000;0.000000;,
    1.000000;0.000000;0.000000;,
    1.000000;0.000000;0.000000;,
    1.000000;0.000000;0.000000;,
    1.000000;0.000000;0.000000;,
    -0.005364;0.000529;0.999985;,
    -0.005410;0.000782;0.999985;,
    -0.005148;0.002551;0.999983;,
    -0.005037;0.002928;0.999983;,
    -0.002989;0.005811;0.999979;,
    -0.003437;0.005383;0.999980;,
    -0.003437;0.005383;0.999980;,
    -0.002989;0.005811;0.999979;,
    -0.000000;0.007058;0.999975;,
    0.884375;-0.466776;0.000000;,
    0.884375;-0.466776;0.000000;,
    0.509383;-0.860540;0.000000;,
    0.509383;-0.860540;0.000000;,
    0.509383;-0.860540;0.000000;,
    0.884375;-0.466776;0.000000;,
    -0.000968;-0.002275;0.999997;,
    0.002622;-0.011312;0.999933;,
    -0.005364;0.000529;0.999985;,
    0.993006;-0.118060;0.000000;,
    0.884375;-0.466776;0.000000;,
    0.993006;-0.118060;0.000000;,
    0.884375;-0.466776;0.000000;,
    0.993006;-0.118060;0.000000;,
    0.884375;-0.466776;0.000000;,
    0.509383;-0.860540;0.000000;,
    0.000000;-1.000000;0.000000;,
    0.509383;-0.860540;0.000000;,
    0.000000;-1.000000;0.000000;,
    0.509383;-0.860540;0.000000;,
    0.000000;-1.000000;0.000000;,
    0.999999;-0.001242;0.000000;,
    0.993006;-0.118060;0.000000;,
    0.999999;-0.001242;0.000000;,
    0.993006;-0.118060;0.000000;,
    0.999999;-0.001242;0.000000;,
    0.993006;-0.118060;0.000000;,
    0.002622;-0.011312;0.999933;,
    -0.005410;0.000782;0.999985;,
    -0.005364;0.000529;0.999985;,
    -0.005410;0.000782;0.999985;,
    -0.005037;0.002928;0.999983;,
    -0.005148;0.002551;0.999983;,
    -0.005148;0.002551;0.999983;,
    -0.005037;0.002928;0.999983;,
    -0.003437;0.005383;0.999980;,
    -0.002989;0.005811;0.999979;,
    -0.000000;0.007058;0.999975;,
    -0.000000;0.007058;0.999975;,
    0.010418;0.999946;0.000000;,
    0.010418;0.999946;-0.000000;,
    -0.000000;1.000000;0.000000;,
    -0.000000;1.000000;0.000000;,
    -0.000000;1.000000;0.000000;,
    0.010418;0.999946;-0.000000;,
    0.999979;0.006495;0.000000;,
    0.999979;0.006495;0.000000;,
    0.999979;0.006495;0.000000;,
    0.999979;0.006495;0.000000;,
    0.999979;0.006495;0.000000;,
    0.999979;0.006495;0.000000;,
    0.000000;-0.020486;0.999790;,
    -0.009047;-0.008243;0.999925;,
    0.000000;-0.020409;0.999792;,
    -0.004521;0.999974;-0.005576;,
    -0.010020;0.999950;0.000000;,
    -0.004428;0.999974;-0.005671;,
    -0.001397;0.999993;-0.003571;,
    -0.008359;0.999965;-0.000000;,
    -0.005387;0.999984;-0.001525;,
    -0.000968;-0.002275;0.999997;,
    0.001357;0.013053;0.999914;,
    0.002622;-0.011312;0.999933;,
    0.001848;0.999996;0.002194;,
    0.004383;0.999990;0.000216;,
    0.000000;0.999999;0.001659;,
    0.000000;0.999999;0.001659;,
    0.000000;0.999993;0.003635;,
    0.001848;0.999996;0.002194;,
    -0.006127;-0.013307;0.999893;,
    0.000000;-0.029137;0.999575;,
    0.000000;-0.041101;0.999155;,
    -0.000000;-0.001329;0.999999;,
    0.000000;-0.029137;0.999575;,
    -0.006127;-0.013307;0.999893;,
    -0.001652;0.999998;0.001312;,
    -0.003871;0.999988;0.003072;,
    -0.000000;0.999998;0.001759;,
    -0.000000;0.999998;0.001759;,
    -0.000000;1.000000;0.000000;,
    -0.001652;0.999998;0.001312;,
    0.000000;0.000000;1.000000;,
    0.000000;0.000000;1.000000;,
    0.000000;-0.000000;1.000000;,
    0.000000;-0.000000;1.000000;,
    0.000000;0.000000;1.000000;,
    0.000000;0.000000;1.000000;,
    0.000001;1.000000;-0.000000;,
    0.000001;1.000000;-0.000000;,
    -0.000000;1.000000;-0.000000;,
    -0.000000;1.000000;-0.000000;,
    -0.000000;1.000000;-0.000000;,
    0.000001;1.000000;-0.000000;,
    -0.001291;-0.001018;0.999999;,
    0.000000;-0.004481;0.999990;,
    0.000000;-0.003472;0.999994;,
    -0.001291;-0.001018;0.999999;,
    0.000000;-0.003472;0.999994;,
    -0.001671;0.000000;0.999999;,
    0.999994;-0.002308;-0.002471;,
    0.999974;-0.005794;-0.004358;,
    0.999981;-0.005493;-0.002963;,
    0.999974;-0.005794;-0.004358;,
    0.999994;-0.002308;-0.002471;,
    0.999947;-0.010249;-0.000924;,
    0.999993;0.003620;-0.000289;,
    0.999989;-0.002617;-0.003802;,
    0.999998;0.000399;-0.001843;,
    0.999989;-0.002617;-0.003802;,
    0.999993;0.003620;-0.000289;,
    0.999998;0.001583;-0.000787;,
    0.999998;0.000399;-0.001843;,
    0.999947;-0.010249;-0.000924;,
    0.999994;-0.002308;-0.002471;,
    0.999857;-0.016913;0.000523;,
    0.999998;0.000399;-0.001843;,
    0.999989;-0.002617;-0.003802;,
    0.999998;0.001583;-0.000787;,
    0.999860;-0.016273;-0.003911;,
    0.999989;-0.002617;-0.003802;,
    0.999994;-0.002308;-0.002471;,
    1.000000;0.000000;0.000000;,
    0.999998;0.000399;-0.001843;,
    0.999998;0.000399;-0.001843;,
    0.999857;-0.016913;0.000523;,
    0.999947;-0.010249;-0.000924;,
    0.999981;-0.005493;-0.002963;,
    1.000000;0.000001;-0.000768;,
    0.999994;-0.002308;-0.002471;,
    -0.005387;0.999984;-0.001525;,
    0.001610;0.999986;-0.005113;,
    -0.001397;0.999993;-0.003571;,
    -0.000968;-0.002275;0.999997;,
    -0.000001;0.018806;0.999823;,
    0.001357;0.013053;0.999914;,
    -0.000052;1.000000;0.000000;,
    -0.000052;1.000000;0.000000;,
    -0.000052;1.000000;0.000000;,
    -0.000052;1.000000;0.000000;,
    -0.000052;1.000000;-0.000000;,
    -0.000052;1.000000;0.000000;,
    -0.030015;-0.034808;0.998943;,
    0.008637;-0.045480;0.998928;,
    0.010517;-0.039391;0.999169;,
    -0.033870;-0.033252;0.998873;,
    0.008637;-0.045480;0.998928;,
    -0.030015;-0.034808;0.998943;,
    -0.004428;0.999974;-0.005671;,
    0.001072;0.999936;-0.011248;,
    -0.004521;0.999974;-0.005576;,
    0.000000;0.000000;1.000000;,
    0.000000;-0.000000;1.000000;,
    0.000000;0.000000;1.000000;,
    -0.006916;-0.011233;0.999913;,
    -0.009047;-0.008243;0.999925;,
    0.000000;-0.020486;0.999790;,
    -0.009047;-0.008243;0.999925;,
    -0.006916;-0.011233;0.999913;,
    -0.009130;-0.005633;0.999942;,
    -0.006916;-0.011233;0.999913;,
    -0.010709;-0.005019;0.999930;,
    -0.009130;-0.005633;0.999942;;
    232;
    3;0,1,2;,
    3;3,4,5;,
    3;6,7,8;,
    3;9,10,11;,
    3;12,13,14;,
    3;15,16,17;,
    3;18,19,20;,
    3;21,22,23;,
    3;24,25,26;,
    3;27,28,29;,
    3;30,31,32;,
    3;33,34,35;,
    3;36,37,38;,
    3;39,40,41;,
    3;42,43,44;,
    3;45,46,47;,
    3;48,49,50;,
    3;51,52,53;,
    3;54,55,56;,
    3;57,58,59;,
    3;60,61,62;,
    3;63,64,65;,
    3;66,67,68;,
    3;69,70,71;,
    3;72,73,74;,
    3;75,76,77;,
    3;78,79,80;,
    3;81,82,83;,
    3;84,85,86;,
    3;87,88,89;,
    3;90,91,92;,
    3;93,94,95;,
    3;96,97,98;,
    3;99,100,101;,
    3;102,103,104;,
    3;105,106,107;,
    3;108,109,110;,
    3;111,112,113;,
    3;114,115,116;,
    3;117,118,119;,
    3;120,121,122;,
    3;123,124,125;,
    3;126,127,128;,
    3;129,130,131;,
    3;132,133,134;,
    3;135,136,137;,
    3;138,139,140;,
    3;141,142,143;,
    3;144,145,146;,
    3;147,148,149;,
    3;150,151,152;,
    3;153,154,155;,
    3;156,157,158;,
    3;159,160,161;,
    3;162,163,164;,
    3;165,166,167;,
    3;168,169,170;,
    3;171,172,173;,
    3;174,175,176;,
    3;177,178,179;,
    3;180,181,182;,
    3;183,184,185;,
    3;186,187,188;,
    3;189,190,191;,
    3;192,193,194;,
    3;195,196,197;,
    3;198,199,200;,
    3;201,202,203;,
    3;204,205,206;,
    3;207,208,209;,
    3;210,211,212;,
    3;213,214,215;,
    3;216,217,218;,
    3;219,220,221;,
    3;222,223,224;,
    3;225,226,227;,
    3;228,229,230;,
    3;231,232,233;,
    3;234,235,236;,
    3;237,238,239;,
    3;240,241,242;,
    3;243,244,245;,
    3;246,247,248;,
    3;249,250,251;,
    3;252,253,254;,
    3;255,256,257;,
    3;258,259,260;,
    3;261,262,263;,
    3;264,265,266;,
    3;267,268,269;,
    3;270,271,272;,
    3;273,274,275;,
    3;276,277,278;,
    3;279,280,281;,
    3;282,283,284;,
    3;285,286,287;,
    3;288,289,290;,
    3;291,292,293;,
    3;294,295,296;,
    3;297,298,299;,
    3;300,301,302;,
    3;303,304,305;,
    3;306,307,308;,
    3;309,310,311;,
    3;312,313,314;,
    3;315,316,317;,
    3;318,319,320;,
    3;321,322,323;,
    3;324,325,326;,
    3;327,328,329;,
    3;330,331,332;,
    3;333,334,335;,
    3;336,337,338;,
    3;339,340,341;,
    3;342,343,344;,
    3;345,346,347;,
    3;348,349,350;,
    3;351,352,353;,
    3;354,355,356;,
    3;357,358,359;,
    3;360,361,362;,
    3;363,364,365;,
    3;366,367,368;,
    3;369,370,371;,
    3;372,373,374;,
    3;375,376,377;,
    3;378,379,380;,
    3;381,382,383;,
    3;384,385,386;,
    3;387,388,389;,
    3;390,391,392;,
    3;393,394,395;,
    3;396,397,398;,
    3;399,400,401;,
    3;402,403,404;,
    3;405,406,407;,
    3;408,409,410;,
    3;411,412,413;,
    3;414,415,416;,
    3;417,418,419;,
    3;420,421,422;,
    3;423,424,425;,
    3;426,427,428;,
    3;429,430,431;,
    3;432,433,434;,
    3;435,436,437;,
    3;438,439,440;,
    3;441,442,443;,
    3;444,445,446;,
    3;447,448,449;,
    3;450,451,452;,
    3;453,454,455;,
    3;456,457,458;,
    3;459,460,461;,
    3;462,463,464;,
    3;465,466,467;,
    3;468,469,470;,
    3;471,472,473;,
    3;474,475,476;,
    3;477,478,479;,
    3;480,481,482;,
    3;483,484,485;,
    3;486,487,488;,
    3;489,490,491;,
    3;492,493,494;,
    3;495,496,497;,
    3;498,499,500;,
    3;501,502,503;,
    3;504,505,506;,
    3;507,508,509;,
    3;510,511,512;,
    3;513,514,515;,
    3;516,517,518;,
    3;519,520,521;,
    3;522,523,524;,
    3;525,526,527;,
    3;528,529,530;,
    3;531,532,533;,
    3;534,535,536;,
    3;537,538,539;,
    3;540,541,542;,
    3;543,544,545;,
    3;546,547,548;,
    3;549,550,551;,
    3;552,553,554;,
    3;555,556,557;,
    3;558,559,560;,
    3;561,562,563;,
    3;564,565,566;,
    3;567,568,569;,
    3;570,571,572;,
    3;573,574,575;,
    3;576,577,578;,
    3;579,580,581;,
    3;582,583,584;,
    3;585,586,587;,
    3;588,589,590;,
    3;591,592,593;,
    3;594,595,596;,
    3;597,598,599;,
    3;600,601,602;,
    3;603,604,605;,
    3;606,607,608;,
    3;609,610,611;,
    3;612,613,614;,
    3;615,616,617;,
    3;618,619,620;,
    3;621,622,623;,
    3;624,625,626;,
    3;627,628,629;,
    3;630,631,632;,
    3;633,634,635;,
    3;636,637,638;,
    3;639,640,641;,
    3;642,643,644;,
    3;645,646,647;,
    3;648,649,650;,
    3;651,652,653;,
    3;654,655,656;,
    3;657,658,659;,
    3;660,661,662;,
    3;663,664,665;,
    3;666,667,668;,
    3;669,670,671;,
    3;672,673,674;,
    3;675,676,677;,
    3;678,679,680;,
    3;681,682,683;,
    3;684,685,686;,
    3;687,688,689;,
    3;690,691,692;,
    3;693,694,695;;
   }

   MeshMaterialList  {
    1;
    232;
    0,
    0,
    0,
    0,
    0,
    0,
    0,
    0,
    0,
    0,
    0,
    0,
    0,
    0,
    0,
    0,
    0,
    0,
    0,
    0,
    0,
    0,
    0,
    0,
    0,
    0,
    0,
    0,
    0,
    0,
    0,
    0,
    0,
    0,
    0,
    0,
    0,
    0,
    0,
    0,
    0,
    0,
    0,
    0,
    0,
    0,
    0,
    0,
    0,
    0,
    0,
    0,
    0,
    0,
    0,
    0,
    0,
    0,
    0,
    0,
    0,
    0,
    0,
    0,
    0,
    0,
    0,
    0,
    0,
    0,
    0,
    0,
    0,
    0,
    0,
    0,
    0,
    0,
    0,
    0,
    0,
    0,
    0,
    0,
    0,
    0,
    0,
    0,
    0,
    0,
    0,
    0,
    0,
    0,
    0,
    0,
    0,
    0,
    0,
    0,
    0,
    0,
    0,
    0,
    0,
    0,
    0,
    0,
    0,
    0,
    0,
    0,
    0,
    0,
    0,
    0,
    0,
    0,
    0,
    0,
    0,
    0,
    0,
    0,
    0,
    0,
    0,
    0,
    0,
    0,
    0,
    0,
    0,
    0,
    0,
    0,
    0,
    0,
    0,
    0,
    0,
    0,
    0,
    0,
    0,
    0,
    0,
    0,
    0,
    0,
    0,
    0,
    0,
    0,
    0,
    0,
    0,
    0,
    0,
    0,
    0,
    0,
    0,
    0,
    0,
    0,
    0,
    0,
    0,
    0,
    0,
    0,
    0,
    0,
    0,
    0,
    0,
    0,
    0,
    0,
    0,
    0,
    0,
    0,
    0,
    0,
    0,
    0,
    0,
    0,
    0,
    0,
    0,
    0,
    0,
    0,
    0,
    0,
    0,
    0,
    0,
    0,
    0,
    0,
    0,
    0,
    0,
    0,
    0,
    0,
    0,
    0,
    0,
    0,
    0,
    0,
    0,
    0,
    0,
    0,
    0,
    0,
    0,
    0,
    0,
    0,
    0,
    0,
    0,
    0,
    0,
    0;
    { buildz4 }
   }

   MeshTextureCoords  {
    696;
    0.969732;0.935436;,
    0.946182;0.936312;,
    0.973730;0.923806;,
    0.993443;0.935202;,
    1.001278;0.923806;,
    0.973730;0.923806;,
    0.632674;1.002191;,
    0.632674;0.925958;,
    0.490190;0.925958;,
    0.490190;0.925958;,
    0.491302;1.002191;,
    0.632674;1.002191;,
    0.020513;0.332012;,
    0.020513;0.539461;,
    0.116333;0.539461;,
    0.116333;0.539461;,
    0.116333;0.332012;,
    0.020513;0.332012;,
    0.627086;1.002192;,
    0.627086;0.925962;,
    0.464310;0.925962;,
    0.464310;0.925962;,
    0.464310;1.002192;,
    0.627086;1.002192;,
    0.248890;0.925963;,
    0.082163;0.925962;,
    0.082163;1.002192;,
    0.082163;1.002192;,
    0.248890;1.002192;,
    0.248890;0.925963;,
    0.712039;0.925958;,
    0.632674;0.925958;,
    0.632674;1.002191;,
    0.632674;1.002191;,
    0.712039;1.002191;,
    0.712039;0.925958;,
    0.969732;0.935436;,
    0.973730;0.923806;,
    0.946182;0.923806;,
    0.000338;1.002192;,
    0.154145;1.002192;,
    0.154145;0.925962;,
    0.154145;0.925962;,
    0.000338;0.925962;,
    0.000338;1.002192;,
    0.146309;0.332012;,
    0.004772;0.332012;,
    0.004772;0.539461;,
    0.004772;0.539461;,
    0.146309;0.539461;,
    0.146309;0.332012;,
    0.158629;0.332012;,
    0.007437;0.332012;,
    0.007437;0.539461;,
    0.007437;0.539461;,
    0.158629;0.539461;,
    0.158629;0.332012;,
    0.147145;0.331995;,
    0.033242;0.331995;,
    0.033242;0.539457;,
    0.033242;0.539457;,
    0.147145;0.539457;,
    0.147145;0.331995;,
    0.511184;0.925364;,
    0.597420;0.962316;,
    0.490482;0.962564;,
    0.511184;0.925364;,
    0.596918;0.925700;,
    0.597420;0.962316;,
    0.406887;0.962757;,
    0.597420;0.962316;,
    0.596918;0.925700;,
    0.596918;0.925700;,
    0.406808;0.924955;,
    0.406887;0.962757;,
    0.597420;0.962316;,
    0.406887;0.962757;,
    0.406808;0.924955;,
    0.406808;0.924955;,
    0.596918;0.925700;,
    0.597420;0.962316;,
    0.597420;0.962316;,
    0.406887;0.962757;,
    0.406808;0.924955;,
    0.406808;0.924955;,
    0.596918;0.925700;,
    0.597420;0.962316;,
    0.406887;0.962757;,
    0.597420;0.962316;,
    0.596918;0.925700;,
    0.596918;0.925700;,
    0.406808;0.924955;,
    0.406887;0.962757;,
    0.946182;0.936312;,
    0.969732;0.935436;,
    0.946182;0.923806;,
    0.946182;0.936312;,
    0.946182;0.923806;,
    0.973730;0.923806;,
    0.969732;0.935436;,
    0.993443;0.935202;,
    0.973730;0.923806;,
    0.969732;0.935436;,
    0.973730;0.923806;,
    0.946182;0.923806;,
    0.946182;0.936312;,
    0.969732;0.935436;,
    0.946182;0.923806;,
    0.946182;1.003945;,
    1.001278;1.003945;,
    1.001278;0.923806;,
    0.946182;1.003945;,
    1.001278;0.923806;,
    0.973730;0.923806;,
    0.946182;1.003945;,
    0.973730;0.923806;,
    0.946182;0.923806;,
    0.014976;0.332012;,
    0.014976;0.549548;,
    0.125562;0.549548;,
    0.125562;0.549548;,
    0.125562;0.332012;,
    0.014976;0.332012;,
    0.959819;1.004364;,
    1.002447;1.004364;,
    1.002447;0.941629;,
    0.959819;1.004364;,
    0.892930;0.941629;,
    0.892930;1.004363;,
    0.126007;0.332012;,
    0.004772;0.332012;,
    0.004772;0.549548;,
    0.004772;0.549548;,
    0.126007;0.549548;,
    0.126007;0.332012;,
    0.138326;0.332012;,
    0.011128;0.332012;,
    0.011128;0.549548;,
    0.011128;0.549548;,
    0.138326;0.549548;,
    0.138326;0.332012;,
    0.147145;0.331995;,
    0.033242;0.331995;,
    0.033242;0.549540;,
    0.033242;0.549540;,
    0.147145;0.549540;,
    0.147145;0.331995;,
    0.913817;0.962614;,
    0.913817;0.955066;,
    0.901278;0.955066;,
    0.901278;0.955066;,
    0.901278;0.962614;,
    0.913817;0.962614;,
    0.938186;0.987609;,
    0.938186;0.975037;,
    0.923235;0.975037;,
    0.923235;0.975037;,
    0.923235;0.987609;,
    0.938186;0.987609;,
    0.938186;0.987609;,
    0.938186;0.975037;,
    0.923235;0.975037;,
    0.923235;0.975037;,
    0.923235;0.987609;,
    0.938186;0.987609;,
    0.938186;0.987609;,
    0.938186;0.975037;,
    0.923235;0.975037;,
    0.923235;0.975037;,
    0.923235;0.987609;,
    0.938186;0.987609;,
    0.938186;0.987609;,
    0.938186;0.975037;,
    0.923235;0.975037;,
    0.923235;0.975037;,
    0.923235;0.987609;,
    0.938186;0.987609;,
    0.946182;0.933346;,
    0.946182;0.923806;,
    0.918634;0.923806;,
    0.969971;0.934741;,
    0.993166;0.935605;,
    0.973730;0.923806;,
    0.969971;0.934741;,
    0.973730;0.923806;,
    0.946182;0.923806;,
    0.040816;0.332012;,
    0.040816;0.553239;,
    0.136636;0.553239;,
    0.136636;0.553239;,
    0.136636;0.332012;,
    0.040816;0.332012;,
    0.922174;0.934102;,
    0.918634;0.923806;,
    0.946182;0.923806;,
    0.114932;0.332012;,
    0.021383;0.332012;,
    0.021383;0.553239;,
    0.021383;0.553239;,
    0.114932;0.553239;,
    0.114932;0.332012;,
    0.154937;0.332012;,
    0.007437;0.332012;,
    0.007437;0.553239;,
    0.007437;0.553239;,
    0.154937;0.553239;,
    0.154937;0.332012;,
    0.163756;0.331995;,
    0.118144;0.331995;,
    0.118144;0.553232;,
    0.118144;0.553232;,
    0.163756;0.553232;,
    0.163756;0.331995;,
    0.946182;0.933346;,
    0.922174;0.934102;,
    0.946182;0.923806;,
    0.922174;0.934102;,
    0.946182;0.933346;,
    0.918634;0.923806;,
    0.993166;0.935605;,
    1.001278;0.923806;,
    0.973730;0.923806;,
    0.946182;0.933346;,
    0.969971;0.934741;,
    0.946182;0.923806;,
    0.089372;1.002191;,
    0.089372;0.925958;,
    0.263201;0.925958;,
    0.263201;0.925958;,
    0.263201;1.002191;,
    0.089372;1.002191;,
    0.712039;0.925958;,
    0.632674;0.925958;,
    0.632674;1.002191;,
    0.632674;1.002191;,
    0.712039;1.002191;,
    0.712039;0.925958;,
    0.596918;0.925700;,
    0.406831;0.936242;,
    0.406808;0.924955;,
    0.152872;0.539457;,
    0.152872;0.331995;,
    0.007989;0.539457;,
    0.234082;0.549540;,
    0.234082;0.331995;,
    0.101306;0.549540;,
    0.936715;0.933644;,
    0.946182;0.923806;,
    0.946182;0.933346;,
    0.146743;0.539457;,
    0.146743;0.331995;,
    0.043188;0.539457;,
    0.043188;0.331995;,
    0.043188;0.539457;,
    0.146743;0.331995;,
    0.946182;0.923806;,
    0.969732;0.935436;,
    0.946182;0.936312;,
    0.946182;0.923806;,
    0.973730;0.923806;,
    0.969732;0.935436;,
    0.145489;0.549540;,
    0.145489;0.331995;,
    0.018603;0.549540;,
    0.018603;0.331995;,
    0.018603;0.549540;,
    0.145489;0.331995;,
    0.892930;1.004363;,
    1.002447;1.004364;,
    0.892930;0.941629;,
    1.002447;0.941629;,
    0.892930;0.941629;,
    1.002447;1.004364;,
    0.136260;0.553232;,
    0.136260;0.331995;,
    0.035214;0.553232;,
    0.035214;0.331995;,
    0.035214;0.553232;,
    0.136260;0.331995;,
    0.918634;0.923806;,
    0.946182;0.923806;,
    0.922174;0.934102;,
    0.922174;0.934102;,
    0.946182;0.923806;,
    0.946182;0.933346;,
    0.141403;0.539457;,
    0.080425;0.331995;,
    0.028899;0.539457;,
    0.080425;0.331995;,
    0.141403;0.539457;,
    0.141403;0.331995;,
    0.036045;0.549548;,
    0.098321;0.332012;,
    0.098321;0.549548;,
    0.098321;0.332012;,
    0.036045;0.549548;,
    0.004772;0.332012;,
    0.054257;0.553239;,
    0.076304;0.332012;,
    0.114932;0.553239;,
    0.076304;0.332012;,
    0.021383;0.553239;,
    0.021383;0.332012;,
    0.004772;0.549548;,
    0.004772;0.332012;,
    0.036045;0.549548;,
    0.114932;0.332012;,
    0.114932;0.553239;,
    0.076304;0.332012;,
    0.021383;0.553239;,
    0.076304;0.332012;,
    0.054257;0.553239;,
    0.028899;0.331995;,
    0.028899;0.539457;,
    0.080425;0.331995;,
    0.102423;0.331995;,
    0.101306;0.549540;,
    0.234082;0.331995;,
    0.933151;0.923806;,
    0.946182;0.923806;,
    0.936715;0.933644;,
    0.014980;0.331995;,
    0.015838;0.553232;,
    0.145489;0.331995;,
    0.145489;0.553232;,
    0.145489;0.331995;,
    0.015838;0.553232;,
    0.958413;0.923806;,
    0.969732;0.935436;,
    0.957988;0.935873;,
    0.958413;0.923806;,
    0.973730;0.923806;,
    0.969732;0.935436;,
    0.010926;0.331995;,
    0.007989;0.539457;,
    0.152872;0.331995;,
    0.892930;0.941629;,
    0.959819;1.004364;,
    1.002447;0.941629;,
    0.596918;0.925700;,
    0.540509;0.936700;,
    0.406831;0.936242;,
    0.540509;0.936700;,
    0.596918;0.925700;,
    0.597420;0.962316;,
    0.539122;0.962451;,
    0.540509;0.936700;,
    0.597420;0.962316;,
    0.946182;0.936312;,
    0.969732;0.935436;,
    0.973730;0.923806;,
    1.001278;0.923806;,
    0.993443;0.935202;,
    0.973730;0.923806;,
    0.632674;0.925958;,
    0.632674;1.002191;,
    0.490190;0.925958;,
    0.491302;1.002191;,
    0.490190;0.925958;,
    0.632674;1.002191;,
    0.020513;0.539461;,
    0.020513;0.332012;,
    0.116333;0.539461;,
    0.116333;0.332012;,
    0.116333;0.539461;,
    0.020513;0.332012;,
    0.627086;0.925962;,
    0.627086;1.002192;,
    0.464310;0.925962;,
    0.464310;1.002192;,
    0.464310;0.925962;,
    0.627086;1.002192;,
    0.082163;0.925962;,
    0.248890;0.925963;,
    0.082163;1.002192;,
    0.248890;1.002192;,
    0.082163;1.002192;,
    0.248890;0.925963;,
    0.632674;0.925958;,
    0.712039;0.925958;,
    0.632674;1.002191;,
    0.712039;1.002191;,
    0.632674;1.002191;,
    0.712039;0.925958;,
    0.973730;0.923806;,
    0.969732;0.935436;,
    0.946182;0.923806;,
    0.154145;1.002192;,
    0.000338;1.002192;,
    0.154145;0.925962;,
    0.000338;0.925962;,
    0.154145;0.925962;,
    0.000338;1.002192;,
    0.004772;0.332012;,
    0.146309;0.332012;,
    0.004772;0.539461;,
    0.146309;0.539461;,
    0.004772;0.539461;,
    0.146309;0.332012;,
    0.007437;0.332012;,
    0.158629;0.332012;,
    0.007437;0.539461;,
    0.158629;0.539461;,
    0.007437;0.539461;,
    0.158629;0.332012;,
    0.033242;0.331995;,
    0.147145;0.331995;,
    0.033242;0.539457;,
    0.147145;0.539457;,
    0.033242;0.539457;,
    0.147145;0.331995;,
    0.597420;0.962316;,
    0.511184;0.925364;,
    0.490482;0.962564;,
    0.596918;0.925700;,
    0.511184;0.925364;,
    0.597420;0.962316;,
    0.597420;0.962316;,
    0.406887;0.962757;,
    0.596918;0.925700;,
    0.406808;0.924955;,
    0.596918;0.925700;,
    0.406887;0.962757;,
    0.406887;0.962757;,
    0.597420;0.962316;,
    0.406808;0.924955;,
    0.596918;0.925700;,
    0.406808;0.924955;,
    0.597420;0.962316;,
    0.406887;0.962757;,
    0.597420;0.962316;,
    0.406808;0.924955;,
    0.596918;0.925700;,
    0.406808;0.924955;,
    0.597420;0.962316;,
    0.597420;0.962316;,
    0.406887;0.962757;,
    0.596918;0.925700;,
    0.406808;0.924955;,
    0.596918;0.925700;,
    0.406887;0.962757;,
    0.969732;0.935436;,
    0.946182;0.936312;,
    0.946182;0.923806;,
    0.946182;0.923806;,
    0.946182;0.936312;,
    0.973730;0.923806;,
    0.993443;0.935202;,
    0.969732;0.935436;,
    0.973730;0.923806;,
    0.973730;0.923806;,
    0.969732;0.935436;,
    0.946182;0.923806;,
    0.969732;0.935436;,
    0.946182;0.936312;,
    0.946182;0.923806;,
    1.001278;1.003945;,
    0.946182;1.003945;,
    1.001278;0.923806;,
    1.001278;0.923806;,
    0.946182;1.003945;,
    0.973730;0.923806;,
    0.973730;0.923806;,
    0.946182;1.003945;,
    0.946182;0.923806;,
    0.014976;0.549548;,
    0.014976;0.332012;,
    0.125562;0.549548;,
    0.125562;0.332012;,
    0.125562;0.549548;,
    0.014976;0.332012;,
    1.002447;1.004364;,
    0.959819;1.004364;,
    1.002447;0.941629;,
    0.892930;0.941629;,
    0.959819;1.004364;,
    0.892930;1.004363;,
    0.004772;0.332012;,
    0.126007;0.332012;,
    0.004772;0.549548;,
    0.126007;0.549548;,
    0.004772;0.549548;,
    0.126007;0.332012;,
    0.011128;0.332012;,
    0.138326;0.332012;,
    0.011128;0.549548;,
    0.138326;0.549548;,
    0.011128;0.549548;,
    0.138326;0.332012;,
    0.033242;0.331995;,
    0.147145;0.331995;,
    0.033242;0.549540;,
    0.147145;0.549540;,
    0.033242;0.549540;,
    0.147145;0.331995;,
    0.913817;0.955066;,
    0.913817;0.962614;,
    0.901278;0.955066;,
    0.901278;0.962614;,
    0.901278;0.955066;,
    0.913817;0.962614;,
    0.938186;0.975037;,
    0.938186;0.987609;,
    0.923235;0.975037;,
    0.923235;0.987609;,
    0.923235;0.975037;,
    0.938186;0.987609;,
    0.938186;0.975037;,
    0.938186;0.987609;,
    0.923235;0.975037;,
    0.923235;0.987609;,
    0.923235;0.975037;,
    0.938186;0.987609;,
    0.938186;0.975037;,
    0.938186;0.987609;,
    0.923235;0.975037;,
    0.923235;0.987609;,
    0.923235;0.975037;,
    0.938186;0.987609;,
    0.938186;0.975037;,
    0.938186;0.987609;,
    0.923235;0.975037;,
    0.923235;0.987609;,
    0.923235;0.975037;,
    0.938186;0.987609;,
    0.946182;0.923806;,
    0.946182;0.933346;,
    0.918634;0.923806;,
    0.993166;0.935605;,
    0.969971;0.934741;,
    0.973730;0.923806;,
    0.973730;0.923806;,
    0.969971;0.934741;,
    0.946182;0.923806;,
    0.040816;0.553239;,
    0.040816;0.332012;,
    0.136636;0.553239;,
    0.136636;0.332012;,
    0.136636;0.553239;,
    0.040816;0.332012;,
    0.918634;0.923806;,
    0.922174;0.934102;,
    0.946182;0.923806;,
    0.021383;0.332012;,
    0.114932;0.332012;,
    0.021383;0.553239;,
    0.114932;0.553239;,
    0.021383;0.553239;,
    0.114932;0.332012;,
    0.007437;0.332012;,
    0.154937;0.332012;,
    0.007437;0.553239;,
    0.154937;0.553239;,
    0.007437;0.553239;,
    0.154937;0.332012;,
    0.118144;0.331995;,
    0.163756;0.331995;,
    0.118144;0.553232;,
    0.163756;0.553232;,
    0.118144;0.553232;,
    0.163756;0.331995;,
    0.922174;0.934102;,
    0.946182;0.933346;,
    0.946182;0.923806;,
    0.946182;0.933346;,
    0.922174;0.934102;,
    0.918634;0.923806;,
    1.001278;0.923806;,
    0.993166;0.935605;,
    0.973730;0.923806;,
    0.969971;0.934741;,
    0.946182;0.933346;,
    0.946182;0.923806;,
    0.089372;0.925958;,
    0.089372;1.002191;,
    0.263201;0.925958;,
    0.263201;1.002191;,
    0.263201;0.925958;,
    0.089372;1.002191;,
    0.632674;0.925958;,
    0.712039;0.925958;,
    0.632674;1.002191;,
    0.712039;1.002191;,
    0.632674;1.002191;,
    0.712039;0.925958;,
    0.406831;0.936242;,
    0.596918;0.925700;,
    0.406808;0.924955;,
    0.152872;0.331995;,
    0.152872;0.539457;,
    0.007989;0.539457;,
    0.234082;0.331995;,
    0.234082;0.549540;,
    0.101306;0.549540;,
    0.946182;0.923806;,
    0.936715;0.933644;,
    0.946182;0.933346;,
    0.146743;0.331995;,
    0.146743;0.539457;,
    0.043188;0.539457;,
    0.043188;0.539457;,
    0.043188;0.331995;,
    0.146743;0.331995;,
    0.969732;0.935436;,
    0.946182;0.923806;,
    0.946182;0.936312;,
    0.973730;0.923806;,
    0.946182;0.923806;,
    0.969732;0.935436;,
    0.145489;0.331995;,
    0.145489;0.549540;,
    0.018603;0.549540;,
    0.018603;0.549540;,
    0.018603;0.331995;,
    0.145489;0.331995;,
    1.002447;1.004364;,
    0.892930;1.004363;,
    0.892930;0.941629;,
    0.892930;0.941629;,
    1.002447;0.941629;,
    1.002447;1.004364;,
    0.136260;0.331995;,
    0.136260;0.553232;,
    0.035214;0.553232;,
    0.035214;0.553232;,
    0.035214;0.331995;,
    0.136260;0.331995;,
    0.946182;0.923806;,
    0.918634;0.923806;,
    0.922174;0.934102;,
    0.946182;0.923806;,
    0.922174;0.934102;,
    0.946182;0.933346;,
    0.080425;0.331995;,
    0.141403;0.539457;,
    0.028899;0.539457;,
    0.141403;0.539457;,
    0.080425;0.331995;,
    0.141403;0.331995;,
    0.098321;0.332012;,
    0.036045;0.549548;,
    0.098321;0.549548;,
    0.036045;0.549548;,
    0.098321;0.332012;,
    0.004772;0.332012;,
    0.076304;0.332012;,
    0.054257;0.553239;,
    0.114932;0.553239;,
    0.021383;0.553239;,
    0.076304;0.332012;,
    0.021383;0.332012;,
    0.004772;0.332012;,
    0.004772;0.549548;,
    0.036045;0.549548;,
    0.114932;0.553239;,
    0.114932;0.332012;,
    0.076304;0.332012;,
    0.076304;0.332012;,
    0.021383;0.553239;,
    0.054257;0.553239;,
    0.028899;0.539457;,
    0.028899;0.331995;,
    0.080425;0.331995;,
    0.101306;0.549540;,
    0.102423;0.331995;,
    0.234082;0.331995;,
    0.946182;0.923806;,
    0.933151;0.923806;,
    0.936715;0.933644;,
    0.015838;0.553232;,
    0.014980;0.331995;,
    0.145489;0.331995;,
    0.145489;0.331995;,
    0.145489;0.553232;,
    0.015838;0.553232;,
    0.969732;0.935436;,
    0.958413;0.923806;,
    0.957988;0.935873;,
    0.973730;0.923806;,
    0.958413;0.923806;,
    0.969732;0.935436;,
    0.007989;0.539457;,
    0.010926;0.331995;,
    0.152872;0.331995;,
    0.959819;1.004364;,
    0.892930;0.941629;,
    1.002447;0.941629;,
    0.540509;0.936700;,
    0.596918;0.925700;,
    0.406831;0.936242;,
    0.596918;0.925700;,
    0.540509;0.936700;,
    0.597420;0.962316;,
    0.540509;0.936700;,
    0.539122;0.962451;,
    0.597420;0.962316;;
   }
  }
 }
}