xof 0303txt 0032
template XSkinMeshHeader {
 <3cf169ce-ff7c-44ab-93c0-f78f62d172e2>
 WORD nMaxSkinWeightsPerVertex;
 WORD nMaxSkinWeightsPerFace;
 WORD nBones;
}

template VertexDuplicationIndices {
 <b8d65549-d7c9-4995-89cf-53a9a8b031e3>
 DWORD nIndices;
 DWORD nOriginalVertices;
 array DWORD indices[nIndices];
}

template SkinWeights {
 <6f0d123b-bad2-4167-a0d0-80224f25fabb>
 STRING transformNodeName;
 DWORD nWeights;
 array DWORD vertexIndices[nWeights];
 array FLOAT weights[nWeights];
 Matrix4x4 matrixOffset;
}

template FVFData {
 <b6e70a0e-8ef9-4e83-94ad-ecc8b0c04897>
 DWORD dwFVF;
 DWORD nDWords;
 array DWORD data[nDWords];
}

template EffectInstance {
 <e331f7e4-0559-4cc2-8e99-1cec1657928f>
 STRING EffectFilename;
 [...]
}

template EffectParamFloats {
 <3014b9a0-62f5-478c-9b86-e4ac9f4e418b>
 STRING ParamName;
 DWORD nFloats;
 array FLOAT Floats[nFloats];
}

template EffectParamString {
 <1dbc4c88-94c1-46ee-9076-2c28818c9481>
 STRING ParamName;
 STRING Value;
}

template EffectParamDWord {
 <e13963bc-ae51-4c5d-b00f-cfa3a9d97ce5>
 STRING ParamName;
 DWORD Value;
}


Material skyscrapers {
 1.000000;1.000000;1.000000;1.000000;;
 3.200000;
 0.000000;0.000000;0.000000;;
 0.000000;0.000000;0.000000;;

 TextureFilename {
  "Skyscrp.tga";
 }
}

Material buildz1 {
 1.000000;1.000000;1.000000;1.000000;;
 3.200000;
 0.000000;0.000000;0.000000;;
 0.000000;0.000000;0.000000;;

 TextureFilename {
  "buildz1.tga";
 }
}

Material buildz3 {
 1.000000;1.000000;1.000000;1.000000;;
 3.200000;
 0.000000;0.000000;0.000000;;
 0.000000;0.000000;0.000000;;

 TextureFilename {
  "buildz3.tga";
 }
}

Material buildz4 {
 1.000000;1.000000;1.000000;1.000000;;
 3.200000;
 0.000000;0.000000;0.000000;;
 0.000000;0.000000;0.000000;;

 TextureFilename {
  "buildz4.tga";
 }
}

Material buildz5 {
 1.000000;1.000000;1.000000;1.000000;;
 3.200000;
 0.000000;0.000000;0.000000;;
 0.000000;0.000000;0.000000;;

 TextureFilename {
  "buildz5.tga";
 }
}

Material buildz6 {
 1.000000;1.000000;1.000000;1.000000;;
 3.200000;
 0.000000;0.000000;0.000000;;
 0.000000;0.000000;0.000000;;

 TextureFilename {
  "buildz6.tga";
 }
}

Material buildz2 {
 1.000000;1.000000;1.000000;1.000000;;
 3.200000;
 0.000000;0.000000;0.000000;;
 0.000000;0.000000;0.000000;;

 TextureFilename {
  "buildz2.tga";
 }
}

Material roads {
 1.000000;1.000000;1.000000;1.000000;;
 3.200000;
 0.000000;0.000000;0.000000;;
 0.000000;0.000000;0.000000;;

 TextureFilename {
  "roads.tga";
 }
}

Material roads-2 {
 1.000000;1.000000;1.000000;1.000000;;
 3.200000;
 0.000000;0.000000;0.000000;;
 0.000000;0.000000;0.000000;;

 TextureFilename {
  "roads2.tga";
 }
}

Material tree-01 {
 1.000000;1.000000;1.000000;1.000000;;
 3.200000;
 0.000000;0.000000;0.000000;;
 0.000000;0.000000;0.000000;;

 TextureFilename {
  "trees-02.tga";
 }
}

Frame building-commercial_11 {
 

 FrameTransformMatrix {
  1.000000,0.000000,0.000000,0.000000,0.000000,-0.000000,-1.000000,0.000000,0.000000,1.000000,-0.000000,0.000000,0.393085,-12.670539,10.455443,1.000000;;
 }

 Frame {
  

  FrameTransformMatrix {
   1.000000,0.000000,0.000000,0.000000,0.000000,1.000000,0.000000,0.000000,0.000000,0.000000,1.000000,0.000000,0.000000,-0.000000,-0.000000,1.000000;;
  }

  Mesh  {
   54;
   -0.526971;-13.029272;17.970896;,
   19.086985;-13.029270;17.970896;,
   19.086985;13.029270;17.970896;,
   19.086985;13.029270;17.970896;,
   -0.526972;13.029268;17.970896;,
   -0.526971;-13.029272;17.970896;,
   -0.526972;13.029268;17.970896;,
   19.086985;13.029270;17.970896;,
   19.086985;13.029270;-0.000000;,
   19.086985;13.029270;-0.000000;,
   -0.526972;13.029268;-0.000000;,
   -0.526972;13.029268;17.970896;,
   -0.526971;-13.029272;17.970896;,
   -0.526972;13.029268;17.970896;,
   -0.526972;13.029268;-0.000000;,
   -0.526972;13.029268;-0.000000;,
   -0.526971;-13.029272;-0.000000;,
   -0.526971;-13.029272;17.970896;,
   19.086985;-13.029270;17.970896;,
   -0.526971;-13.029272;17.970896;,
   -0.526971;-13.029272;-0.000000;,
   -0.526971;-13.029272;-0.000000;,
   19.086985;-13.029270;-0.000000;,
   19.086985;-13.029270;17.970896;,
   19.086985;13.029270;17.970896;,
   19.086985;-13.029270;17.970896;,
   19.086985;-13.029270;-0.000000;,
   19.086985;-13.029270;-0.000000;,
   19.086985;13.029270;-0.000000;,
   19.086985;13.029270;17.970896;,
   -19.086987;6.721668;9.141416;,
   -19.086987;-5.651020;9.141415;,
   -0.323261;-5.651022;9.141415;,
   -0.323261;-5.651022;9.141415;,
   -0.323259;6.721665;9.141416;,
   -19.086987;6.721668;9.141416;,
   -19.086987;6.721666;0.000001;,
   -19.086987;-5.651020;0.000001;,
   -19.086987;-5.651020;9.141415;,
   -19.086987;-5.651020;9.141415;,
   -19.086987;6.721668;9.141416;,
   -19.086987;6.721666;0.000001;,
   -19.086987;-5.651020;0.000001;,
   -0.323261;-5.651022;0.000001;,
   -0.323261;-5.651022;9.141415;,
   -0.323261;-5.651022;9.141415;,
   -19.086987;-5.651020;9.141415;,
   -19.086987;-5.651020;0.000001;,
   -0.323261;6.721664;0.000001;,
   -19.086987;6.721666;0.000001;,
   -19.086987;6.721668;9.141416;,
   -19.086987;6.721668;9.141416;,
   -0.323259;6.721665;9.141416;,
   -0.323261;6.721664;0.000001;;
   18;
   3;0,1,2;,
   3;3,4,5;,
   3;6,7,8;,
   3;9,10,11;,
   3;12,13,14;,
   3;15,16,17;,
   3;18,19,20;,
   3;21,22,23;,
   3;24,25,26;,
   3;27,28,29;,
   3;30,31,32;,
   3;33,34,35;,
   3;36,37,38;,
   3;39,40,41;,
   3;42,43,44;,
   3;45,46,47;,
   3;48,49,50;,
   3;51,52,53;;

   MeshNormals  {
    54;
    0.000000;0.000000;1.000000;,
    0.000000;0.000000;1.000000;,
    0.000000;0.000000;1.000000;,
    0.000000;0.000000;1.000000;,
    0.000000;0.000000;1.000000;,
    0.000000;0.000000;1.000000;,
    -0.000000;1.000000;0.000000;,
    -0.000000;1.000000;0.000000;,
    -0.000000;1.000000;0.000000;,
    -0.000000;1.000000;0.000000;,
    -0.000000;1.000000;0.000000;,
    -0.000000;1.000000;0.000000;,
    -1.000000;-0.000000;0.000000;,
    -1.000000;-0.000000;0.000000;,
    -1.000000;-0.000000;0.000000;,
    -1.000000;-0.000000;0.000000;,
    -1.000000;-0.000000;0.000000;,
    -1.000000;-0.000000;0.000000;,
    0.000000;-1.000000;0.000000;,
    0.000000;-1.000000;0.000000;,
    0.000000;-1.000000;0.000000;,
    0.000000;-1.000000;0.000000;,
    0.000000;-1.000000;0.000000;,
    0.000000;-1.000000;0.000000;,
    1.000000;0.000000;0.000000;,
    1.000000;0.000000;0.000000;,
    1.000000;0.000000;0.000000;,
    1.000000;0.000000;0.000000;,
    1.000000;0.000000;0.000000;,
    1.000000;0.000000;0.000000;,
    -0.000000;-0.000000;1.000000;,
    -0.000000;-0.000000;1.000000;,
    -0.000000;-0.000000;1.000000;,
    -0.000000;-0.000000;1.000000;,
    -0.000000;-0.000000;1.000000;,
    -0.000000;-0.000000;1.000000;,
    -1.000000;0.000000;0.000000;,
    -1.000000;0.000000;0.000000;,
    -1.000000;0.000000;0.000000;,
    -1.000000;0.000000;0.000000;,
    -1.000000;0.000000;0.000000;,
    -1.000000;0.000000;0.000000;,
    -0.000000;-1.000000;0.000000;,
    -0.000000;-1.000000;0.000000;,
    -0.000000;-1.000000;0.000000;,
    -0.000000;-1.000000;0.000000;,
    -0.000000;-1.000000;0.000000;,
    -0.000000;-1.000000;0.000000;,
    0.000000;1.000000;-0.000000;,
    0.000000;1.000000;-0.000000;,
    0.000000;1.000000;-0.000000;,
    0.000000;1.000000;-0.000000;,
    0.000000;1.000000;-0.000000;,
    0.000000;1.000000;-0.000000;;
    18;
    3;0,1,2;,
    3;3,4,5;,
    3;6,7,8;,
    3;9,10,11;,
    3;12,13,14;,
    3;15,16,17;,
    3;18,19,20;,
    3;21,22,23;,
    3;24,25,26;,
    3;27,28,29;,
    3;30,31,32;,
    3;33,34,35;,
    3;36,37,38;,
    3;39,40,41;,
    3;42,43,44;,
    3;45,46,47;,
    3;48,49,50;,
    3;51,52,53;;
   }

   MeshMaterialList  {
    1;
    18;
    0,
    0,
    0,
    0,
    0,
    0,
    0,
    0,
    0,
    0,
    0,
    0,
    0,
    0,
    0,
    0,
    0,
    0;
    { buildz1 }
   }

   MeshTextureCoords  {
    54;
    0.882924;0.538625;,
    0.882923;0.445347;,
    0.746101;0.445347;,
    0.746101;0.445347;,
    0.746101;0.538625;,
    0.882924;0.538625;,
    0.995799;0.551480;,
    0.688779;0.551480;,
    0.688779;1.000000;,
    0.688779;1.000000;,
    0.995799;1.000000;,
    0.995799;0.551480;,
    0.995799;0.551480;,
    0.603322;0.551480;,
    0.603322;1.000000;,
    0.603322;1.000000;,
    0.995799;1.000000;,
    0.995799;0.551480;,
    0.995799;0.551480;,
    0.688779;0.551480;,
    0.688779;1.000000;,
    0.688779;1.000000;,
    0.995799;1.000000;,
    0.995799;0.551480;,
    0.995799;0.551480;,
    0.603322;0.551480;,
    0.603322;1.000000;,
    0.603322;1.000000;,
    0.995799;1.000000;,
    0.995799;0.551480;,
    0.882924;0.538625;,
    0.746101;0.538625;,
    0.746101;0.450884;,
    0.746101;0.450884;,
    0.882923;0.450884;,
    0.882924;0.538625;,
    0.784755;1.000000;,
    0.995799;1.000000;,
    0.995799;0.771847;,
    0.995799;0.771847;,
    0.784755;0.771847;,
    0.784755;1.000000;,
    0.995799;1.000000;,
    0.678996;1.000000;,
    0.678996;0.771847;,
    0.678996;0.771847;,
    0.995799;0.771847;,
    0.995799;1.000000;,
    0.678996;1.000000;,
    0.995799;1.000000;,
    0.995799;0.771847;,
    0.995799;0.771847;,
    0.678996;0.771847;,
    0.678996;1.000000;;
   }
  }
 }
}