xof 0303txt 0032
template XSkinMeshHeader {
 <3cf169ce-ff7c-44ab-93c0-f78f62d172e2>
 WORD nMaxSkinWeightsPerVertex;
 WORD nMaxSkinWeightsPerFace;
 WORD nBones;
}

template VertexDuplicationIndices {
 <b8d65549-d7c9-4995-89cf-53a9a8b031e3>
 DWORD nIndices;
 DWORD nOriginalVertices;
 array DWORD indices[nIndices];
}

template SkinWeights {
 <6f0d123b-bad2-4167-a0d0-80224f25fabb>
 STRING transformNodeName;
 DWORD nWeights;
 array DWORD vertexIndices[nWeights];
 array FLOAT weights[nWeights];
 Matrix4x4 matrixOffset;
}

template FVFData {
 <b6e70a0e-8ef9-4e83-94ad-ecc8b0c04897>
 DWORD dwFVF;
 DWORD nDWords;
 array DWORD data[nDWords];
}

template EffectInstance {
 <e331f7e4-0559-4cc2-8e99-1cec1657928f>
 STRING EffectFilename;
 [...]
}

template EffectParamFloats {
 <3014b9a0-62f5-478c-9b86-e4ac9f4e418b>
 STRING ParamName;
 DWORD nFloats;
 array FLOAT Floats[nFloats];
}

template EffectParamString {
 <1dbc4c88-94c1-46ee-9076-2c28818c9481>
 STRING ParamName;
 STRING Value;
}

template EffectParamDWord {
 <e13963bc-ae51-4c5d-b00f-cfa3a9d97ce5>
 STRING ParamName;
 DWORD Value;
}


Material skyscrapers {
 1.000000;1.000000;1.000000;1.000000;;
 3.200000;
 0.000000;0.000000;0.000000;;
 0.000000;0.000000;0.000000;;

 TextureFilename {
  "Skyscrp.tga";
 }
}

Material buildz1 {
 1.000000;1.000000;1.000000;1.000000;;
 3.200000;
 0.000000;0.000000;0.000000;;
 0.000000;0.000000;0.000000;;

 TextureFilename {
  "buildz1.tga";
 }
}

Material buildz3 {
 1.000000;1.000000;1.000000;1.000000;;
 3.200000;
 0.000000;0.000000;0.000000;;
 0.000000;0.000000;0.000000;;

 TextureFilename {
  "buildz3.tga";
 }
}

Material buildz4 {
 1.000000;1.000000;1.000000;1.000000;;
 3.200000;
 0.000000;0.000000;0.000000;;
 0.000000;0.000000;0.000000;;

 TextureFilename {
  "buildz4.tga";
 }
}

Material buildz5 {
 1.000000;1.000000;1.000000;1.000000;;
 3.200000;
 0.000000;0.000000;0.000000;;
 0.000000;0.000000;0.000000;;

 TextureFilename {
  "buildz5.tga";
 }
}

Material buildz6 {
 1.000000;1.000000;1.000000;1.000000;;
 3.200000;
 0.000000;0.000000;0.000000;;
 0.000000;0.000000;0.000000;;

 TextureFilename {
  "buildz6.tga";
 }
}

Material buildz2 {
 1.000000;1.000000;1.000000;1.000000;;
 3.200000;
 0.000000;0.000000;0.000000;;
 0.000000;0.000000;0.000000;;

 TextureFilename {
  "buildz2.tga";
 }
}

Material roads {
 1.000000;1.000000;1.000000;1.000000;;
 3.200000;
 0.000000;0.000000;0.000000;;
 0.000000;0.000000;0.000000;;

 TextureFilename {
  "roads.tga";
 }
}

Material roads-2 {
 1.000000;1.000000;1.000000;1.000000;;
 3.200000;
 0.000000;0.000000;0.000000;;
 0.000000;0.000000;0.000000;;

 TextureFilename {
  "roads2.tga";
 }
}

Material tree-01 {
 1.000000;1.000000;1.000000;1.000000;;
 3.200000;
 0.000000;0.000000;0.000000;;
 0.000000;0.000000;0.000000;;

 TextureFilename {
  "trees-02.tga";
 }
}

Frame building-commercial_04 {
 

 FrameTransformMatrix {
  1.000000,0.000000,0.000000,0.000000,0.000000,-0.000000,-1.000000,0.000000,0.000000,1.000000,-0.000000,0.000000,0.000000,-12.670539,12.491668,1.000000;;
 }

 Frame {
  

  FrameTransformMatrix {
   1.000000,0.000000,0.000000,0.000000,0.000000,1.000000,0.000000,0.000000,0.000000,0.000000,1.000000,0.000000,0.000000,-0.000000,0.000000,1.000000;;
  }

  Mesh  {
   120;
   -14.325150;6.986213;3.071052;,
   -0.000000;7.056172;3.071052;,
   -0.000000;7.056172;0.000000;,
   -0.000000;7.056172;0.000000;,
   -14.325150;6.986213;0.000000;,
   -14.325150;6.986213;3.071052;,
   -14.325150;6.986214;12.779573;,
   -0.000000;7.056173;12.779572;,
   -0.000000;7.056172;3.071052;,
   -0.000000;7.056172;3.071052;,
   -14.325150;6.986213;3.071052;,
   -14.325150;6.986214;12.779573;,
   0.000000;-7.010369;0.011230;,
   0.000000;-7.010369;6.075261;,
   -6.578032;-7.010370;6.075261;,
   -6.578032;-7.010370;6.075261;,
   -6.578032;-7.010370;0.011230;,
   0.000000;-7.010369;0.011230;,
   -6.578032;-7.010370;6.075261;,
   -7.744583;-2.383139;6.075261;,
   -7.744583;-2.383141;0.011229;,
   -7.744583;-2.383141;0.011229;,
   -6.578032;-7.010370;0.011230;,
   -6.578032;-7.010370;6.075261;,
   -14.376664;-2.446279;3.071052;,
   -14.376664;-2.446278;0.000000;,
   0.000000;-2.494205;0.000000;,
   0.000000;-2.494205;0.000000;,
   0.000000;-2.494205;3.071052;,
   -14.376664;-2.446279;3.071052;,
   -14.376664;-2.446280;12.779573;,
   -14.376664;-2.446279;3.071052;,
   0.000000;-2.494205;3.071052;,
   0.000000;-2.494205;3.071052;,
   0.000000;-2.494205;12.779572;,
   -14.376664;-2.446280;12.779573;,
   -14.325150;6.986214;12.779573;,
   -14.376664;-2.446280;12.779573;,
   0.000000;-2.494205;12.779572;,
   0.000000;-2.494205;12.779572;,
   -0.000000;7.056173;12.779572;,
   -14.325150;6.986214;12.779573;,
   0.000000;-2.383138;6.075261;,
   -7.744583;-2.383139;6.075261;,
   -6.578032;-7.010370;6.075261;,
   -6.578032;-7.010370;6.075261;,
   0.000000;-7.010369;6.075261;,
   0.000000;-2.383138;6.075261;,
   -14.376664;-2.446279;3.071052;,
   -14.325150;6.986213;3.071052;,
   -14.325150;6.986213;0.000000;,
   -14.325150;6.986213;0.000000;,
   -14.376664;-2.446278;0.000000;,
   -14.376664;-2.446279;3.071052;,
   -14.376664;-2.446280;12.779573;,
   -14.325150;6.986214;12.779573;,
   -14.325150;6.986213;3.071052;,
   -14.325150;6.986213;3.071052;,
   -14.376664;-2.446279;3.071052;,
   -14.376664;-2.446280;12.779573;,
   14.325150;6.986214;3.071052;,
   -0.000000;7.056172;0.000000;,
   -0.000000;7.056172;3.071052;,
   -0.000000;7.056172;0.000000;,
   14.325150;6.986214;3.071052;,
   14.325150;6.986214;0.000000;,
   14.325150;6.986215;12.779573;,
   -0.000000;7.056172;3.071052;,
   -0.000000;7.056173;12.779572;,
   -0.000000;7.056172;3.071052;,
   14.325150;6.986215;12.779573;,
   14.325150;6.986214;3.071052;,
   0.000000;-7.010369;0.011230;,
   6.578033;-7.010369;6.075261;,
   0.000000;-7.010369;6.075261;,
   6.578033;-7.010369;6.075261;,
   0.000000;-7.010369;0.011230;,
   6.578033;-7.010369;0.011230;,
   6.578033;-7.010369;6.075261;,
   7.744583;-2.383140;0.011229;,
   7.744583;-2.383138;6.075261;,
   7.744583;-2.383140;0.011229;,
   6.578033;-7.010369;6.075261;,
   6.578033;-7.010369;0.011230;,
   14.376664;-2.446277;3.071052;,
   0.000000;-2.494205;0.000000;,
   14.376664;-2.446277;0.000000;,
   0.000000;-2.494205;0.000000;,
   14.376664;-2.446277;3.071052;,
   0.000000;-2.494205;3.071052;,
   14.376664;-2.446278;12.779573;,
   0.000000;-2.494205;3.071052;,
   14.376664;-2.446277;3.071052;,
   0.000000;-2.494205;3.071052;,
   14.376664;-2.446278;12.779573;,
   0.000000;-2.494205;12.779572;,
   14.325150;6.986215;12.779573;,
   0.000000;-2.494205;12.779572;,
   14.376664;-2.446278;12.779573;,
   0.000000;-2.494205;12.779572;,
   14.325150;6.986215;12.779573;,
   -0.000000;7.056173;12.779572;,
   0.000000;-2.383138;6.075261;,
   6.578033;-7.010369;6.075261;,
   7.744583;-2.383138;6.075261;,
   6.578033;-7.010369;6.075261;,
   0.000000;-2.383138;6.075261;,
   0.000000;-7.010369;6.075261;,
   14.376664;-2.446277;3.071052;,
   14.325150;6.986214;0.000000;,
   14.325150;6.986214;3.071052;,
   14.325150;6.986214;0.000000;,
   14.376664;-2.446277;3.071052;,
   14.376664;-2.446277;0.000000;,
   14.376664;-2.446278;12.779573;,
   14.325150;6.986214;3.071052;,
   14.325150;6.986215;12.779573;,
   14.325150;6.986214;3.071052;,
   14.376664;-2.446278;12.779573;,
   14.376664;-2.446277;3.071052;;
   40;
   3;0,1,2;,
   3;3,4,5;,
   3;6,7,8;,
   3;9,10,11;,
   3;12,13,14;,
   3;15,16,17;,
   3;18,19,20;,
   3;21,22,23;,
   3;24,25,26;,
   3;27,28,29;,
   3;30,31,32;,
   3;33,34,35;,
   3;36,37,38;,
   3;39,40,41;,
   3;42,43,44;,
   3;45,46,47;,
   3;48,49,50;,
   3;51,52,53;,
   3;54,55,56;,
   3;57,58,59;,
   3;60,61,62;,
   3;63,64,65;,
   3;66,67,68;,
   3;69,70,71;,
   3;72,73,74;,
   3;75,76,77;,
   3;78,79,80;,
   3;81,82,83;,
   3;84,85,86;,
   3;87,88,89;,
   3;90,91,92;,
   3;93,94,95;,
   3;96,97,98;,
   3;99,100,101;,
   3;102,103,104;,
   3;105,106,107;,
   3;108,109,110;,
   3;111,112,113;,
   3;114,115,116;,
   3;117,118,119;;

   MeshNormals  {
    120;
    -0.004884;0.999988;-0.000000;,
    -0.000000;1.000000;-0.000000;,
    -0.000000;1.000000;0.000000;,
    -0.000000;1.000000;0.000000;,
    -0.004884;0.999988;0.000000;,
    -0.004884;0.999988;-0.000000;,
    -0.004884;0.999988;-0.000000;,
    -0.000000;1.000000;-0.000000;,
    -0.000000;1.000000;-0.000000;,
    -0.000000;1.000000;-0.000000;,
    -0.004884;0.999988;-0.000000;,
    -0.004884;0.999988;-0.000000;,
    0.000000;-1.000000;0.000000;,
    0.000000;-1.000000;0.000000;,
    0.000000;-1.000000;0.000000;,
    0.000000;-1.000000;0.000000;,
    0.000000;-1.000000;0.000000;,
    0.000000;-1.000000;0.000000;,
    -0.969660;-0.244457;0.000000;,
    -0.969660;-0.244457;0.000000;,
    -0.969660;-0.244457;0.000000;,
    -0.969660;-0.244457;0.000000;,
    -0.969660;-0.244457;0.000000;,
    -0.969660;-0.244457;0.000000;,
    -0.003334;-0.999994;-0.000000;,
    -0.003334;-0.999994;-0.000000;,
    0.000000;-1.000000;-0.000000;,
    0.000000;-1.000000;-0.000000;,
    0.000000;-1.000000;-0.000000;,
    -0.003334;-0.999994;-0.000000;,
    -0.003334;-0.999994;-0.000000;,
    -0.003334;-0.999994;-0.000000;,
    0.000000;-1.000000;-0.000000;,
    0.000000;-1.000000;-0.000000;,
    0.000000;-1.000000;0.000000;,
    -0.003334;-0.999994;-0.000000;,
    0.000000;-0.000000;1.000000;,
    0.000000;-0.000000;1.000000;,
    -0.000000;-0.000000;1.000000;,
    -0.000000;-0.000000;1.000000;,
    -0.000000;0.000000;1.000000;,
    0.000000;-0.000000;1.000000;,
    0.000000;0.000000;1.000000;,
    0.000000;0.000000;1.000000;,
    0.000000;0.000000;1.000000;,
    0.000000;0.000000;1.000000;,
    0.000000;0.000000;1.000000;,
    0.000000;0.000000;1.000000;,
    -0.999985;0.005461;0.000000;,
    -0.999985;0.005461;-0.000000;,
    -0.999985;0.005461;0.000000;,
    -0.999985;0.005461;0.000000;,
    -0.999985;0.005461;0.000000;,
    -0.999985;0.005461;0.000000;,
    -0.999985;0.005461;-0.000000;,
    -0.999985;0.005461;-0.000000;,
    -0.999985;0.005461;-0.000000;,
    -0.999985;0.005461;-0.000000;,
    -0.999985;0.005461;0.000000;,
    -0.999985;0.005461;-0.000000;,
    0.004884;0.999988;-0.000000;,
    -0.000000;1.000000;0.000000;,
    -0.000000;1.000000;-0.000000;,
    -0.000000;1.000000;0.000000;,
    0.004884;0.999988;-0.000000;,
    0.004884;0.999988;0.000000;,
    0.004884;0.999988;-0.000000;,
    -0.000000;1.000000;-0.000000;,
    -0.000000;1.000000;-0.000000;,
    -0.000000;1.000000;-0.000000;,
    0.004884;0.999988;-0.000000;,
    0.004884;0.999988;-0.000000;,
    0.000000;-1.000000;0.000000;,
    -0.000000;-1.000000;0.000000;,
    0.000000;-1.000000;0.000000;,
    -0.000000;-1.000000;0.000000;,
    0.000000;-1.000000;0.000000;,
    -0.000000;-1.000000;0.000000;,
    0.969660;-0.244457;0.000000;,
    0.969660;-0.244457;0.000000;,
    0.969660;-0.244457;0.000000;,
    0.969660;-0.244457;0.000000;,
    0.969660;-0.244457;0.000000;,
    0.969660;-0.244457;0.000000;,
    0.003334;-0.999994;-0.000000;,
    0.000000;-1.000000;-0.000000;,
    0.003334;-0.999994;-0.000000;,
    0.000000;-1.000000;-0.000000;,
    0.003334;-0.999994;-0.000000;,
    0.000000;-1.000000;-0.000000;,
    0.003334;-0.999994;-0.000000;,
    0.000000;-1.000000;-0.000000;,
    0.003334;-0.999994;-0.000000;,
    0.000000;-1.000000;-0.000000;,
    0.003334;-0.999994;-0.000000;,
    0.000000;-1.000000;0.000000;,
    -0.000000;-0.000000;1.000000;,
    -0.000000;-0.000000;1.000000;,
    -0.000000;-0.000000;1.000000;,
    -0.000000;-0.000000;1.000000;,
    -0.000000;-0.000000;1.000000;,
    -0.000000;0.000000;1.000000;,
    0.000000;0.000000;1.000000;,
    0.000000;0.000000;1.000000;,
    0.000000;0.000000;1.000000;,
    0.000000;0.000000;1.000000;,
    0.000000;0.000000;1.000000;,
    0.000000;0.000000;1.000000;,
    0.999985;0.005461;0.000000;,
    0.999985;0.005461;0.000000;,
    0.999985;0.005461;-0.000000;,
    0.999985;0.005461;0.000000;,
    0.999985;0.005461;0.000000;,
    0.999985;0.005461;0.000000;,
    0.999985;0.005461;-0.000000;,
    0.999985;0.005461;-0.000000;,
    0.999985;0.005461;-0.000000;,
    0.999985;0.005461;-0.000000;,
    0.999985;0.005461;-0.000000;,
    0.999985;0.005461;0.000000;;
    40;
    3;0,1,2;,
    3;3,4,5;,
    3;6,7,8;,
    3;9,10,11;,
    3;12,13,14;,
    3;15,16,17;,
    3;18,19,20;,
    3;21,22,23;,
    3;24,25,26;,
    3;27,28,29;,
    3;30,31,32;,
    3;33,34,35;,
    3;36,37,38;,
    3;39,40,41;,
    3;42,43,44;,
    3;45,46,47;,
    3;48,49,50;,
    3;51,52,53;,
    3;54,55,56;,
    3;57,58,59;,
    3;60,61,62;,
    3;63,64,65;,
    3;66,67,68;,
    3;69,70,71;,
    3;72,73,74;,
    3;75,76,77;,
    3;78,79,80;,
    3;81,82,83;,
    3;84,85,86;,
    3;87,88,89;,
    3;90,91,92;,
    3;93,94,95;,
    3;96,97,98;,
    3;99,100,101;,
    3;102,103,104;,
    3;105,106,107;,
    3;108,109,110;,
    3;111,112,113;,
    3;114,115,116;,
    3;117,118,119;;
   }

   MeshMaterialList  {
    1;
    40;
    0,
    0,
    0,
    0,
    0,
    0,
    0,
    0,
    0,
    0,
    0,
    0,
    0,
    0,
    0,
    0,
    0,
    0,
    0,
    0,
    0,
    0,
    0,
    0,
    0,
    0,
    0,
    0,
    0,
    0,
    0,
    0,
    0,
    0,
    0,
    0,
    0,
    0,
    0,
    0;
    { buildz4 }
   }

   MeshTextureCoords  {
    120;
    0.713811;0.925600;,
    0.438235;0.925600;,
    0.438235;1.002191;,
    0.438235;1.002191;,
    0.713811;1.002191;,
    0.713811;0.925600;,
    0.289706;-0.003110;,
    0.487778;-0.003110;,
    0.487778;0.237159;,
    0.487778;0.237159;,
    0.289706;0.237159;,
    0.289706;-0.003110;,
    0.208379;0.544534;,
    0.208379;0.464790;,
    0.100425;0.464790;,
    0.100425;0.464790;,
    0.100425;0.544534;,
    0.208379;0.544534;,
    0.009115;0.464790;,
    0.098537;0.464790;,
    0.098537;0.544534;,
    0.098537;0.544534;,
    0.009115;0.544534;,
    0.009115;0.464790;,
    0.324885;0.925605;,
    0.324885;1.002192;,
    0.459458;1.002192;,
    0.459458;1.002192;,
    0.459458;0.925605;,
    0.324885;0.925605;,
    0.615131;-0.003110;,
    0.615131;0.237159;,
    0.352460;0.237159;,
    0.352460;0.237159;,
    0.352460;-0.003110;,
    0.615131;-0.003110;,
    0.890918;1.003945;,
    0.890918;0.923806;,
    1.063141;0.923806;,
    1.063141;0.923806;,
    1.063789;1.003945;,
    0.890918;1.003945;,
    0.661815;0.999682;,
    0.716895;0.999682;,
    0.716895;0.963840;,
    0.716895;0.963840;,
    0.662047;0.963840;,
    0.661815;0.999682;,
    0.713811;0.925600;,
    0.438235;0.925600;,
    0.438235;1.002191;,
    0.438235;1.002191;,
    0.713811;1.002191;,
    0.713811;0.925600;,
    0.380146;-0.003110;,
    0.591137;-0.003110;,
    0.591137;0.237159;,
    0.591137;0.237159;,
    0.380146;0.237159;,
    0.380146;-0.003110;,
    0.713811;0.925600;,
    0.438235;1.002191;,
    0.438235;0.925600;,
    0.438235;1.002191;,
    0.713811;0.925600;,
    0.713811;1.002191;,
    0.289706;-0.003110;,
    0.487778;0.237159;,
    0.487778;-0.003110;,
    0.487778;0.237159;,
    0.289706;-0.003110;,
    0.289706;0.237159;,
    0.208379;0.544534;,
    0.100425;0.464790;,
    0.208379;0.464790;,
    0.100425;0.464790;,
    0.208379;0.544534;,
    0.100425;0.544534;,
    0.009115;0.464790;,
    0.098537;0.544534;,
    0.098537;0.464790;,
    0.098537;0.544534;,
    0.009115;0.464790;,
    0.009115;0.544534;,
    0.324885;0.925605;,
    0.459458;1.002192;,
    0.324885;1.002192;,
    0.459458;1.002192;,
    0.324885;0.925605;,
    0.459458;0.925605;,
    0.615131;-0.003110;,
    0.352460;0.237159;,
    0.615131;0.237159;,
    0.352460;0.237159;,
    0.615131;-0.003110;,
    0.352460;-0.003110;,
    0.890918;1.003945;,
    1.063141;0.923806;,
    0.890918;0.923806;,
    1.063141;0.923806;,
    0.890918;1.003945;,
    1.063789;1.003945;,
    0.661815;0.999682;,
    0.716895;0.963840;,
    0.716895;0.999682;,
    0.716895;0.963840;,
    0.661815;0.999682;,
    0.662047;0.963840;,
    0.713811;0.925600;,
    0.438235;1.002191;,
    0.438235;0.925600;,
    0.438235;1.002191;,
    0.713811;0.925600;,
    0.713811;1.002191;,
    0.380146;-0.003110;,
    0.591137;0.237159;,
    0.591137;-0.003110;,
    0.591137;0.237159;,
    0.380146;-0.003110;,
    0.380146;0.237159;;
   }
  }
 }
}