xof 0303txt 0032
template Frame {
 <3d82ab46-62da-11cf-ab39-0020af71e433>
 [...]
}

template Matrix4x4 {
 <f6f23f45-7686-11cf-8f52-0040333594a3>
 array FLOAT matrix[16];
}

template FrameTransformMatrix {
 <f6f23f41-7686-11cf-8f52-0040333594a3>
 Matrix4x4 frameMatrix;
}

template ObjectMatrixComment {
 <95a48e28-7ef4-4419-a16a-ba9dbdf0d2bc>
 Matrix4x4 objectMatrix;
}

template Vector {
 <3d82ab5e-62da-11cf-ab39-0020af71e433>
 FLOAT x;
 FLOAT y;
 FLOAT z;
}

template MeshFace {
 <3d82ab5f-62da-11cf-ab39-0020af71e433>
 DWORD nFaceVertexIndices;
 array DWORD faceVertexIndices[nFaceVertexIndices];
}

template Mesh {
 <3d82ab44-62da-11cf-ab39-0020af71e433>
 DWORD nVertices;
 array Vector vertices[nVertices];
 DWORD nFaces;
 array MeshFace faces[nFaces];
 [...]
}

template MeshNormals {
 <f6f23f43-7686-11cf-8f52-0040333594a3>
 DWORD nNormals;
 array Vector normals[nNormals];
 DWORD nFaceNormals;
 array MeshFace faceNormals[nFaceNormals];
}

template Coords2d {
 <f6f23f44-7686-11cf-8f52-0040333594a3>
 FLOAT u;
 FLOAT v;
}

template MeshTextureCoords {
 <f6f23f40-7686-11cf-8f52-0040333594a3>
 DWORD nTextureCoords;
 array Coords2d textureCoords[nTextureCoords];
}

template ColorRGBA {
 <35ff44e0-6c7c-11cf-8f52-0040333594a3>
 FLOAT red;
 FLOAT green;
 FLOAT blue;
 FLOAT alpha;
}

template ColorRGB {
 <d3e16e81-7835-11cf-8f52-0040333594a3>
 FLOAT red;
 FLOAT green;
 FLOAT blue;
}

template Material {
 <3d82ab4d-62da-11cf-ab39-0020af71e433>
 ColorRGBA faceColor;
 FLOAT power;
 ColorRGB specularColor;
 ColorRGB emissiveColor;
 [...]
}

template MeshMaterialList {
 <f6f23f42-7686-11cf-8f52-0040333594a3>
 DWORD nMaterials;
 DWORD nFaceIndexes;
 array DWORD faceIndexes[nFaceIndexes];
 [Material <3d82ab4d-62da-11cf-ab39-0020af71e433>]
}

template TextureFilename {
 <a42790e1-7810-11cf-8f52-0040333594a3>
 STRING filename;
}


Frame building_commercial_12 {
 

 FrameTransformMatrix relative {
  1.000000,0.000000,0.000000,0.000000,0.000000,1.000000,0.000000,0.000000,0.000000,0.000000,1.000000,0.000000,0.000000,0.000000,0.000000,1.000000;;
 }

 ObjectMatrixComment object {
  1.000000,0.000000,0.000000,0.000000,0.000000,1.000000,0.000000,0.000000,0.000000,0.000000,1.000000,0.000000,0.000000,0.000000,0.000000,1.000000;;
 }

 Mesh mesh_b {
  50;
  -26.048523;9.141414;9.827786;,
  -26.048509;9.141414;-9.827849;,
  0.000015;9.141414;-9.827827;,
  0.000004;9.141414;9.827821;,
  -26.048523;0.050391;9.827786;,
  -26.048523;9.141414;9.827786;,
  -4.501330;4.013287;9.827805;,
  -4.501330;-0.000000;9.827805;,
  0.000004;9.141414;9.827821;,
  0.000004;4.013287;9.827806;,
  0.000015;9.141414;-9.827827;,
  26.048546;9.141414;-9.827799;,
  26.048534;9.141414;9.827842;,
  0.000004;9.141414;9.827821;,
  26.048534;9.141414;9.827842;,
  4.484743;4.013287;9.827822;,
  26.048534;0.050391;9.827842;,
  4.484744;-0.000000;9.827822;,
  26.048546;0.050391;-9.827799;,
  26.048546;9.141414;-9.827799;,
  4.484751;4.013287;-9.826102;,
  4.484751;-0.000000;-9.826102;,
  0.000015;9.141414;-9.827827;,
  0.000013;4.013287;-9.826110;,
  -26.048509;9.141414;-9.827849;,
  -4.501322;4.013287;-9.826118;,
  -26.048509;0.050391;-9.827849;,
  -4.501323;-0.000000;-9.826118;,
  -4.501322;4.013287;-9.826118;,
  -4.501323;-0.000000;-9.826118;,
  -4.501330;-0.000000;9.827805;,
  -4.501330;4.013287;9.827805;,
  0.000013;4.013287;-9.826110;,
  -4.501322;4.013287;-9.826118;,
  -4.501330;4.013287;9.827805;,
  0.000004;4.013287;9.827806;,
  4.484751;-0.000000;-9.826102;,
  4.484751;4.013287;-9.826102;,
  4.484743;4.013287;9.827822;,
  4.484744;-0.000000;9.827822;,
  4.484751;4.013287;-9.826102;,
  4.484743;4.013287;9.827822;,
  -26.048523;0.050391;9.827786;,
  -26.048509;0.050391;-9.827849;,
  -26.048509;9.141414;-9.827849;,
  -26.048523;9.141414;9.827786;,
  26.048546;0.050391;-9.827799;,
  26.048534;0.050391;9.827842;,
  26.048534;9.141414;9.827842;,
  26.048546;9.141414;-9.827799;;
  32;
  3;0,2,1;,
  3;2,0,3;,
  3;4,6,5;,
  3;6,4,7;,
  3;8,6,9;,
  3;6,8,5;,
  3;10,12,11;,
  3;12,10,13;,
  3;8,15,14;,
  3;15,8,9;,
  3;16,15,17;,
  3;15,16,14;,
  3;18,20,19;,
  3;20,18,21;,
  3;22,20,23;,
  3;20,22,19;,
  3;22,25,24;,
  3;25,22,23;,
  3;26,25,27;,
  3;25,26,24;,
  3;28,30,29;,
  3;30,28,31;,
  3;32,34,33;,
  3;34,32,35;,
  3;36,38,37;,
  3;38,36,39;,
  3;40,35,32;,
  3;35,40,41;,
  3;42,44,43;,
  3;44,42,45;,
  3;46,48,47;,
  3;48,46,49;;

  MeshNormals normals {
   50;
   -0.707107;0.707107;-0.000000;,
   -0.707107;0.707107;-0.000000;,
   -0.000000;1.000000;0.000000;,
   -0.000000;1.000000;0.000000;,
   -0.000001;0.000000;1.000000;,
   -0.000001;-0.000000;1.000000;,
   0.301510;-0.301513;0.904534;,
   0.707633;-0.000000;0.706580;,
   -0.000002;-0.000002;1.000000;,
   -0.000001;-0.707108;0.707105;,
   -0.000000;1.000000;0.000000;,
   0.707107;0.707107;0.000000;,
   0.707107;0.707107;0.000000;,
   -0.000000;1.000000;0.000000;,
   -0.000001;-0.000000;1.000000;,
   -0.301512;-0.301511;0.904534;,
   -0.000001;-0.000000;1.000000;,
   -0.707633;-0.000000;0.706580;,
   -0.000079;-0.000000;-1.000000;,
   -0.000067;-0.000050;-1.000000;,
   -0.000029;-0.000207;-1.000000;,
   -0.000079;-0.000000;-1.000000;,
   0.000001;-0.000335;-1.000000;,
   0.000002;-0.000335;-1.000000;,
   0.000068;-0.000050;-1.000000;,
   0.000031;-0.000206;-1.000000;,
   0.000080;-0.000000;-1.000000;,
   0.000080;-0.000000;-1.000000;,
   0.707107;-0.707107;0.000000;,
   1.000000;-0.000000;0.000000;,
   0.707633;-0.000000;0.706580;,
   0.301510;-0.301513;0.904534;,
   0.000000;-1.000000;0.000000;,
   0.707107;-0.707107;0.000000;,
   0.301510;-0.301513;0.904534;,
   -0.000001;-0.707108;0.707105;,
   -1.000000;-0.000000;-0.000000;,
   -0.707106;-0.707107;-0.000000;,
   -0.301512;-0.301511;0.904534;,
   -0.707633;-0.000000;0.706580;,
   -0.707106;-0.707107;-0.000000;,
   -0.301512;-0.301511;0.904534;,
   -1.000000;0.000000;-0.000001;,
   -1.000000;0.000000;-0.000001;,
   -0.707107;0.707107;-0.000000;,
   -0.707107;0.707107;-0.000000;,
   1.000000;0.000000;0.000001;,
   1.000000;0.000000;0.000001;,
   0.707107;0.707107;0.000000;,
   0.707107;0.707107;0.000000;;
   32;
   3;0,2,1;,
   3;2,0,3;,
   3;4,6,5;,
   3;6,4,7;,
   3;8,6,9;,
   3;6,8,5;,
   3;10,12,11;,
   3;12,10,13;,
   3;8,15,14;,
   3;15,8,9;,
   3;16,15,17;,
   3;15,16,14;,
   3;18,20,19;,
   3;20,18,21;,
   3;22,20,23;,
   3;20,22,19;,
   3;22,25,24;,
   3;25,22,23;,
   3;26,25,27;,
   3;25,26,24;,
   3;28,30,29;,
   3;30,28,31;,
   3;32,34,33;,
   3;34,32,35;,
   3;36,38,37;,
   3;38,36,39;,
   3;40,35,32;,
   3;35,40,41;,
   3;42,44,43;,
   3;44,42,45;,
   3;46,48,47;,
   3;48,46,49;;
  }

  MeshTextureCoords tc0 {
   50;
   0.746101;0.538624;,
   0.746101;0.445347;,
   0.873695;0.445347;,
   0.873695;0.538625;,
   0.995800;1.000000;,
   0.995800;0.771848;,
   0.680305;0.899836;,
   0.680305;1.000000;,
   0.614396;0.771848;,
   0.614396;0.899836;,
   0.873695;0.445347;,
   0.746101;0.445347;,
   0.746101;0.538625;,
   0.873695;0.538625;,
   0.995800;0.771848;,
   0.680062;0.899836;,
   0.995800;1.000000;,
   0.680062;1.000000;,
   0.995800;1.000000;,
   0.995800;0.771848;,
   0.680062;0.899836;,
   0.680062;1.000000;,
   0.614397;0.771848;,
   0.614397;0.899836;,
   0.995800;0.771848;,
   0.680305;0.899836;,
   0.995800;1.000000;,
   0.680305;1.000000;,
   0.705390;0.896626;,
   0.705390;1.000000;,
   0.977343;1.000000;,
   0.977343;0.896626;,
   0.317899;0.300529;,
   0.317899;0.233092;,
   0.414116;0.233092;,
   0.414115;0.300529;,
   0.705390;1.000000;,
   0.705390;0.896626;,
   0.977343;0.896626;,
   0.977343;1.000000;,
   0.317899;0.233092;,
   0.414116;0.233092;,
   0.688779;1.000000;,
   0.995800;1.000000;,
   0.995800;0.771848;,
   0.688779;0.771848;,
   0.995800;1.000000;,
   0.688779;1.000000;,
   0.688779;0.771848;,
   0.995800;0.771848;;
  }

  MeshMaterialList mtls {
   1;
   32;
   0,
   0,
   0,
   0,
   0,
   0,
   0,
   0,
   0,
   0,
   0,
   0,
   0,
   0,
   0,
   0,
   0,
   0,
   0,
   0,
   0,
   0,
   0,
   0,
   0,
   0,
   0,
   0,
   0,
   0,
   0,
   0;

   Material Dflt_Material {
    0.588235;0.588235;0.588235;1.000000;;
    9.999999;
    0.900000;0.900000;0.900000;;
    0.000000;0.000000;0.000000;;

    TextureFilename Diffuse {
     "buildz1.tga";
    }
   }
  }
 }
}