xof 0303txt 0032
template XSkinMeshHeader {
 <3cf169ce-ff7c-44ab-93c0-f78f62d172e2>
 WORD nMaxSkinWeightsPerVertex;
 WORD nMaxSkinWeightsPerFace;
 WORD nBones;
}

template VertexDuplicationIndices {
 <b8d65549-d7c9-4995-89cf-53a9a8b031e3>
 DWORD nIndices;
 DWORD nOriginalVertices;
 array DWORD indices[nIndices];
}

template SkinWeights {
 <6f0d123b-bad2-4167-a0d0-80224f25fabb>
 STRING transformNodeName;
 DWORD nWeights;
 array DWORD vertexIndices[nWeights];
 array FLOAT weights[nWeights];
 Matrix4x4 matrixOffset;
}

template FVFData {
 <b6e70a0e-8ef9-4e83-94ad-ecc8b0c04897>
 DWORD dwFVF;
 DWORD nDWords;
 array DWORD data[nDWords];
}

template EffectInstance {
 <e331f7e4-0559-4cc2-8e99-1cec1657928f>
 STRING EffectFilename;
 [...]
}

template EffectParamFloats {
 <3014b9a0-62f5-478c-9b86-e4ac9f4e418b>
 STRING ParamName;
 DWORD nFloats;
 array FLOAT Floats[nFloats];
}

template EffectParamString {
 <1dbc4c88-94c1-46ee-9076-2c28818c9481>
 STRING ParamName;
 STRING Value;
}

template EffectParamDWord {
 <e13963bc-ae51-4c5d-b00f-cfa3a9d97ce5>
 STRING ParamName;
 DWORD Value;
}


Material skyscrapers {
 1.000000;1.000000;1.000000;1.000000;;
 3.200000;
 0.000000;0.000000;0.000000;;
 0.000000;0.000000;0.000000;;

 TextureFilename {
  "Skyscrp.tga";
 }
}

Material buildz1 {
 1.000000;1.000000;1.000000;1.000000;;
 3.200000;
 0.000000;0.000000;0.000000;;
 0.000000;0.000000;0.000000;;

 TextureFilename {
  "buildz1.tga";
 }
}

Material buildz3 {
 1.000000;1.000000;1.000000;1.000000;;
 3.200000;
 0.000000;0.000000;0.000000;;
 0.000000;0.000000;0.000000;;

 TextureFilename {
  "buildz3.tga";
 }
}

Material buildz4 {
 1.000000;1.000000;1.000000;1.000000;;
 3.200000;
 0.000000;0.000000;0.000000;;
 0.000000;0.000000;0.000000;;

 TextureFilename {
  "buildz4.tga";
 }
}

Material buildz5 {
 1.000000;1.000000;1.000000;1.000000;;
 3.200000;
 0.000000;0.000000;0.000000;;
 0.000000;0.000000;0.000000;;

 TextureFilename {
  "buildz5.tga";
 }
}

Material buildz6 {
 1.000000;1.000000;1.000000;1.000000;;
 3.200000;
 0.000000;0.000000;0.000000;;
 0.000000;0.000000;0.000000;;

 TextureFilename {
  "buildz6.tga";
 }
}

Material buildz2 {
 1.000000;1.000000;1.000000;1.000000;;
 3.200000;
 0.000000;0.000000;0.000000;;
 0.000000;0.000000;0.000000;;

 TextureFilename {
  "buildz2.tga";
 }
}

Material roads {
 1.000000;1.000000;1.000000;1.000000;;
 3.200000;
 0.000000;0.000000;0.000000;;
 0.000000;0.000000;0.000000;;

 TextureFilename {
  "roads.tga";
 }
}

Material roads-2 {
 1.000000;1.000000;1.000000;1.000000;;
 3.200000;
 0.000000;0.000000;0.000000;;
 0.000000;0.000000;0.000000;;

 TextureFilename {
  "roads2.tga";
 }
}

Material tree-01 {
 1.000000;1.000000;1.000000;1.000000;;
 3.200000;
 0.000000;0.000000;0.000000;;
 0.000000;0.000000;0.000000;;

 TextureFilename {
  "trees-02.tga";
 }
}

Frame building-commercial_10 {
 

 FrameTransformMatrix {
  1.000000,0.000000,0.000000,0.000000,0.000000,-0.000000,-1.000000,0.000000,0.000000,1.000000,-0.000000,0.000000,0.000000,-12.670539,12.491668,1.000000;;
 }

 Frame {
  

  FrameTransformMatrix {
   1.000000,0.000000,0.000000,0.000000,0.000000,1.000000,0.000000,0.000000,0.000000,0.000000,1.000000,0.000000,0.000000,-0.000000,0.000000,1.000000;;
  }

  Mesh  {
   129;
   -7.426756;18.446226;17.970896;,
   -14.804890;25.749830;17.970896;,
   -15.563307;10.450466;17.970896;,
   -22.839235;17.854507;17.970896;,
   -15.563307;10.450466;17.970896;,
   -14.804890;25.749830;17.970896;,
   -22.839235;17.854507;17.970896;,
   -14.804890;25.749830;17.970896;,
   -22.839235;17.854507;-0.000000;,
   -14.804890;25.749830;-0.000000;,
   -22.839235;17.854507;-0.000000;,
   -14.804890;25.749830;17.970896;,
   -14.804890;25.749830;17.970896;,
   0.410079;26.147455;17.970896;,
   -14.804890;25.749830;-0.000000;,
   0.410079;26.147455;-0.000000;,
   -14.804890;25.749830;-0.000000;,
   0.410079;26.147455;17.970896;,
   -15.563307;10.450466;17.970896;,
   -22.839235;17.854507;17.970896;,
   -40.707260;0.295648;17.970896;,
   -40.707260;0.295648;17.970896;,
   -33.431332;-7.108393;17.970896;,
   -15.563307;10.450466;17.970896;,
   -33.431332;-7.108393;17.970896;,
   -40.707260;0.295648;17.970896;,
   -40.707260;0.295648;-0.000000;,
   -40.707260;0.295648;-0.000000;,
   -33.431332;-7.108393;-0.000000;,
   -33.431332;-7.108393;17.970896;,
   -15.563307;10.450466;17.970896;,
   -33.431332;-7.108393;17.970896;,
   -33.431332;-7.108393;-0.000000;,
   -33.431332;-7.108393;-0.000000;,
   -15.563307;10.450466;-0.000000;,
   -15.563307;10.450466;17.970896;,
   -40.707260;0.295648;17.970896;,
   -22.839235;17.854507;17.970896;,
   -22.839235;17.854507;-0.000000;,
   -22.839235;17.854507;-0.000000;,
   -40.707260;0.295648;-0.000000;,
   -40.707260;0.295648;17.970896;,
   33.303185;-7.571590;17.970896;,
   40.707230;-0.295666;17.970896;,
   15.034729;11.018538;17.970896;,
   22.438772;18.294470;17.970896;,
   15.034729;11.018538;17.970896;,
   40.707230;-0.295666;17.970896;,
   22.438772;18.294470;17.970896;,
   40.707230;-0.295666;17.970896;,
   22.438772;18.294470;-0.000000;,
   40.707230;-0.295666;-0.000000;,
   22.438772;18.294470;-0.000000;,
   40.707230;-0.295666;17.970896;,
   40.707230;-0.295666;17.970896;,
   33.303185;-7.571590;17.970896;,
   40.707230;-0.295666;-0.000000;,
   33.303185;-7.571590;-0.000000;,
   40.707230;-0.295666;-0.000000;,
   33.303185;-7.571590;17.970896;,
   33.303185;-7.571590;17.970896;,
   15.034729;11.018538;17.970896;,
   33.303185;-7.571590;-0.000000;,
   15.034729;11.018538;-0.000000;,
   33.303185;-7.571590;-0.000000;,
   15.034729;11.018538;17.970896;,
   15.034729;11.018538;17.970896;,
   22.438772;18.294470;17.970896;,
   14.896157;25.969883;17.970896;,
   14.896157;25.969883;17.970896;,
   0.410079;26.147455;17.970896;,
   7.222873;18.524624;17.970896;,
   0.410079;26.147455;17.970896;,
   14.896157;25.969883;17.970896;,
   14.896157;25.969883;-0.000000;,
   14.896157;25.969883;-0.000000;,
   0.410079;26.147455;-0.000000;,
   0.410079;26.147455;17.970896;,
   14.896157;25.969883;17.970896;,
   22.438772;18.294470;17.970896;,
   22.438772;18.294470;-0.000000;,
   22.438772;18.294470;-0.000000;,
   14.896157;25.969883;-0.000000;,
   14.896157;25.969883;17.970896;,
   15.034729;11.018538;-0.000000;,
   15.034729;11.018538;17.970896;,
   -15.563307;10.450466;17.970896;,
   -15.563307;10.450466;17.970896;,
   -15.563307;10.450466;-0.000000;,
   15.034729;11.018538;-0.000000;,
   -15.563307;10.450466;17.970896;,
   15.034729;11.018538;17.970896;,
   -7.426756;18.446226;17.970896;,
   -7.426756;18.446226;17.970896;,
   7.222873;18.524624;17.970896;,
   0.410079;26.147455;17.970896;,
   0.410079;26.147455;17.970896;,
   -14.804890;25.749830;17.970896;,
   -7.426756;18.446226;17.970896;,
   -7.426756;18.446226;17.970896;,
   15.034729;11.018538;17.970896;,
   7.222873;18.524624;17.970896;,
   14.896157;25.969883;17.970896;,
   7.222873;18.524624;17.970896;,
   15.034729;11.018538;17.970896;,
   9.375689;-0.849090;5.464722;,
   9.295135;11.138428;5.464722;,
   -9.766335;10.834435;5.464722;,
   -9.766335;10.834435;5.464722;,
   -9.693953;-0.859583;5.464722;,
   9.375689;-0.849090;5.464722;,
   -9.693953;-0.859583;5.464722;,
   -9.766335;10.834435;5.464722;,
   -9.766335;10.834435;0.000001;,
   -9.766335;10.834435;0.000001;,
   -9.693953;-0.859583;0.000001;,
   -9.693953;-0.859583;5.464722;,
   9.375689;-0.849090;5.464722;,
   -9.693953;-0.859583;5.464722;,
   -9.693953;-0.859583;0.000001;,
   -9.693953;-0.859583;0.000001;,
   9.375690;-0.849090;0.000001;,
   9.375689;-0.849090;5.464722;,
   9.295135;11.138428;5.464722;,
   9.375689;-0.849090;5.464722;,
   9.375690;-0.849090;0.000001;,
   9.375690;-0.849090;0.000001;,
   9.295135;11.138427;0.000000;,
   9.295135;11.138428;5.464722;;
   43;
   3;0,1,2;,
   3;3,4,5;,
   3;6,7,8;,
   3;9,10,11;,
   3;12,13,14;,
   3;15,16,17;,
   3;18,19,20;,
   3;21,22,23;,
   3;24,25,26;,
   3;27,28,29;,
   3;30,31,32;,
   3;33,34,35;,
   3;36,37,38;,
   3;39,40,41;,
   3;42,43,44;,
   3;45,46,47;,
   3;48,49,50;,
   3;51,52,53;,
   3;54,55,56;,
   3;57,58,59;,
   3;60,61,62;,
   3;63,64,65;,
   3;66,67,68;,
   3;69,70,71;,
   3;72,73,74;,
   3;75,76,77;,
   3;78,79,80;,
   3;81,82,83;,
   3;84,85,86;,
   3;87,88,89;,
   3;90,91,92;,
   3;93,94,95;,
   3;96,97,98;,
   3;99,100,101;,
   3;102,103,104;,
   3;105,106,107;,
   3;108,109,110;,
   3;111,112,113;,
   3;114,115,116;,
   3;117,118,119;,
   3;120,121,122;,
   3;123,124,125;,
   3;126,127,128;;

   MeshNormals  {
    129;
    0.000000;0.000000;1.000000;,
    0.000000;0.000000;1.000000;,
    0.000000;0.000000;1.000000;,
    0.000000;0.000000;1.000000;,
    0.000000;0.000000;1.000000;,
    0.000000;0.000000;1.000000;,
    -0.700909;0.713251;0.000000;,
    -0.700909;0.713251;0.000000;,
    -0.700909;0.713251;0.000000;,
    -0.700909;0.713251;0.000000;,
    -0.700909;0.713251;0.000000;,
    -0.700909;0.713251;0.000000;,
    -0.026125;0.999659;0.000000;,
    -0.026125;0.999659;0.000000;,
    -0.026125;0.999659;0.000000;,
    -0.026125;0.999659;0.000000;,
    -0.026125;0.999659;0.000000;,
    -0.026125;0.999659;0.000000;,
    0.000000;0.000000;1.000000;,
    0.000000;0.000000;1.000000;,
    0.000000;0.000000;1.000000;,
    0.000000;0.000000;1.000000;,
    0.000000;0.000000;1.000000;,
    0.000000;0.000000;1.000000;,
    -0.713251;-0.700909;0.000000;,
    -0.713251;-0.700909;0.000000;,
    -0.713251;-0.700909;0.000000;,
    -0.713251;-0.700909;0.000000;,
    -0.713251;-0.700909;0.000000;,
    -0.713251;-0.700909;0.000000;,
    0.387223;-0.921986;0.000000;,
    0.700909;-0.713250;0.000000;,
    0.700909;-0.713250;0.000000;,
    0.700909;-0.713250;0.000000;,
    0.387223;-0.921986;0.000000;,
    0.387223;-0.921986;0.000000;,
    -0.700909;0.713250;0.000000;,
    -0.700909;0.713250;0.000000;,
    -0.700909;0.713250;0.000000;,
    -0.700909;0.713250;0.000000;,
    -0.700909;0.713250;0.000000;,
    -0.700909;0.713250;0.000000;,
    0.000000;0.000000;1.000000;,
    0.000000;0.000000;1.000000;,
    0.000000;0.000000;1.000000;,
    0.000000;0.000000;1.000000;,
    0.000000;0.000000;1.000000;,
    0.000000;0.000000;1.000000;,
    0.713251;0.700909;0.000000;,
    0.713251;0.700909;0.000000;,
    0.713251;0.700909;0.000000;,
    0.713251;0.700909;0.000000;,
    0.713251;0.700909;0.000000;,
    0.713251;0.700909;0.000000;,
    0.700909;-0.713251;0.000000;,
    0.700909;-0.713251;0.000000;,
    0.700909;-0.713251;0.000000;,
    0.700909;-0.713251;0.000000;,
    0.700909;-0.713251;0.000000;,
    0.700909;-0.713251;0.000000;,
    -0.713251;-0.700909;0.000000;,
    -0.713251;-0.700909;0.000000;,
    -0.713251;-0.700909;0.000000;,
    -0.713251;-0.700909;0.000000;,
    -0.713251;-0.700909;0.000000;,
    -0.713251;-0.700909;0.000000;,
    0.000000;0.000000;1.000000;,
    0.000000;0.000000;1.000000;,
    0.000000;0.000000;1.000000;,
    0.000000;0.000000;1.000000;,
    0.000000;0.000000;1.000000;,
    0.000000;0.000000;1.000000;,
    0.012257;0.999925;0.000000;,
    0.012257;0.999925;0.000000;,
    0.012257;0.999925;0.000000;,
    0.012257;0.999925;0.000000;,
    0.012257;0.999925;0.000000;,
    0.012257;0.999925;0.000000;,
    0.713250;0.700910;0.000000;,
    0.713250;0.700910;0.000000;,
    0.713250;0.700910;0.000000;,
    0.713250;0.700910;0.000000;,
    0.713250;0.700910;0.000000;,
    0.713250;0.700910;0.000000;,
    0.018562;-0.999828;0.000000;,
    0.018562;-0.999828;0.000000;,
    0.387223;-0.921986;0.000000;,
    0.387223;-0.921986;0.000000;,
    0.387223;-0.921986;0.000000;,
    0.018562;-0.999828;0.000000;,
    0.000000;0.000000;1.000000;,
    0.000000;0.000000;1.000000;,
    0.000000;0.000000;1.000000;,
    0.000000;0.000000;1.000000;,
    0.000000;0.000000;1.000000;,
    0.000000;0.000000;1.000000;,
    0.000000;0.000000;1.000000;,
    0.000000;0.000000;1.000000;,
    0.000000;0.000000;1.000000;,
    0.000000;0.000000;1.000000;,
    0.000000;0.000000;1.000000;,
    0.000000;0.000000;1.000000;,
    0.000000;0.000000;1.000000;,
    0.000000;0.000000;1.000000;,
    0.000000;0.000000;1.000000;,
    0.000000;0.000000;1.000000;,
    0.000000;0.000000;1.000000;,
    0.000000;0.000000;1.000000;,
    0.000000;0.000000;1.000000;,
    0.000000;0.000000;1.000000;,
    0.000000;0.000000;1.000000;,
    -0.999981;-0.006190;0.000000;,
    -0.999981;-0.006190;0.000000;,
    -0.999981;-0.006190;0.000000;,
    -0.999981;-0.006190;0.000000;,
    -0.999981;-0.006190;0.000000;,
    -0.999981;-0.006190;0.000000;,
    0.000550;-1.000000;-0.000000;,
    0.000550;-1.000000;0.000000;,
    0.000550;-1.000000;-0.000000;,
    0.000550;-1.000000;-0.000000;,
    0.000550;-1.000000;-0.000000;,
    0.000550;-1.000000;-0.000000;,
    0.999977;0.006720;-0.000000;,
    0.999977;0.006720;0.000000;,
    0.999977;0.006720;0.000000;,
    0.999977;0.006720;0.000000;,
    0.999977;0.006720;-0.000000;,
    0.999977;0.006720;-0.000000;;
    43;
    3;0,1,2;,
    3;3,4,5;,
    3;6,7,8;,
    3;9,10,11;,
    3;12,13,14;,
    3;15,16,17;,
    3;18,19,20;,
    3;21,22,23;,
    3;24,25,26;,
    3;27,28,29;,
    3;30,31,32;,
    3;33,34,35;,
    3;36,37,38;,
    3;39,40,41;,
    3;42,43,44;,
    3;45,46,47;,
    3;48,49,50;,
    3;51,52,53;,
    3;54,55,56;,
    3;57,58,59;,
    3;60,61,62;,
    3;63,64,65;,
    3;66,67,68;,
    3;69,70,71;,
    3;72,73,74;,
    3;75,76,77;,
    3;78,79,80;,
    3;81,82,83;,
    3;84,85,86;,
    3;87,88,89;,
    3;90,91,92;,
    3;93,94,95;,
    3;96,97,98;,
    3;99,100,101;,
    3;102,103,104;,
    3;105,106,107;,
    3;108,109,110;,
    3;111,112,113;,
    3;114,115,116;,
    3;117,118,119;,
    3;120,121,122;,
    3;123,124,125;,
    3;126,127,128;;
   }

   MeshMaterialList  {
    1;
    43;
    0,
    0,
    0,
    0,
    0,
    0,
    0,
    0,
    0,
    0,
    0,
    0,
    0,
    0,
    0,
    0,
    0,
    0,
    0,
    0,
    0,
    0,
    0,
    0,
    0,
    0,
    0,
    0,
    0,
    0,
    0,
    0,
    0,
    0,
    0,
    0,
    0,
    0,
    0,
    0,
    0,
    0,
    0;
    { buildz1 }
   }

   MeshTextureCoords  {
    129;
    0.863624;0.452730;,
    0.882924;0.538625;,
    0.762712;0.445347;,
    0.762713;0.538625;,
    0.762712;0.445347;,
    0.882924;0.538625;,
    0.995799;0.551480;,
    0.782910;0.551480;,
    0.995799;1.000000;,
    0.782910;1.000000;,
    0.995799;1.000000;,
    0.782910;0.551480;,
    0.782910;0.551480;,
    0.995799;0.551480;,
    0.782910;1.000000;,
    0.995799;1.000000;,
    0.782910;1.000000;,
    0.995799;0.551480;,
    0.762712;0.445347;,
    0.762713;0.538625;,
    0.882924;0.538625;,
    0.882924;0.538625;,
    0.882923;0.445347;,
    0.762712;0.445347;,
    0.995799;0.551480;,
    0.782910;0.551480;,
    0.782910;1.000000;,
    0.782910;1.000000;,
    0.995799;1.000000;,
    0.995799;0.551480;,
    0.603322;0.551480;,
    0.995799;0.551480;,
    0.995799;1.000000;,
    0.995799;1.000000;,
    0.603322;1.000000;,
    0.603322;0.551480;,
    0.995799;0.551480;,
    0.603322;0.551480;,
    0.603322;1.000000;,
    0.603322;1.000000;,
    0.995799;1.000000;,
    0.995799;0.551480;,
    0.882923;0.445347;,
    0.882924;0.538625;,
    0.762712;0.445347;,
    0.762713;0.538625;,
    0.762712;0.445347;,
    0.882924;0.538625;,
    0.603322;0.551480;,
    0.995799;0.551480;,
    0.603322;1.000000;,
    0.995799;1.000000;,
    0.603322;1.000000;,
    0.995799;0.551480;,
    0.782910;0.551480;,
    0.995799;0.551480;,
    0.782910;1.000000;,
    0.995799;1.000000;,
    0.782910;1.000000;,
    0.995799;0.551480;,
    0.995799;0.551480;,
    0.603322;0.551480;,
    0.995799;1.000000;,
    0.603322;1.000000;,
    0.995799;1.000000;,
    0.603322;0.551480;,
    0.762712;0.445347;,
    0.762713;0.538625;,
    0.882924;0.538625;,
    0.753079;0.445444;,
    0.814193;0.444766;,
    0.753479;0.534780;,
    0.995799;0.551480;,
    0.782910;0.551480;,
    0.782910;1.000000;,
    0.782910;1.000000;,
    0.995799;1.000000;,
    0.995799;0.551480;,
    0.782910;0.551480;,
    0.995799;0.551480;,
    0.995799;1.000000;,
    0.995799;1.000000;,
    0.782910;1.000000;,
    0.782910;0.551480;,
    0.995799;1.000000;,
    0.995799;0.551480;,
    0.603322;0.551480;,
    0.603322;0.551480;,
    0.603322;1.000000;,
    0.995799;1.000000;,
    0.879867;0.536350;,
    0.878497;0.450601;,
    0.752916;0.536396;,
    0.879591;0.535037;,
    0.753479;0.534780;,
    0.814193;0.444766;,
    0.814193;0.444766;,
    0.879238;0.444759;,
    0.879591;0.535037;,
    0.752916;0.536396;,
    0.878497;0.450601;,
    0.753512;0.450184;,
    0.882924;0.538625;,
    0.838172;0.445347;,
    0.762712;0.445347;,
    0.746101;0.445347;,
    0.746101;0.538625;,
    0.882924;0.538625;,
    0.882924;0.538625;,
    0.882923;0.445347;,
    0.746101;0.445347;,
    0.981034;0.862287;,
    0.795829;0.862287;,
    0.795829;1.000000;,
    0.795829;1.000000;,
    0.981034;1.000000;,
    0.981034;0.862287;,
    0.995799;0.862287;,
    0.684533;0.862287;,
    0.684533;1.000000;,
    0.684533;1.000000;,
    0.995799;1.000000;,
    0.995799;0.862287;,
    0.981034;0.862287;,
    0.795829;0.862287;,
    0.795829;1.000000;,
    0.795829;1.000000;,
    0.981034;1.000000;,
    0.981034;0.862287;;
   }
  }
 }
}